{
  "annotations": {
    "list": [
      {
        "builtIn": 1,
        "datasource": "-- Grafana --",
        "enable": true,
        "hide": true,
        "iconColor": "rgba(0, 211, 255, 1)",
        "name": "Annotations & Alerts",
        "type": "dashboard"
      }
    ]
  },
  "editable": true,
  "gnetId": null,
  "graphTooltip": 0,
  "links": [],
  "panels": [
    {
      "columns": [],
      "datasource": null,
      "fontSize": "150%",
      "gridPos": {
        "h": 25,
        "w": 9,
        "x": 0,
        "y": 0
      },
      "id": 3,
      "links": [],
      "options": {},
      "pageSize": null,
      "repeat": null,
      "scroll": true,
      "showHeader": true,
      "sort": {
        "col": 1,
        "desc": false
      },
      "styles": [
        {
          "alias": "Time",
          "dateFormat": "YYYY-MM-DD HH:mm:ss",
          "pattern": "Time",
          "type": "hidden"
        },
        {
          "alias": "Site",
          "colorMode": null,
          "colors": [
            "rgba(245, 54, 54, 0.9)",
            "rgba(237, 129, 40, 0.89)",
            "rgba(50, 172, 45, 0.97)"
          ],
          "dateFormat": "YYYY-MM-DD HH:mm:ss",
          "decimals": 2,
          "mappingType": 1,
          "pattern": "site",
          "thresholds": [],
          "type": "number",
          "unit": "short"
        },
        {
          "alias": "",
          "colorMode": "cell",
          "colors": [
            "#bf1b00",
            "rgba(237, 129, 40, 0.89)",
            "rgba(50, 172, 45, 0.97)"
          ],
          "dateFormat": "YYYY-MM-DD HH:mm:ss",
          "decimals": 0,
          "mappingType": 1,
          "pattern": "Site Status",
          "preserveFormat": false,
          "sanitize": true,
          "thresholds": [
            "CLOSED"
          ],
          "type": "string",
          "unit": "short",
          "valueMaps": []
        },
        {
          "alias": "",
          "colorMode": null,
          "colors": [
            "rgba(245, 54, 54, 0.9)",
            "rgba(237, 129, 40, 0.89)",
            "rgba(50, 172, 45, 0.97)"
          ],
          "decimals": 0,
          "pattern": "/.*/",
          "thresholds": [],
          "type": "string",
          "unit": "short"
        }
      ],
      "targets": [
        {
          "groupBy": [
            {
              "params": [
                "site"
              ],
              "type": "tag"
            }
          ],
          "measurement": "people_inside",
          "orderByTime": "ASC",
          "policy": "default",
          "refId": "A",
          "resultFormat": "table",
          "select": [
            [
              {
                "params": [
                  "value"
                ],
                "type": "field"
              },
              {
                "params": [],
                "type": "last"
              },
              {
                "params": [
                  "People Inside"
                ],
                "type": "alias"
              }
            ]
          ],
          "tags": [
            {
              "key": "accelerator",
              "operator": "=",
              "value": "SPS"
            }
          ]
        },
        {
          "groupBy": [
            {
              "params": [
                "site"
              ],
              "type": "tag"
            }
          ],
          "measurement": "site_status",
          "orderByTime": "ASC",
          "policy": "default",
          "refId": "B",
          "resultFormat": "table",
          "select": [
            [
              {
                "params": [
                  "value"
                ],
                "type": "field"
              },
              {
                "params": [],
                "type": "last"
              },
              {
                "params": [
                  "Site Status"
                ],
                "type": "alias"
              }
            ]
          ],
          "tags": [
            {
              "key": "accelerator",
              "operator": "=",
              "value": "SPS"
            }
          ]
        }
      ],
      "title": "",
      "transform": "table",
      "transparent": true,
      "type": "table"
    },
    {
      "columns": [],
      "datasource": null,
      "fontSize": "150%",
      "gridPos": {
        "h": 25,
        "w": 11,
        "x": 9,
        "y": 0
      },
      "id": 2,
      "links": [],
      "options": {},
      "pageSize": null,
      "scroll": true,
      "showHeader": true,
      "sort": {
        "col": 1,
        "desc": false
      },
      "styles": [
        {
          "alias": "Time",
          "dateFormat": "YYYY-MM-DD HH:mm:ss",
          "pattern": "Time",
          "type": "hidden"
        },
        {
          "alias": "Filter Applied",
          "colorMode": null,
          "colors": [
            "rgba(245, 54, 54, 0.9)",
            "rgba(237, 129, 40, 0.89)",
            "rgba(50, 172, 45, 0.97)"
          ],
          "dateFormat": "YYYY-MM-DD HH:mm:ss",
          "decimals": 2,
          "mappingType": 1,
          "pattern": "filter",
          "thresholds": [],
          "type": "number",
          "unit": "short"
        },
        {
          "alias": "",
          "colorMode": null,
          "colors": [
            "rgba(245, 54, 54, 0.9)",
            "rgba(237, 129, 40, 0.89)",
            "rgba(50, 172, 45, 0.97)"
          ],
          "decimals": 0,
          "pattern": "/.*/",
          "thresholds": [],
          "type": "string",
          "unit": "short"
        }
      ],
      "targets": [
        {
          "groupBy": [
            {
              "params": [
                "filter"
              ],
              "type": "tag"
            }
          ],
          "measurement": "adams_sps",
          "orderByTime": "ASC",
          "policy": "default",
          "refId": "A",
          "resultFormat": "table",
          "select": [
            [
              {
                "params": [
                  "edh_required"
                ],
                "type": "field"
              },
              {
                "params": [],
                "type": "last"
              },
              {
                "params": [
                  "EHD Required"
                ],
                "type": "alias"
              }
            ],
            [
              {
                "params": [
                  "impact_applied"
                ],
                "type": "field"
              },
              {
                "params": [],
                "type": "last"
              },
              {
                "params": [
                  "Impact Applied Y/N"
                ],
                "type": "alias"
              }
            ],
            [
              {
                "params": [
                  "number_people_auth"
                ],
                "type": "field"
              },
              {
                "params": [],
                "type": "last"
              },
              {
                "params": [
                  "People Authorised"
                ],
                "type": "alias"
              }
            ]
          ],
          "tags": [
            {
              "key": "filter",
              "operator": "!=",
              "value": "SPS-EHN1-NP04"
            },
            {
              "condition": "AND",
              "key": "filter",
              "operator": "!=",
              "value": "SPS-TCV4"
            }
          ]
        }
      ],
      "title": "",
      "transform": "table",
      "transparent": true,
      "type": "table"
    }
  ],
  "schemaVersion": 20,
  "style": "dark",
  "tags": [
    "ZORA SPS"
  ],
  "templating": {
    "list": []
  },
  "time": {
    "from": "now-6h",
    "to": "now"
  },
  "timepicker": {
    "refresh_intervals": [
      "5s",
      "10s",
      "30s",
      "1m",
      "5m",
      "15m",
      "30m",
      "1h",
      "2h",
      "1d"
    ],
    "time_options": [
      "5m",
      "15m",
      "1h",
      "6h",
      "12h",
      "24h",
      "2d",
      "7d",
      "30d"
    ]
  },
  "timezone": "",
  "title": "General Status SPS New Table",
  "uid": "BaJ9Acfiz"
}