{
  "annotations": {
    "list": [
      {
        "builtIn": 1,
        "datasource": "-- Grafana --",
        "enable": true,
        "hide": true,
        "iconColor": "rgba(0, 211, 255, 1)",
        "name": "Annotations & Alerts",
        "type": "dashboard"
      }
    ]
  },
  "description": "",
  "editable": true,
  "gnetId": null,
  "graphTooltip": 0,
  "iteration": 1580481062534,
  "links": [
    {
      "icon": "dashboard",
      "tags": [],
      "title": "LHC UPS - SURFACE ACCESS",
      "type": "link",
      "url": "https://ssm.cern.ch:3000/d/CKId_s-Zk/lhc-ups-surface-riello?orgId=1&refresh=30s"
    },
    {
      "icon": "dashboard",
      "tags": [],
      "title": "LHC UPS - UNDERGROUND ACCESS",
      "type": "link",
      "url": "https://ssm.cern.ch:3000/d/LkqK_y-Wz/lhc-ups-underground-riello?orgId=1&refresh=30s"
    },
    {
      "icon": "dashboard",
      "tags": [],
      "title": "LHC UPS - TOROID / CONTROL DOOR",
      "type": "link",
      "url": "https://ssm.cern.ch:3000/d/UVWh_s-Zk/lhc-ups-toroid-control-door-riello?orgId=1&refresh=30s"
    },
    {
      "icon": "dashboard",
      "tags": [],
      "title": "LHC UPS - BENNING",
      "type": "link",
      "url": "https://ssm.cern.ch:3000/d/ebOT8WAZk/lhc-ups-global-view-2?orgId=1&refresh=10s"
    },
    {
      "icon": "external link",
      "tags": [],
      "title": "PS UPS",
      "type": "link",
      "url": "https://ssm.cern.ch:3000/d/CKId_s-Zk/lhc-ups-surface-riello?orgId=1&refresh=30s"
    },
    {
      "icon": "external link",
      "tags": [],
      "title": "SPS UPS",
      "type": "link"
    }
  ],
  "panels": [
    {
      "content": "<font size=\"6\"><b><u>UPS Information</u></b></font>\n",
      "datasource": null,
      "gridPos": {
        "h": 2,
        "w": 10,
        "x": 1,
        "y": 0
      },
      "id": 29,
      "mode": "html",
      "options": {},
      "targets": [
        {
          "groupBy": [
            {
              "params": [
                "$__interval"
              ],
              "type": "time"
            },
            {
              "params": [
                "null"
              ],
              "type": "fill"
            }
          ],
          "orderByTime": "ASC",
          "policy": "default",
          "refId": "A",
          "resultFormat": "time_series",
          "select": [
            [
              {
                "params": [
                  "value"
                ],
                "type": "field"
              },
              {
                "params": [],
                "type": "mean"
              }
            ]
          ],
          "tags": []
        }
      ],
      "timeFrom": null,
      "timeShift": null,
      "title": "",
      "transparent": true,
      "type": "text"
    },
    {
      "content": "\n<font size=\"6\"><b><u>BATTERY Information</u></b></font>\n",
      "datasource": null,
      "gridPos": {
        "h": 2,
        "w": 10,
        "x": 12,
        "y": 0
      },
      "id": 30,
      "mode": "html",
      "options": {},
      "targets": [
        {
          "groupBy": [
            {
              "params": [
                "$__interval"
              ],
              "type": "time"
            },
            {
              "params": [
                "null"
              ],
              "type": "fill"
            }
          ],
          "orderByTime": "ASC",
          "policy": "default",
          "refId": "A",
          "resultFormat": "time_series",
          "select": [
            [
              {
                "params": [
                  "value"
                ],
                "type": "field"
              },
              {
                "params": [],
                "type": "mean"
              }
            ]
          ],
          "tags": []
        }
      ],
      "timeFrom": null,
      "timeShift": null,
      "title": "",
      "transparent": true,
      "type": "text"
    },
    {
      "cacheTimeout": null,
      "datasource": null,
      "gridPos": {
        "h": 2,
        "w": 5,
        "x": 1,
        "y": 2
      },
      "id": 18,
      "links": [],
      "options": {
        "displayMode": "lcd",
        "fieldOptions": {
          "calcs": [
            "mean"
          ],
          "defaults": {
            "mappings": [
              {
                "id": 0,
                "op": "=",
                "text": "N/A",
                "type": 1,
                "value": "null"
              }
            ],
            "max": 100,
            "min": 0,
            "nullValueMode": "connected",
            "thresholds": [
              {
                "color": "semi-dark-green",
                "value": null
              },
              {
                "color": "semi-dark-green",
                "value": 80
              }
            ],
            "unit": "none"
          },
          "override": {},
          "values": false
        },
        "orientation": "horizontal"
      },
      "pluginVersion": "6.5.3",
      "targets": [
        {
          "groupBy": [],
          "measurement": "ups_riello_lhc",
          "orderByTime": "ASC",
          "policy": "default",
          "refId": "A",
          "resultFormat": "time_series",
          "select": [
            [
              {
                "params": [
                  "Output Percent Load"
                ],
                "type": "field"
              }
            ]
          ],
          "tags": [
            {
              "key": "agent_host",
              "operator": "=~",
              "value": "/^$UPSName$/"
            }
          ]
        }
      ],
      "timeFrom": null,
      "timeShift": null,
      "title": "UPS Output Percent Load [%]",
      "type": "bargauge"
    },
    {
      "cacheTimeout": null,
      "datasource": null,
      "description": "",
      "gridPos": {
        "h": 4,
        "w": 5,
        "x": 6,
        "y": 2
      },
      "id": 14,
      "links": [],
      "options": {
        "fieldOptions": {
          "calcs": [
            "lastNotNull"
          ],
          "defaults": {
            "mappings": [
              {
                "id": 0,
                "op": "=",
                "text": "N/A",
                "type": 1,
                "value": "null"
              }
            ],
            "max": 60,
            "min": 0,
            "nullValueMode": "connected",
            "thresholds": [
              {
                "color": "#299c46",
                "value": null
              },
              {
                "color": "semi-dark-red",
                "value": 51
              }
            ],
            "unit": "none"
          },
          "override": {},
          "values": false
        },
        "orientation": "horizontal",
        "showThresholdLabels": false,
        "showThresholdMarkers": true
      },
      "pluginVersion": "6.5.3",
      "targets": [
        {
          "groupBy": [],
          "measurement": "ups_riello_lhc",
          "orderByTime": "ASC",
          "policy": "default",
          "refId": "A",
          "resultFormat": "time_series",
          "select": [
            [
              {
                "params": [
                  "Internal Temperature"
                ],
                "type": "field"
              }
            ]
          ],
          "tags": [
            {
              "key": "agent_host",
              "operator": "=~",
              "value": "/^$UPSName$/"
            }
          ]
        }
      ],
      "timeFrom": null,
      "timeShift": null,
      "title": "UPS Internal Temperature [°C]",
      "type": "gauge"
    },
    {
      "cacheTimeout": null,
      "datasource": null,
      "gridPos": {
        "h": 2,
        "w": 5,
        "x": 12,
        "y": 2
      },
      "hideTimeOverride": true,
      "id": 9,
      "links": [],
      "options": {
        "displayMode": "lcd",
        "fieldOptions": {
          "calcs": [
            "lastNotNull"
          ],
          "defaults": {
            "mappings": [
              {
                "id": 0,
                "op": "=",
                "text": "N/A",
                "type": 1,
                "value": "null"
              }
            ],
            "max": 100,
            "min": 0,
            "nullValueMode": "connected",
            "thresholds": [
              {
                "color": "semi-dark-green",
                "value": null
              },
              {
                "color": "semi-dark-green",
                "value": 80
              }
            ],
            "unit": "none"
          },
          "override": {},
          "values": false
        },
        "orientation": "horizontal"
      },
      "pluginVersion": "6.5.3",
      "repeat": null,
      "targets": [
        {
          "alias": "",
          "groupBy": [],
          "measurement": "ups_riello_lhc",
          "orderByTime": "ASC",
          "policy": "default",
          "refId": "A",
          "resultFormat": "time_series",
          "select": [
            [
              {
                "params": [
                  "Estimated Charge Remaining"
                ],
                "type": "field"
              }
            ]
          ],
          "slimit": "",
          "tags": [
            {
              "key": "agent_host",
              "operator": "=~",
              "value": "/^$UPSName$/"
            }
          ]
        }
      ],
      "timeFrom": "1h",
      "title": "Battery Charge [%]",
      "type": "bargauge"
    },
    {
      "cacheTimeout": null,
      "datasource": null,
      "gridPos": {
        "h": 4,
        "w": 5,
        "x": 17,
        "y": 2
      },
      "id": 11,
      "links": [],
      "options": {
        "fieldOptions": {
          "calcs": [
            "lastNotNull"
          ],
          "defaults": {
            "mappings": [
              {
                "id": 0,
                "op": "=",
                "text": "N/A",
                "type": 1,
                "value": "null"
              }
            ],
            "max": 120,
            "min": 0,
            "nullValueMode": "connected",
            "thresholds": [
              {
                "color": "semi-dark-red",
                "value": null
              },
              {
                "color": "semi-dark-green",
                "value": 15
              }
            ],
            "unit": "none"
          },
          "override": {},
          "values": false
        },
        "orientation": "horizontal",
        "showThresholdLabels": false,
        "showThresholdMarkers": true
      },
      "pluginVersion": "6.5.3",
      "targets": [
        {
          "groupBy": [],
          "measurement": "ups_riello_lhc",
          "orderByTime": "ASC",
          "policy": "default",
          "refId": "A",
          "resultFormat": "time_series",
          "select": [
            [
              {
                "params": [
                  "Estimated Minutes Remaining"
                ],
                "type": "field"
              }
            ]
          ],
          "tags": [
            {
              "key": "agent_host",
              "operator": "=~",
              "value": "/^$UPSName$/"
            }
          ]
        }
      ],
      "timeFrom": null,
      "timeShift": null,
      "title": "Battery Autonomy [mn]",
      "type": "gauge"
    },
    {
      "cacheTimeout": null,
      "colorBackground": true,
      "colorValue": false,
      "colors": [
        "#E02F44",
        "#E02F44",
        "#56A64B"
      ],
      "datasource": null,
      "format": "none",
      "gauge": {
        "maxValue": 100,
        "minValue": 0,
        "show": false,
        "thresholdLabels": false,
        "thresholdMarkers": true
      },
      "gridPos": {
        "h": 2,
        "w": 3,
        "x": 1,
        "y": 4
      },
      "id": 20,
      "interval": null,
      "links": [],
      "mappingType": 2,
      "mappingTypes": [
        {
          "name": "value to text",
          "value": 1
        },
        {
          "name": "range to text",
          "value": 2
        }
      ],
      "maxDataPoints": 100,
      "nullPointMode": "connected",
      "nullText": null,
      "options": {},
      "postfix": "",
      "postfixFontSize": "50%",
      "prefix": "",
      "prefixFontSize": "50%",
      "rangeMaps": [
        {
          "from": "0",
          "text": "Power Lost",
          "to": "99"
        }
      ],
      "sparkline": {
        "fillColor": "rgba(31, 118, 189, 0.18)",
        "full": false,
        "lineColor": "rgb(31, 120, 193)",
        "show": false,
        "ymax": null,
        "ymin": null
      },
      "tableColumn": "",
      "targets": [
        {
          "groupBy": [],
          "measurement": "ups_riello_lhc",
          "orderByTime": "ASC",
          "policy": "default",
          "refId": "A",
          "resultFormat": "time_series",
          "select": [
            [
              {
                "params": [
                  "Input Line Voltage"
                ],
                "type": "field"
              }
            ]
          ],
          "tags": [
            {
              "key": "agent_host",
              "operator": "=~",
              "value": "/^$UPSName$/"
            }
          ]
        }
      ],
      "thresholds": "0,99",
      "timeFrom": null,
      "timeShift": null,
      "title": "UPS Input Voltage [V]",
      "type": "singlestat",
      "valueFontSize": "50%",
      "valueMaps": [
        {
          "op": "=",
          "text": "N/A",
          "value": "null"
        }
      ],
      "valueName": "current"
    },
    {
      "cacheTimeout": null,
      "colorBackground": true,
      "colorPrefix": false,
      "colorValue": false,
      "colors": [
        "#E02F44",
        "#E02F44",
        "#56A64B"
      ],
      "datasource": "SSM Zabbix",
      "format": "none",
      "gauge": {
        "maxValue": 100,
        "minValue": 0,
        "show": false,
        "thresholdLabels": false,
        "thresholdMarkers": true
      },
      "gridPos": {
        "h": 2,
        "w": 2,
        "x": 4,
        "y": 4
      },
      "id": 38,
      "interval": null,
      "links": [],
      "mappingType": 2,
      "mappingTypes": [
        {
          "name": "value to text",
          "value": 1
        },
        {
          "name": "range to text",
          "value": 2
        }
      ],
      "maxDataPoints": 100,
      "nullPointMode": "connected",
      "nullText": null,
      "options": {},
      "postfix": "",
      "postfixFontSize": "50%",
      "prefix": "",
      "prefixFontSize": "50%",
      "rangeMaps": [
        {
          "from": "1",
          "text": "OK",
          "to": "2"
        },
        {
          "from": "0",
          "text": "NOT OK",
          "to": "1"
        }
      ],
      "sparkline": {
        "fillColor": "rgba(31, 118, 189, 0.18)",
        "full": false,
        "lineColor": "rgb(31, 120, 193)",
        "show": false,
        "ymax": null,
        "ymin": null
      },
      "tableColumn": "",
      "targets": [
        {
          "application": {
            "filter": "Network"
          },
          "functions": [],
          "group": {
            "filter": "LHC UPS RIELLO"
          },
          "host": {
            "filter": "$UPSName"
          },
          "item": {
            "filter": "Ping Check"
          },
          "mode": 0,
          "options": {
            "showDisabledItems": false,
            "skipEmptyValues": false
          },
          "refId": "A",
          "resultFormat": "time_series",
          "table": {
            "skipEmptyValues": false
          },
          "triggers": {
            "acknowledged": 2,
            "count": true,
            "minSeverity": 3
          }
        }
      ],
      "thresholds": "0,1",
      "timeFrom": null,
      "timeShift": null,
      "title": "Connection",
      "type": "singlestat",
      "valueFontSize": "50%",
      "valueMaps": [
        {
          "op": "=",
          "text": "N/A",
          "value": "null"
        }
      ],
      "valueName": "current"
    },
    {
      "cacheTimeout": null,
      "colorBackground": true,
      "colorValue": false,
      "colors": [
        "#299c46",
        "#E02F44",
        "#d44a3a"
      ],
      "datasource": null,
      "format": "none",
      "gauge": {
        "maxValue": 100,
        "minValue": 0,
        "show": false,
        "thresholdLabels": false,
        "thresholdMarkers": true
      },
      "gridPos": {
        "h": 2,
        "w": 5,
        "x": 12,
        "y": 4
      },
      "id": 32,
      "interval": null,
      "links": [],
      "mappingType": 1,
      "mappingTypes": [
        {
          "name": "value to text",
          "value": 1
        },
        {
          "name": "range to text",
          "value": 2
        }
      ],
      "maxDataPoints": 100,
      "nullPointMode": "connected",
      "nullText": null,
      "options": {},
      "postfix": "",
      "postfixFontSize": "50%",
      "prefix": "",
      "prefixFontSize": "50%",
      "rangeMaps": [
        {
          "from": "null",
          "text": "N/A",
          "to": "null"
        }
      ],
      "sparkline": {
        "fillColor": "rgba(31, 118, 189, 0.18)",
        "full": false,
        "lineColor": "rgb(31, 120, 193)",
        "show": false,
        "ymax": null,
        "ymin": null
      },
      "tableColumn": "",
      "targets": [
        {
          "groupBy": [],
          "measurement": "ups_riello_lhc",
          "orderByTime": "ASC",
          "policy": "default",
          "refId": "A",
          "resultFormat": "time_series",
          "select": [
            [
              {
                "params": [
                  "Output Source (3=OK/4=Bypass/5=Battery)"
                ],
                "type": "field"
              }
            ]
          ],
          "tags": [
            {
              "key": "agent_host",
              "operator": "=~",
              "value": "/^$UPSName$/"
            }
          ]
        }
      ],
      "thresholds": "4,6",
      "timeFrom": null,
      "timeShift": null,
      "title": "Output Source",
      "type": "singlestat",
      "valueFontSize": "50%",
      "valueMaps": [
        {
          "op": "=",
          "text": "Line Present",
          "value": "3"
        },
        {
          "op": "=",
          "text": "Bypass On",
          "value": "4"
        },
        {
          "op": "=",
          "text": "On Battery",
          "value": "5"
        },
        {
          "op": "=",
          "text": "N/A",
          "value": "2"
        }
      ],
      "valueName": "current"
    },
    {
      "cacheTimeout": null,
      "colorBackground": false,
      "colorValue": true,
      "colors": [
        "#56A64B",
        "rgba(237, 129, 40, 0.89)",
        "#d44a3a"
      ],
      "datasource": null,
      "format": "none",
      "gauge": {
        "maxValue": 100,
        "minValue": 0,
        "show": false,
        "thresholdLabels": false,
        "thresholdMarkers": true
      },
      "gridPos": {
        "h": 2,
        "w": 5,
        "x": 1,
        "y": 6
      },
      "id": 19,
      "interval": "",
      "links": [],
      "mappingType": 1,
      "mappingTypes": [
        {
          "name": "value to text",
          "value": 1
        },
        {
          "name": "range to text",
          "value": 2
        }
      ],
      "maxDataPoints": 100,
      "nullPointMode": "connected",
      "nullText": null,
      "options": {},
      "postfix": "",
      "postfixFontSize": "50%",
      "prefix": "",
      "prefixFontSize": "50%",
      "rangeMaps": [
        {
          "from": "null",
          "text": "N/A",
          "to": "null"
        }
      ],
      "sparkline": {
        "fillColor": "rgba(31, 118, 189, 0.18)",
        "full": false,
        "lineColor": "rgb(31, 120, 193)",
        "show": false,
        "ymax": null,
        "ymin": null
      },
      "tableColumn": "",
      "targets": [
        {
          "groupBy": [],
          "measurement": "ups_riello_lhc",
          "orderByTime": "ASC",
          "policy": "default",
          "refId": "A",
          "resultFormat": "time_series",
          "select": [
            [
              {
                "params": [
                  "Output Voltage"
                ],
                "type": "field"
              }
            ]
          ],
          "tags": [
            {
              "key": "agent_host",
              "operator": "=~",
              "value": "/^$UPSName$/"
            }
          ]
        }
      ],
      "thresholds": "",
      "timeFrom": null,
      "timeShift": null,
      "title": "UPS Output Voltage [V]",
      "type": "singlestat",
      "valueFontSize": "50%",
      "valueMaps": [
        {
          "op": "=",
          "text": "N/A",
          "value": "null"
        }
      ],
      "valueName": "current"
    },
    {
      "cacheTimeout": null,
      "colorBackground": false,
      "colorValue": true,
      "colors": [
        "#56A64B",
        "rgba(237, 129, 40, 0.89)",
        "#d44a3a"
      ],
      "datasource": null,
      "format": "none",
      "gauge": {
        "maxValue": 100,
        "minValue": 0,
        "show": false,
        "thresholdLabels": false,
        "thresholdMarkers": true
      },
      "gridPos": {
        "h": 2,
        "w": 5,
        "x": 6,
        "y": 6
      },
      "id": 17,
      "interval": null,
      "links": [],
      "mappingType": 1,
      "mappingTypes": [
        {
          "name": "value to text",
          "value": 1
        },
        {
          "name": "range to text",
          "value": 2
        }
      ],
      "maxDataPoints": 100,
      "nullPointMode": "connected",
      "nullText": null,
      "options": {},
      "postfix": "",
      "postfixFontSize": "50%",
      "prefix": "",
      "prefixFontSize": "50%",
      "rangeMaps": [
        {
          "from": "null",
          "text": "N/A",
          "to": "null"
        }
      ],
      "sparkline": {
        "fillColor": "rgba(31, 118, 189, 0.18)",
        "full": false,
        "lineColor": "rgb(31, 120, 193)",
        "show": false,
        "ymax": null,
        "ymin": null
      },
      "tableColumn": "",
      "targets": [
        {
          "groupBy": [],
          "measurement": "ups_riello_lhc",
          "orderByTime": "ASC",
          "policy": "default",
          "refId": "A",
          "resultFormat": "time_series",
          "select": [
            [
              {
                "params": [
                  "Output Current"
                ],
                "type": "field"
              },
              {
                "params": [
                  " / 10"
                ],
                "type": "math"
              }
            ]
          ],
          "tags": [
            {
              "key": "agent_host",
              "operator": "=~",
              "value": "/^$UPSName$/"
            }
          ]
        }
      ],
      "thresholds": "",
      "timeFrom": null,
      "timeShift": null,
      "title": "UPS Output Current [A]",
      "type": "singlestat",
      "valueFontSize": "50%",
      "valueMaps": [
        {
          "op": "=",
          "text": "N/A",
          "value": "null"
        }
      ],
      "valueName": "current"
    },
    {
      "cacheTimeout": null,
      "colorBackground": true,
      "colorValue": false,
      "colors": [
        "#E02F44",
        "#E02F44",
        "#56A64B"
      ],
      "datasource": null,
      "decimals": null,
      "format": "none",
      "gauge": {
        "maxValue": 100,
        "minValue": 0,
        "show": false,
        "thresholdLabels": false,
        "thresholdMarkers": true
      },
      "gridPos": {
        "h": 2,
        "w": 5,
        "x": 12,
        "y": 6
      },
      "id": 13,
      "interval": null,
      "links": [],
      "mappingType": 2,
      "mappingTypes": [
        {
          "name": "value to text",
          "value": 1
        },
        {
          "name": "range to text",
          "value": 2
        }
      ],
      "maxDataPoints": 100,
      "nullPointMode": "connected",
      "nullText": null,
      "options": {},
      "postfix": "",
      "postfixFontSize": "50%",
      "prefix": "",
      "prefixFontSize": "50%",
      "rangeMaps": [
        {
          "from": "0",
          "text": "FAULT",
          "to": "98"
        }
      ],
      "sparkline": {
        "fillColor": "rgba(31, 118, 189, 0.18)",
        "full": false,
        "lineColor": "rgb(31, 120, 193)",
        "show": false,
        "ymax": null,
        "ymin": null
      },
      "tableColumn": "",
      "targets": [
        {
          "groupBy": [],
          "measurement": "ups_riello_lhc",
          "orderByTime": "ASC",
          "policy": "default",
          "refId": "A",
          "resultFormat": "time_series",
          "select": [
            [
              {
                "params": [
                  "Battery Voltage"
                ],
                "type": "field"
              },
              {
                "params": [
                  " / 10"
                ],
                "type": "math"
              }
            ]
          ],
          "tags": [
            {
              "key": "agent_host",
              "operator": "=~",
              "value": "/^$UPSName$/"
            }
          ]
        }
      ],
      "thresholds": "0,98",
      "timeFrom": null,
      "timeShift": null,
      "title": "Battery Voltage [V]",
      "type": "singlestat",
      "valueFontSize": "50%",
      "valueMaps": [
        {
          "op": "=",
          "text": "N/A",
          "value": "null"
        }
      ],
      "valueName": "current"
    },
    {
      "cacheTimeout": null,
      "colorBackground": false,
      "colorValue": true,
      "colors": [
        "#56A64B",
        "rgba(237, 129, 40, 0.89)",
        "#d44a3a"
      ],
      "datasource": null,
      "decimals": 0,
      "format": "none",
      "gauge": {
        "maxValue": 100,
        "minValue": 0,
        "show": false,
        "thresholdLabels": false,
        "thresholdMarkers": true
      },
      "gridPos": {
        "h": 2,
        "w": 5,
        "x": 17,
        "y": 6
      },
      "id": 27,
      "interval": null,
      "links": [],
      "mappingType": 1,
      "mappingTypes": [
        {
          "name": "value to text",
          "value": 1
        },
        {
          "name": "range to text",
          "value": 2
        }
      ],
      "maxDataPoints": 100,
      "nullPointMode": "connected",
      "nullText": null,
      "options": {},
      "postfix": "",
      "postfixFontSize": "50%",
      "prefix": "",
      "prefixFontSize": "50%",
      "rangeMaps": [
        {
          "from": "null",
          "text": "N/A",
          "to": "null"
        }
      ],
      "sparkline": {
        "fillColor": "rgba(31, 118, 189, 0.18)",
        "full": false,
        "lineColor": "rgb(31, 120, 193)",
        "show": false,
        "ymax": null,
        "ymin": null
      },
      "tableColumn": "",
      "targets": [
        {
          "groupBy": [],
          "measurement": "ups_riello_lhc",
          "orderByTime": "ASC",
          "policy": "default",
          "refId": "A",
          "resultFormat": "time_series",
          "select": [
            [
              {
                "params": [
                  "Output Frequency"
                ],
                "type": "field"
              },
              {
                "params": [
                  " / 10"
                ],
                "type": "math"
              }
            ]
          ],
          "tags": [
            {
              "key": "agent_host",
              "operator": "=~",
              "value": "/^$UPSName$/"
            }
          ]
        }
      ],
      "thresholds": "",
      "timeFrom": null,
      "timeShift": null,
      "title": "UPS Output Frequency [Hz]",
      "type": "singlestat",
      "valueFontSize": "50%",
      "valueMaps": [
        {
          "op": "=",
          "text": "N/A",
          "value": "null"
        }
      ],
      "valueName": "current"
    },
    {
      "aliasColors": {},
      "bars": false,
      "dashLength": 10,
      "dashes": false,
      "datasource": null,
      "fill": 3,
      "fillGradient": 0,
      "gridPos": {
        "h": 5,
        "w": 10,
        "x": 1,
        "y": 8
      },
      "hiddenSeries": false,
      "id": 5,
      "legend": {
        "alignAsTable": false,
        "avg": false,
        "current": false,
        "max": true,
        "min": true,
        "show": true,
        "total": false,
        "values": true
      },
      "lines": true,
      "linewidth": 2,
      "nullPointMode": "null",
      "options": {
        "dataLinks": []
      },
      "percentage": false,
      "pointradius": 2,
      "points": false,
      "renderer": "flot",
      "seriesOverrides": [],
      "spaceLength": 10,
      "stack": false,
      "steppedLine": false,
      "targets": [
        {
          "groupBy": [],
          "measurement": "ups_riello_lhc",
          "orderByTime": "ASC",
          "policy": "default",
          "refId": "A",
          "resultFormat": "time_series",
          "select": [
            [
              {
                "params": [
                  "Input Line Voltage"
                ],
                "type": "field"
              }
            ],
            [
              {
                "params": [
                  "Output Voltage"
                ],
                "type": "field"
              }
            ]
          ],
          "tags": [
            {
              "key": "agent_host",
              "operator": "=~",
              "value": "/^$UPSName$/"
            }
          ]
        }
      ],
      "thresholds": [],
      "timeFrom": null,
      "timeRegions": [],
      "timeShift": null,
      "title": "Input vs Output UPS Voltage",
      "tooltip": {
        "shared": true,
        "sort": 0,
        "value_type": "individual"
      },
      "type": "graph",
      "xaxis": {
        "buckets": null,
        "mode": "time",
        "name": null,
        "show": true,
        "values": []
      },
      "yaxes": [
        {
          "decimals": 0,
          "format": "short",
          "label": null,
          "logBase": 1,
          "max": null,
          "min": null,
          "show": true
        },
        {
          "format": "short",
          "label": null,
          "logBase": 1,
          "max": null,
          "min": null,
          "show": true
        }
      ],
      "yaxis": {
        "align": false,
        "alignLevel": null
      }
    },
    {
      "aliasColors": {},
      "bars": false,
      "dashLength": 10,
      "dashes": false,
      "datasource": null,
      "decimals": 0,
      "fill": 3,
      "fillGradient": 0,
      "gridPos": {
        "h": 5,
        "w": 10,
        "x": 12,
        "y": 8
      },
      "hiddenSeries": false,
      "id": 15,
      "legend": {
        "avg": false,
        "current": false,
        "max": true,
        "min": true,
        "show": true,
        "total": false,
        "values": true
      },
      "lines": true,
      "linewidth": 2,
      "nullPointMode": "null",
      "options": {
        "dataLinks": []
      },
      "percentage": false,
      "pointradius": 2,
      "points": false,
      "renderer": "flot",
      "seriesOverrides": [],
      "spaceLength": 10,
      "stack": false,
      "steppedLine": false,
      "targets": [
        {
          "groupBy": [],
          "measurement": "ups_riello_lhc",
          "orderByTime": "ASC",
          "policy": "default",
          "refId": "A",
          "resultFormat": "time_series",
          "select": [
            [
              {
                "params": [
                  "Estimated Minutes Remaining"
                ],
                "type": "field"
              }
            ]
          ],
          "tags": [
            {
              "key": "agent_host",
              "operator": "=~",
              "value": "/^$UPSName$/"
            }
          ]
        }
      ],
      "thresholds": [],
      "timeFrom": null,
      "timeRegions": [],
      "timeShift": null,
      "title": "Estimated Minutes Remaining",
      "tooltip": {
        "shared": true,
        "sort": 0,
        "value_type": "individual"
      },
      "type": "graph",
      "xaxis": {
        "buckets": null,
        "mode": "time",
        "name": null,
        "show": true,
        "values": []
      },
      "yaxes": [
        {
          "decimals": 0,
          "format": "short",
          "label": null,
          "logBase": 1,
          "max": null,
          "min": null,
          "show": true
        },
        {
          "decimals": 0,
          "format": "short",
          "label": "",
          "logBase": 1,
          "max": null,
          "min": null,
          "show": true
        }
      ],
      "yaxis": {
        "align": false,
        "alignLevel": null
      }
    },
    {
      "aliasColors": {},
      "bars": false,
      "dashLength": 10,
      "dashes": false,
      "datasource": null,
      "fill": 3,
      "fillGradient": 0,
      "gridPos": {
        "h": 5,
        "w": 5,
        "x": 1,
        "y": 13
      },
      "hiddenSeries": false,
      "id": 23,
      "legend": {
        "alignAsTable": false,
        "avg": false,
        "current": false,
        "max": true,
        "min": true,
        "show": true,
        "total": false,
        "values": true
      },
      "lines": true,
      "linewidth": 2,
      "nullPointMode": "null",
      "options": {
        "dataLinks": []
      },
      "percentage": false,
      "pointradius": 2,
      "points": false,
      "renderer": "flot",
      "seriesOverrides": [],
      "spaceLength": 10,
      "stack": false,
      "steppedLine": false,
      "targets": [
        {
          "groupBy": [],
          "measurement": "ups_riello_lhc",
          "orderByTime": "ASC",
          "policy": "default",
          "refId": "A",
          "resultFormat": "time_series",
          "select": [
            [
              {
                "params": [
                  "Output Percent Load"
                ],
                "type": "field"
              }
            ]
          ],
          "tags": [
            {
              "key": "agent_host",
              "operator": "=~",
              "value": "/^$UPSName$/"
            }
          ]
        }
      ],
      "thresholds": [],
      "timeFrom": null,
      "timeRegions": [],
      "timeShift": null,
      "title": "Output Percent Load",
      "tooltip": {
        "shared": true,
        "sort": 0,
        "value_type": "individual"
      },
      "type": "graph",
      "xaxis": {
        "buckets": null,
        "mode": "time",
        "name": null,
        "show": true,
        "values": []
      },
      "yaxes": [
        {
          "decimals": 0,
          "format": "short",
          "label": null,
          "logBase": 1,
          "max": null,
          "min": null,
          "show": true
        },
        {
          "decimals": 0,
          "format": "short",
          "label": "",
          "logBase": 1,
          "max": null,
          "min": null,
          "show": true
        }
      ],
      "yaxis": {
        "align": false,
        "alignLevel": null
      }
    },
    {
      "aliasColors": {},
      "bars": false,
      "dashLength": 10,
      "dashes": false,
      "datasource": null,
      "fill": 3,
      "fillGradient": 0,
      "gridPos": {
        "h": 5,
        "w": 5,
        "x": 6,
        "y": 13
      },
      "hiddenSeries": false,
      "id": 37,
      "legend": {
        "alignAsTable": false,
        "avg": false,
        "current": false,
        "max": true,
        "min": true,
        "show": true,
        "total": false,
        "values": true
      },
      "lines": true,
      "linewidth": 2,
      "nullPointMode": "null",
      "options": {
        "dataLinks": []
      },
      "percentage": false,
      "pointradius": 2,
      "points": false,
      "renderer": "flot",
      "seriesOverrides": [],
      "spaceLength": 10,
      "stack": false,
      "steppedLine": false,
      "targets": [
        {
          "groupBy": [],
          "measurement": "ups_riello_lhc",
          "orderByTime": "ASC",
          "policy": "default",
          "refId": "A",
          "resultFormat": "time_series",
          "select": [
            [
              {
                "params": [
                  "Internal Temperature"
                ],
                "type": "field"
              }
            ]
          ],
          "tags": [
            {
              "key": "agent_host",
              "operator": "=~",
              "value": "/^$UPSName$/"
            }
          ]
        }
      ],
      "thresholds": [],
      "timeFrom": null,
      "timeRegions": [],
      "timeShift": null,
      "title": "UPS Internal Temperature",
      "tooltip": {
        "shared": true,
        "sort": 0,
        "value_type": "individual"
      },
      "type": "graph",
      "xaxis": {
        "buckets": null,
        "mode": "time",
        "name": null,
        "show": true,
        "values": []
      },
      "yaxes": [
        {
          "decimals": 0,
          "format": "short",
          "label": null,
          "logBase": 1,
          "max": null,
          "min": null,
          "show": true
        },
        {
          "decimals": 0,
          "format": "short",
          "label": "",
          "logBase": 1,
          "max": null,
          "min": null,
          "show": true
        }
      ],
      "yaxis": {
        "align": false,
        "alignLevel": null
      }
    },
    {
      "aliasColors": {},
      "bars": false,
      "dashLength": 10,
      "dashes": false,
      "datasource": null,
      "decimals": 0,
      "fill": 3,
      "fillGradient": 0,
      "gridPos": {
        "h": 5,
        "w": 5,
        "x": 12,
        "y": 13
      },
      "hiddenSeries": false,
      "id": 25,
      "legend": {
        "alignAsTable": false,
        "avg": false,
        "current": false,
        "max": true,
        "min": true,
        "show": true,
        "total": false,
        "values": true
      },
      "lines": true,
      "linewidth": 2,
      "nullPointMode": "null",
      "options": {
        "dataLinks": []
      },
      "percentage": false,
      "pointradius": 2,
      "points": false,
      "renderer": "flot",
      "seriesOverrides": [],
      "spaceLength": 10,
      "stack": false,
      "steppedLine": false,
      "targets": [
        {
          "groupBy": [],
          "measurement": "ups_riello_lhc",
          "orderByTime": "ASC",
          "policy": "default",
          "refId": "A",
          "resultFormat": "time_series",
          "select": [
            [
              {
                "params": [
                  "Battery Voltage"
                ],
                "type": "field"
              },
              {
                "params": [
                  " / 10"
                ],
                "type": "math"
              }
            ]
          ],
          "tags": [
            {
              "key": "agent_host",
              "operator": "=~",
              "value": "/^$UPSName$/"
            }
          ]
        }
      ],
      "thresholds": [],
      "timeFrom": null,
      "timeRegions": [],
      "timeShift": null,
      "title": "Battery Voltage",
      "tooltip": {
        "shared": true,
        "sort": 0,
        "value_type": "individual"
      },
      "type": "graph",
      "xaxis": {
        "buckets": null,
        "mode": "time",
        "name": null,
        "show": true,
        "values": []
      },
      "yaxes": [
        {
          "decimals": 0,
          "format": "short",
          "label": "",
          "logBase": 1,
          "max": null,
          "min": null,
          "show": true
        },
        {
          "decimals": 0,
          "format": "short",
          "label": "",
          "logBase": 1,
          "max": null,
          "min": null,
          "show": true
        }
      ],
      "yaxis": {
        "align": false,
        "alignLevel": null
      }
    },
    {
      "aliasColors": {},
      "bars": false,
      "dashLength": 10,
      "dashes": false,
      "datasource": null,
      "fill": 3,
      "fillGradient": 0,
      "gridPos": {
        "h": 5,
        "w": 5,
        "x": 17,
        "y": 13
      },
      "hiddenSeries": false,
      "id": 33,
      "legend": {
        "alignAsTable": false,
        "avg": false,
        "current": false,
        "max": true,
        "min": true,
        "show": true,
        "total": false,
        "values": true
      },
      "lines": true,
      "linewidth": 2,
      "nullPointMode": "null",
      "options": {
        "dataLinks": []
      },
      "percentage": false,
      "pointradius": 2,
      "points": false,
      "renderer": "flot",
      "seriesOverrides": [],
      "spaceLength": 10,
      "stack": false,
      "steppedLine": false,
      "targets": [
        {
          "groupBy": [],
          "measurement": "ups_riello_lhc",
          "orderByTime": "ASC",
          "policy": "default",
          "refId": "A",
          "resultFormat": "time_series",
          "select": [
            [
              {
                "params": [
                  "Estimated Charge Remaining"
                ],
                "type": "field"
              }
            ]
          ],
          "tags": [
            {
              "key": "agent_host",
              "operator": "=~",
              "value": "/^$UPSName$/"
            }
          ]
        }
      ],
      "thresholds": [],
      "timeFrom": null,
      "timeRegions": [],
      "timeShift": null,
      "title": "Estimated Charge Remaining",
      "tooltip": {
        "shared": true,
        "sort": 0,
        "value_type": "individual"
      },
      "type": "graph",
      "xaxis": {
        "buckets": null,
        "mode": "time",
        "name": null,
        "show": true,
        "values": []
      },
      "yaxes": [
        {
          "decimals": 0,
          "format": "short",
          "label": null,
          "logBase": 1,
          "max": null,
          "min": null,
          "show": true
        },
        {
          "decimals": 0,
          "format": "short",
          "label": null,
          "logBase": 1,
          "max": null,
          "min": null,
          "show": true
        }
      ],
      "yaxis": {
        "align": false,
        "alignLevel": null
      }
    },
    {
      "aliasColors": {},
      "bars": false,
      "dashLength": 10,
      "dashes": false,
      "datasource": null,
      "fill": 3,
      "fillGradient": 0,
      "gridPos": {
        "h": 5,
        "w": 10,
        "x": 1,
        "y": 18
      },
      "hiddenSeries": false,
      "id": 36,
      "legend": {
        "alignAsTable": false,
        "avg": false,
        "current": false,
        "max": true,
        "min": true,
        "show": true,
        "total": false,
        "values": true
      },
      "lines": true,
      "linewidth": 2,
      "nullPointMode": "null",
      "options": {
        "dataLinks": []
      },
      "percentage": false,
      "pointradius": 2,
      "points": false,
      "renderer": "flot",
      "seriesOverrides": [],
      "spaceLength": 10,
      "stack": false,
      "steppedLine": false,
      "targets": [
        {
          "groupBy": [],
          "measurement": "ups_riello_lhc",
          "orderByTime": "ASC",
          "policy": "default",
          "refId": "A",
          "resultFormat": "time_series",
          "select": [
            [
              {
                "params": [
                  "Output Current"
                ],
                "type": "field"
              }
            ]
          ],
          "tags": [
            {
              "key": "agent_host",
              "operator": "=~",
              "value": "/^$UPSName$/"
            }
          ]
        }
      ],
      "thresholds": [],
      "timeFrom": null,
      "timeRegions": [],
      "timeShift": null,
      "title": "Output Current",
      "tooltip": {
        "shared": true,
        "sort": 0,
        "value_type": "individual"
      },
      "type": "graph",
      "xaxis": {
        "buckets": null,
        "mode": "time",
        "name": null,
        "show": true,
        "values": []
      },
      "yaxes": [
        {
          "decimals": 0,
          "format": "short",
          "label": null,
          "logBase": 1,
          "max": null,
          "min": null,
          "show": true
        },
        {
          "decimals": 0,
          "format": "short",
          "label": "",
          "logBase": 1,
          "max": null,
          "min": null,
          "show": true
        }
      ],
      "yaxis": {
        "align": false,
        "alignLevel": null
      }
    },
    {
      "aliasColors": {},
      "bars": false,
      "dashLength": 10,
      "dashes": false,
      "datasource": null,
      "fill": 3,
      "fillGradient": 0,
      "gridPos": {
        "h": 5,
        "w": 5,
        "x": 12,
        "y": 18
      },
      "hiddenSeries": false,
      "id": 34,
      "legend": {
        "alignAsTable": false,
        "avg": false,
        "current": false,
        "max": true,
        "min": true,
        "show": true,
        "total": false,
        "values": true
      },
      "lines": true,
      "linewidth": 2,
      "nullPointMode": "null",
      "options": {
        "dataLinks": []
      },
      "percentage": false,
      "pointradius": 2,
      "points": false,
      "renderer": "flot",
      "seriesOverrides": [],
      "spaceLength": 10,
      "stack": false,
      "steppedLine": false,
      "targets": [
        {
          "groupBy": [],
          "measurement": "ups_riello_lhc",
          "orderByTime": "ASC",
          "policy": "default",
          "refId": "A",
          "resultFormat": "time_series",
          "select": [
            [
              {
                "params": [
                  "Alarm Present"
                ],
                "type": "field"
              }
            ]
          ],
          "tags": [
            {
              "key": "agent_host",
              "operator": "=~",
              "value": "/^$UPSName$/"
            }
          ]
        }
      ],
      "thresholds": [],
      "timeFrom": null,
      "timeRegions": [],
      "timeShift": null,
      "title": "Alarm Present",
      "tooltip": {
        "shared": true,
        "sort": 0,
        "value_type": "individual"
      },
      "type": "graph",
      "xaxis": {
        "buckets": null,
        "mode": "time",
        "name": null,
        "show": true,
        "values": []
      },
      "yaxes": [
        {
          "decimals": 0,
          "format": "short",
          "label": "",
          "logBase": 1,
          "max": null,
          "min": null,
          "show": true
        },
        {
          "decimals": 0,
          "format": "short",
          "label": null,
          "logBase": 1,
          "max": null,
          "min": null,
          "show": true
        }
      ],
      "yaxis": {
        "align": false,
        "alignLevel": null
      }
    },
    {
      "aliasColors": {},
      "bars": false,
      "dashLength": 10,
      "dashes": false,
      "datasource": null,
      "fill": 3,
      "fillGradient": 0,
      "gridPos": {
        "h": 5,
        "w": 5,
        "x": 17,
        "y": 18
      },
      "hiddenSeries": false,
      "id": 35,
      "legend": {
        "alignAsTable": false,
        "avg": false,
        "current": false,
        "max": false,
        "min": false,
        "show": true,
        "total": false,
        "values": false
      },
      "lines": true,
      "linewidth": 2,
      "nullPointMode": "null",
      "options": {
        "dataLinks": []
      },
      "percentage": false,
      "pointradius": 2,
      "points": false,
      "renderer": "flot",
      "seriesOverrides": [],
      "spaceLength": 10,
      "stack": false,
      "steppedLine": false,
      "targets": [
        {
          "groupBy": [],
          "measurement": "ups_riello_lhc",
          "orderByTime": "ASC",
          "policy": "default",
          "refId": "A",
          "resultFormat": "time_series",
          "select": [
            [
              {
                "params": [
                  "Output Source (3=OK/4=Bypass/5=Battery)"
                ],
                "type": "field"
              }
            ]
          ],
          "tags": [
            {
              "key": "agent_host",
              "operator": "=~",
              "value": "/^$UPSName$/"
            }
          ]
        }
      ],
      "thresholds": [],
      "timeFrom": null,
      "timeRegions": [],
      "timeShift": null,
      "title": "Output Source",
      "tooltip": {
        "shared": true,
        "sort": 0,
        "value_type": "individual"
      },
      "type": "graph",
      "xaxis": {
        "buckets": null,
        "mode": "time",
        "name": null,
        "show": true,
        "values": []
      },
      "yaxes": [
        {
          "decimals": 0,
          "format": "short",
          "label": "",
          "logBase": 1,
          "max": null,
          "min": null,
          "show": true
        },
        {
          "format": "short",
          "label": null,
          "logBase": 1,
          "max": null,
          "min": null,
          "show": true
        }
      ],
      "yaxis": {
        "align": false,
        "alignLevel": null
      }
    }
  ],
  "refresh": "10s",
  "schemaVersion": 21,
  "style": "dark",
  "tags": [
    "ZORA LHC",
    "RIELLO",
    "UPS"
  ],
  "templating": {
    "list": [
      {
        "allValue": null,
        "current": {
          "text": "YEUPS01-CPS",
          "value": "YEUPS01-CPS"
        },
        "datasource": "SSM InfluxDB",
        "definition": "SHOW TAG VALUES WITH KEY = \"agent_host\"",
        "hide": 0,
        "includeAll": false,
        "label": null,
        "multi": false,
        "name": "UPSName",
        "options": [],
        "query": "SHOW TAG VALUES WITH KEY = \"agent_host\"",
        "refresh": 1,
        "regex": "/YCUPS*/",
        "skipUrlSync": false,
        "sort": 1,
        "tagValuesQuery": "",
        "tags": [],
        "tagsQuery": "",
        "type": "query",
        "useTags": false
      }
    ]
  },
  "time": {
    "from": "now-6h",
    "to": "now"
  },
  "timepicker": {
    "refresh_intervals": [
      "5s",
      "10s",
      "30s",
      "1m",
      "5m",
      "15m",
      "30m",
      "1h",
      "2h",
      "1d"
    ]
  },
  "timezone": "",
  "title": "LHC UPS RIELLO",
  "uid": "XPM-1lhWk"
}