{
  "annotations": {
    "list": [
      {
        "builtIn": 1,
        "datasource": "-- Grafana --",
        "enable": true,
        "hide": true,
        "iconColor": "rgba(0, 211, 255, 1)",
        "name": "Annotations & Alerts",
        "type": "dashboard"
      }
    ]
  },
  "description": "",
  "editable": true,
  "gnetId": null,
  "graphTooltip": 0,
  "links": [
    {
      "icon": "dashboard",
      "tags": [],
      "title": "LHC UPS - BENNING",
      "type": "link",
      "url": "https://ssm.cern.ch:3000/d/ebOT8WAZk/lhc-ups-global-view-2?orgId=1&refresh=10s"
    },
    {
      "icon": "external link",
      "tags": [],
      "title": "PS UPS",
      "type": "link",
      "url": "https://ssm.cern.ch:3000/d/TDC6CWsWk/ps-ups-global-view?orgId=1&refresh=30s"
    },
    {
      "icon": "external link",
      "tags": [],
      "title": "SPS UPS",
      "type": "link",
      "url": "https://ssm.cern.ch:3000/d/5a-wTmfZz/sps-ups-global-view?orgId=1&refresh=10s"
    }
  ],
  "panels": [
    {
      "content": "<font size=\"6\"><b><u>YZUPS01-SD2</u></b></font><font size=\"5\"><b><u> Atelier 1</u></b></font>\n",
      "datasource": null,
      "description": "",
      "gridPos": {
        "h": 2,
        "w": 8,
        "x": 3,
        "y": 0
      },
      "id": 29,
      "mode": "html",
      "options": {},
      "targets": [
        {
          "groupBy": [
            {
              "params": [
                "$__interval"
              ],
              "type": "time"
            },
            {
              "params": [
                "null"
              ],
              "type": "fill"
            }
          ],
          "orderByTime": "ASC",
          "policy": "default",
          "refId": "A",
          "resultFormat": "time_series",
          "select": [
            [
              {
                "params": [
                  "value"
                ],
                "type": "field"
              },
              {
                "params": [],
                "type": "mean"
              }
            ]
          ],
          "tags": []
        }
      ],
      "timeFrom": null,
      "timeShift": null,
      "title": "",
      "transparent": true,
      "type": "text"
    },
    {
      "content": "<font size=\"6\"><b><u>YZUPS02-SD2</u></b></font><font size=\"5\"><b><u> Atelier 2</u></b></font>\n",
      "datasource": null,
      "gridPos": {
        "h": 2,
        "w": 8,
        "x": 11,
        "y": 0
      },
      "id": 62,
      "mode": "html",
      "options": {},
      "targets": [
        {
          "groupBy": [
            {
              "params": [
                "$__interval"
              ],
              "type": "time"
            },
            {
              "params": [
                "null"
              ],
              "type": "fill"
            }
          ],
          "orderByTime": "ASC",
          "policy": "default",
          "refId": "A",
          "resultFormat": "time_series",
          "select": [
            [
              {
                "params": [
                  "value"
                ],
                "type": "field"
              },
              {
                "params": [],
                "type": "mean"
              }
            ]
          ],
          "tags": []
        }
      ],
      "timeFrom": null,
      "timeShift": null,
      "title": "",
      "transparent": true,
      "type": "text"
    },
    {
      "cacheTimeout": null,
      "datasource": null,
      "description": "",
      "gridPos": {
        "h": 4,
        "w": 4,
        "x": 3,
        "y": 2
      },
      "id": 74,
      "links": [],
      "options": {
        "fieldOptions": {
          "calcs": [
            "lastNotNull"
          ],
          "defaults": {
            "mappings": [
              {
                "id": 0,
                "op": "=",
                "text": "N/A",
                "type": 1,
                "value": "null"
              }
            ],
            "max": 40,
            "min": 0,
            "nullValueMode": "connected",
            "thresholds": [
              {
                "color": "#299c46",
                "value": null
              },
              {
                "color": "semi-dark-red",
                "value": 31
              }
            ],
            "unit": "none"
          },
          "override": {},
          "values": false
        },
        "orientation": "horizontal",
        "showThresholdLabels": false,
        "showThresholdMarkers": true
      },
      "pluginVersion": "6.5.3",
      "targets": [
        {
          "groupBy": [],
          "measurement": "ups_benning_lhc",
          "orderByTime": "ASC",
          "policy": "default",
          "refId": "A",
          "resultFormat": "time_series",
          "select": [
            [
              {
                "params": [
                  "Temperature Battery 1"
                ],
                "type": "field"
              },
              {
                "params": [
                  " / 10"
                ],
                "type": "math"
              }
            ]
          ],
          "tags": [
            {
              "key": "agent_host",
              "operator": "=",
              "value": "YZUPS01-SD2"
            }
          ]
        }
      ],
      "timeFrom": null,
      "timeShift": null,
      "title": "Temperature Battery 1",
      "type": "gauge"
    },
    {
      "cacheTimeout": null,
      "datasource": null,
      "description": "",
      "gridPos": {
        "h": 4,
        "w": 4,
        "x": 7,
        "y": 2
      },
      "id": 78,
      "links": [],
      "options": {
        "fieldOptions": {
          "calcs": [
            "lastNotNull"
          ],
          "defaults": {
            "mappings": [
              {
                "id": 0,
                "op": "=",
                "text": "N/A",
                "type": 1,
                "value": "null"
              }
            ],
            "max": 40,
            "min": 0,
            "nullValueMode": "connected",
            "thresholds": [
              {
                "color": "#299c46",
                "value": null
              },
              {
                "color": "semi-dark-red",
                "value": 31
              }
            ],
            "unit": "none"
          },
          "override": {},
          "values": false
        },
        "orientation": "horizontal",
        "showThresholdLabels": false,
        "showThresholdMarkers": true
      },
      "pluginVersion": "6.5.3",
      "targets": [
        {
          "groupBy": [],
          "measurement": "ups_benning_lhc",
          "orderByTime": "ASC",
          "policy": "default",
          "refId": "A",
          "resultFormat": "time_series",
          "select": [
            [
              {
                "params": [
                  "Temperature Battery 2"
                ],
                "type": "field"
              },
              {
                "params": [
                  " / 10"
                ],
                "type": "math"
              }
            ]
          ],
          "tags": [
            {
              "key": "agent_host",
              "operator": "=",
              "value": "YZUPS01-SD2"
            }
          ]
        }
      ],
      "timeFrom": null,
      "timeShift": null,
      "title": "Temperature Battery 2",
      "type": "gauge"
    },
    {
      "cacheTimeout": null,
      "datasource": null,
      "description": "",
      "gridPos": {
        "h": 4,
        "w": 4,
        "x": 11,
        "y": 2
      },
      "id": 80,
      "links": [],
      "options": {
        "fieldOptions": {
          "calcs": [
            "lastNotNull"
          ],
          "defaults": {
            "mappings": [
              {
                "id": 0,
                "op": "=",
                "text": "N/A",
                "type": 1,
                "value": "null"
              }
            ],
            "max": 40,
            "min": 0,
            "nullValueMode": "connected",
            "thresholds": [
              {
                "color": "#299c46",
                "value": null
              },
              {
                "color": "semi-dark-red",
                "value": 31
              }
            ],
            "unit": "none"
          },
          "override": {},
          "values": false
        },
        "orientation": "horizontal",
        "showThresholdLabels": false,
        "showThresholdMarkers": true
      },
      "pluginVersion": "6.5.3",
      "targets": [
        {
          "groupBy": [],
          "measurement": "ups_benning_lhc",
          "orderByTime": "ASC",
          "policy": "default",
          "refId": "A",
          "resultFormat": "time_series",
          "select": [
            [
              {
                "params": [
                  "Temperature Battery 1"
                ],
                "type": "field"
              },
              {
                "params": [
                  " / 10"
                ],
                "type": "math"
              }
            ]
          ],
          "tags": [
            {
              "key": "agent_host",
              "operator": "=",
              "value": "YZUPS02-SD2"
            }
          ]
        }
      ],
      "timeFrom": null,
      "timeShift": null,
      "title": "Temperature Battery 1",
      "type": "gauge"
    },
    {
      "cacheTimeout": null,
      "datasource": null,
      "description": "",
      "gridPos": {
        "h": 4,
        "w": 4,
        "x": 15,
        "y": 2
      },
      "id": 81,
      "links": [],
      "options": {
        "fieldOptions": {
          "calcs": [
            "lastNotNull"
          ],
          "defaults": {
            "mappings": [
              {
                "id": 0,
                "op": "=",
                "text": "N/A",
                "type": 1,
                "value": "null"
              }
            ],
            "max": 40,
            "min": 0,
            "nullValueMode": "connected",
            "thresholds": [
              {
                "color": "#299c46",
                "value": null
              },
              {
                "color": "semi-dark-red",
                "value": 31
              }
            ],
            "unit": "none"
          },
          "override": {},
          "values": false
        },
        "orientation": "horizontal",
        "showThresholdLabels": false,
        "showThresholdMarkers": true
      },
      "pluginVersion": "6.5.3",
      "targets": [
        {
          "groupBy": [],
          "measurement": "ups_benning_lhc",
          "orderByTime": "ASC",
          "policy": "default",
          "refId": "A",
          "resultFormat": "time_series",
          "select": [
            [
              {
                "params": [
                  "Temperature Battery 2"
                ],
                "type": "field"
              },
              {
                "params": [
                  " / 10"
                ],
                "type": "math"
              }
            ]
          ],
          "tags": [
            {
              "key": "agent_host",
              "operator": "=",
              "value": "YZUPS02-SD2"
            }
          ]
        }
      ],
      "timeFrom": null,
      "timeShift": null,
      "title": "Temperature Battery 2",
      "type": "gauge"
    },
    {
      "cacheTimeout": null,
      "colorBackground": true,
      "colorValue": false,
      "colors": [
        "#56A64B",
        "#E02F44",
        "#d44a3a"
      ],
      "datasource": null,
      "decimals": 1,
      "format": "none",
      "gauge": {
        "maxValue": 100,
        "minValue": 0,
        "show": false,
        "thresholdLabels": false,
        "thresholdMarkers": true
      },
      "gridPos": {
        "h": 2,
        "w": 4,
        "x": 3,
        "y": 6
      },
      "id": 73,
      "interval": null,
      "links": [],
      "mappingType": 2,
      "mappingTypes": [
        {
          "name": "value to text",
          "value": 1
        },
        {
          "name": "range to text",
          "value": 2
        }
      ],
      "maxDataPoints": 100,
      "nullPointMode": "connected",
      "nullText": null,
      "options": {},
      "postfix": "",
      "postfixFontSize": "30%",
      "prefix": "",
      "prefixFontSize": "30%",
      "rangeMaps": [
        {
          "from": "2",
          "text": "OK",
          "to": "2"
        },
        {
          "from": "4",
          "text": "BOOST MODE OR CHARGING",
          "to": "4"
        },
        {
          "from": "16",
          "text": "TEST BATTERY",
          "to": "16"
        },
        {
          "from": "32",
          "text": "BATTERY DISCHARGING",
          "to": "200"
        }
      ],
      "sparkline": {
        "fillColor": "rgba(31, 118, 189, 0.18)",
        "full": false,
        "lineColor": "rgb(31, 120, 193)",
        "show": false,
        "ymax": null,
        "ymin": null
      },
      "tableColumn": "",
      "targets": [
        {
          "groupBy": [],
          "measurement": "ups_benning_lhc",
          "orderByTime": "ASC",
          "policy": "default",
          "refId": "A",
          "resultFormat": "time_series",
          "select": [
            [
              {
                "params": [
                  "Charging Status"
                ],
                "type": "field"
              }
            ]
          ],
          "tags": [
            {
              "key": "agent_host",
              "operator": "=",
              "value": "YZUPS01-SD2"
            }
          ]
        }
      ],
      "thresholds": "4",
      "timeFrom": null,
      "timeShift": null,
      "title": "Rectifier Status",
      "type": "singlestat",
      "valueFontSize": "50%",
      "valueMaps": [
        {
          "op": "=",
          "text": "BOOST MODE / CHARGING",
          "value": "16"
        },
        {
          "op": "=",
          "text": "",
          "value": ""
        },
        {
          "op": "=",
          "text": "",
          "value": ""
        }
      ],
      "valueName": "current"
    },
    {
      "cacheTimeout": null,
      "colorBackground": false,
      "colorValue": true,
      "colors": [
        "#56A64B",
        "#E02F44",
        "#E02F44"
      ],
      "datasource": null,
      "decimals": 1,
      "format": "none",
      "gauge": {
        "maxValue": 100,
        "minValue": 0,
        "show": false,
        "thresholdLabels": false,
        "thresholdMarkers": true
      },
      "gridPos": {
        "h": 2,
        "w": 4,
        "x": 7,
        "y": 6
      },
      "id": 38,
      "interval": null,
      "links": [],
      "mappingType": 1,
      "mappingTypes": [
        {
          "name": "value to text",
          "value": 1
        },
        {
          "name": "range to text",
          "value": 2
        }
      ],
      "maxDataPoints": 100,
      "nullPointMode": "connected",
      "nullText": null,
      "options": {},
      "postfix": "",
      "postfixFontSize": "50%",
      "prefix": "",
      "prefixFontSize": "50%",
      "rangeMaps": [
        {
          "from": "null",
          "text": "N/A",
          "to": "null"
        }
      ],
      "sparkline": {
        "fillColor": "rgba(31, 118, 189, 0.18)",
        "full": false,
        "lineColor": "rgb(31, 120, 193)",
        "show": false,
        "ymax": null,
        "ymin": null
      },
      "tableColumn": "",
      "targets": [
        {
          "groupBy": [],
          "measurement": "ups_benning_lhc",
          "orderByTime": "ASC",
          "policy": "default",
          "refId": "A",
          "resultFormat": "time_series",
          "select": [
            [
              {
                "params": [
                  "Load Voltage"
                ],
                "type": "field"
              },
              {
                "params": [
                  " / 100"
                ],
                "type": "math"
              }
            ]
          ],
          "tags": [
            {
              "key": "agent_host",
              "operator": "=",
              "value": "YZUPS01-SD2"
            }
          ]
        }
      ],
      "thresholds": "57",
      "timeFrom": null,
      "timeShift": null,
      "title": "Load Voltage [V]",
      "type": "singlestat",
      "valueFontSize": "70%",
      "valueMaps": [
        {
          "op": "=",
          "text": "N/A",
          "value": "null"
        }
      ],
      "valueName": "current"
    },
    {
      "cacheTimeout": null,
      "colorBackground": true,
      "colorValue": false,
      "colors": [
        "#56A64B",
        "#E02F44",
        "#d44a3a"
      ],
      "datasource": null,
      "decimals": 1,
      "format": "none",
      "gauge": {
        "maxValue": 100,
        "minValue": 0,
        "show": false,
        "thresholdLabels": false,
        "thresholdMarkers": true
      },
      "gridPos": {
        "h": 2,
        "w": 4,
        "x": 11,
        "y": 6
      },
      "id": 90,
      "interval": null,
      "links": [],
      "mappingType": 2,
      "mappingTypes": [
        {
          "name": "value to text",
          "value": 1
        },
        {
          "name": "range to text",
          "value": 2
        }
      ],
      "maxDataPoints": 100,
      "nullPointMode": "connected",
      "nullText": null,
      "options": {},
      "postfix": "",
      "postfixFontSize": "30%",
      "prefix": "",
      "prefixFontSize": "30%",
      "rangeMaps": [
        {
          "from": "2",
          "text": "OK",
          "to": "2"
        },
        {
          "from": "4",
          "text": "BOOST MODE OR CHARGING",
          "to": "4"
        },
        {
          "from": "16",
          "text": "TEST BATTERY",
          "to": "16"
        },
        {
          "from": "32",
          "text": "BATTERY DISCHARGING",
          "to": "200"
        }
      ],
      "sparkline": {
        "fillColor": "rgba(31, 118, 189, 0.18)",
        "full": false,
        "lineColor": "rgb(31, 120, 193)",
        "show": false,
        "ymax": null,
        "ymin": null
      },
      "tableColumn": "",
      "targets": [
        {
          "groupBy": [],
          "measurement": "ups_benning_lhc",
          "orderByTime": "ASC",
          "policy": "default",
          "refId": "A",
          "resultFormat": "time_series",
          "select": [
            [
              {
                "params": [
                  "Charging Status"
                ],
                "type": "field"
              }
            ]
          ],
          "tags": [
            {
              "key": "agent_host",
              "operator": "=",
              "value": "YZUPS02-SD2"
            }
          ]
        }
      ],
      "thresholds": "4",
      "timeFrom": null,
      "timeShift": null,
      "title": "Rectifier Status",
      "type": "singlestat",
      "valueFontSize": "50%",
      "valueMaps": [
        {
          "op": "=",
          "text": "BOOST MODE / CHARGING",
          "value": "16"
        },
        {
          "op": "=",
          "text": "",
          "value": ""
        },
        {
          "op": "=",
          "text": "",
          "value": ""
        }
      ],
      "valueName": "current"
    },
    {
      "cacheTimeout": null,
      "colorBackground": false,
      "colorValue": true,
      "colors": [
        "#56A64B",
        "#E02F44",
        "#E02F44"
      ],
      "datasource": null,
      "decimals": 1,
      "format": "none",
      "gauge": {
        "maxValue": 100,
        "minValue": 0,
        "show": false,
        "thresholdLabels": false,
        "thresholdMarkers": true
      },
      "gridPos": {
        "h": 2,
        "w": 4,
        "x": 15,
        "y": 6
      },
      "id": 83,
      "interval": null,
      "links": [],
      "mappingType": 1,
      "mappingTypes": [
        {
          "name": "value to text",
          "value": 1
        },
        {
          "name": "range to text",
          "value": 2
        }
      ],
      "maxDataPoints": 100,
      "nullPointMode": "connected",
      "nullText": null,
      "options": {},
      "postfix": "",
      "postfixFontSize": "50%",
      "prefix": "",
      "prefixFontSize": "50%",
      "rangeMaps": [
        {
          "from": "null",
          "text": "N/A",
          "to": "null"
        }
      ],
      "sparkline": {
        "fillColor": "rgba(31, 118, 189, 0.18)",
        "full": false,
        "lineColor": "rgb(31, 120, 193)",
        "show": false,
        "ymax": null,
        "ymin": null
      },
      "tableColumn": "",
      "targets": [
        {
          "groupBy": [],
          "measurement": "ups_benning_lhc",
          "orderByTime": "ASC",
          "policy": "default",
          "refId": "A",
          "resultFormat": "time_series",
          "select": [
            [
              {
                "params": [
                  "Load Voltage"
                ],
                "type": "field"
              },
              {
                "params": [
                  " / 100"
                ],
                "type": "math"
              }
            ]
          ],
          "tags": [
            {
              "key": "agent_host",
              "operator": "=",
              "value": "YZUPS02-SD2"
            }
          ]
        }
      ],
      "thresholds": "57",
      "timeFrom": null,
      "timeShift": null,
      "title": "Load Voltage [V]",
      "type": "singlestat",
      "valueFontSize": "70%",
      "valueMaps": [
        {
          "op": "=",
          "text": "N/A",
          "value": "null"
        }
      ],
      "valueName": "current"
    },
    {
      "cacheTimeout": null,
      "colorBackground": false,
      "colorValue": true,
      "colors": [
        "#56A64B",
        "#E02F44",
        "#E02F44"
      ],
      "datasource": null,
      "decimals": 1,
      "format": "none",
      "gauge": {
        "maxValue": 100,
        "minValue": 0,
        "show": false,
        "thresholdLabels": false,
        "thresholdMarkers": true
      },
      "gridPos": {
        "h": 2,
        "w": 4,
        "x": 3,
        "y": 8
      },
      "id": 72,
      "interval": null,
      "links": [],
      "mappingType": 1,
      "mappingTypes": [
        {
          "name": "value to text",
          "value": 1
        },
        {
          "name": "range to text",
          "value": 2
        }
      ],
      "maxDataPoints": 100,
      "nullPointMode": "connected",
      "nullText": null,
      "options": {},
      "postfix": "",
      "postfixFontSize": "50%",
      "prefix": "",
      "prefixFontSize": "50%",
      "rangeMaps": [
        {
          "from": "null",
          "text": "N/A",
          "to": "null"
        }
      ],
      "sparkline": {
        "fillColor": "rgba(31, 118, 189, 0.18)",
        "full": false,
        "lineColor": "rgb(31, 120, 193)",
        "show": false,
        "ymax": null,
        "ymin": null
      },
      "tableColumn": "",
      "targets": [
        {
          "groupBy": [],
          "measurement": "ups_benning_lhc",
          "orderByTime": "ASC",
          "policy": "default",
          "refId": "A",
          "resultFormat": "time_series",
          "select": [
            [
              {
                "params": [
                  "Rectifier Current (total)"
                ],
                "type": "field"
              },
              {
                "params": [
                  " / 10"
                ],
                "type": "math"
              }
            ]
          ],
          "tags": [
            {
              "key": "agent_host",
              "operator": "=",
              "value": "YZUPS01-SD2"
            }
          ]
        }
      ],
      "thresholds": "25",
      "timeFrom": null,
      "timeShift": null,
      "title": "Rectifier Current Total [A]",
      "type": "singlestat",
      "valueFontSize": "70%",
      "valueMaps": [
        {
          "op": "=",
          "text": "N/A",
          "value": "null"
        }
      ],
      "valueName": "current"
    },
    {
      "cacheTimeout": null,
      "colorBackground": false,
      "colorValue": true,
      "colors": [
        "#56A64B",
        "rgba(237, 129, 40, 0.89)",
        "#d44a3a"
      ],
      "datasource": null,
      "decimals": 1,
      "format": "none",
      "gauge": {
        "maxValue": 100,
        "minValue": 0,
        "show": false,
        "thresholdLabels": false,
        "thresholdMarkers": true
      },
      "gridPos": {
        "h": 2,
        "w": 4,
        "x": 7,
        "y": 8
      },
      "id": 76,
      "interval": null,
      "links": [],
      "mappingType": 1,
      "mappingTypes": [
        {
          "name": "value to text",
          "value": 1
        },
        {
          "name": "range to text",
          "value": 2
        }
      ],
      "maxDataPoints": 100,
      "nullPointMode": "connected",
      "nullText": null,
      "options": {},
      "postfix": "",
      "postfixFontSize": "50%",
      "prefix": "",
      "prefixFontSize": "50%",
      "rangeMaps": [
        {
          "from": "null",
          "text": "N/A",
          "to": "null"
        }
      ],
      "sparkline": {
        "fillColor": "rgba(31, 118, 189, 0.18)",
        "full": false,
        "lineColor": "rgb(31, 120, 193)",
        "show": false,
        "ymax": null,
        "ymin": null
      },
      "tableColumn": "",
      "targets": [
        {
          "groupBy": [],
          "measurement": "ups_benning_lhc",
          "orderByTime": "ASC",
          "policy": "default",
          "refId": "A",
          "resultFormat": "time_series",
          "select": [
            [
              {
                "params": [
                  "Load Current (total)"
                ],
                "type": "field"
              },
              {
                "params": [
                  " / 10"
                ],
                "type": "math"
              }
            ]
          ],
          "tags": [
            {
              "key": "agent_host",
              "operator": "=",
              "value": "YZUPS01-SD2"
            }
          ]
        }
      ],
      "thresholds": "",
      "timeFrom": null,
      "timeShift": null,
      "title": "Load Current Total [A]",
      "type": "singlestat",
      "valueFontSize": "70%",
      "valueMaps": [
        {
          "op": "=",
          "text": "N/A",
          "value": "null"
        }
      ],
      "valueName": "current"
    },
    {
      "cacheTimeout": null,
      "colorBackground": false,
      "colorValue": true,
      "colors": [
        "#56A64B",
        "#E02F44",
        "#E02F44"
      ],
      "datasource": null,
      "decimals": 1,
      "format": "none",
      "gauge": {
        "maxValue": 100,
        "minValue": 0,
        "show": false,
        "thresholdLabels": false,
        "thresholdMarkers": true
      },
      "gridPos": {
        "h": 2,
        "w": 4,
        "x": 11,
        "y": 8
      },
      "id": 86,
      "interval": null,
      "links": [],
      "mappingType": 1,
      "mappingTypes": [
        {
          "name": "value to text",
          "value": 1
        },
        {
          "name": "range to text",
          "value": 2
        }
      ],
      "maxDataPoints": 100,
      "nullPointMode": "connected",
      "nullText": null,
      "options": {},
      "postfix": "",
      "postfixFontSize": "50%",
      "prefix": "",
      "prefixFontSize": "50%",
      "rangeMaps": [
        {
          "from": "null",
          "text": "N/A",
          "to": "null"
        }
      ],
      "sparkline": {
        "fillColor": "rgba(31, 118, 189, 0.18)",
        "full": false,
        "lineColor": "rgb(31, 120, 193)",
        "show": false,
        "ymax": null,
        "ymin": null
      },
      "tableColumn": "",
      "targets": [
        {
          "groupBy": [],
          "measurement": "ups_benning_lhc",
          "orderByTime": "ASC",
          "policy": "default",
          "refId": "A",
          "resultFormat": "time_series",
          "select": [
            [
              {
                "params": [
                  "Rectifier Current (total)"
                ],
                "type": "field"
              },
              {
                "params": [
                  " / 10"
                ],
                "type": "math"
              }
            ]
          ],
          "tags": [
            {
              "key": "agent_host",
              "operator": "=",
              "value": "YZUPS02-SD2"
            }
          ]
        }
      ],
      "thresholds": "25",
      "timeFrom": null,
      "timeShift": null,
      "title": "Rectifier Current Total [A]",
      "type": "singlestat",
      "valueFontSize": "70%",
      "valueMaps": [
        {
          "op": "=",
          "text": "N/A",
          "value": "null"
        }
      ],
      "valueName": "current"
    },
    {
      "cacheTimeout": null,
      "colorBackground": false,
      "colorValue": true,
      "colors": [
        "#56A64B",
        "rgba(237, 129, 40, 0.89)",
        "#d44a3a"
      ],
      "datasource": null,
      "decimals": 1,
      "format": "none",
      "gauge": {
        "maxValue": 100,
        "minValue": 0,
        "show": false,
        "thresholdLabels": false,
        "thresholdMarkers": true
      },
      "gridPos": {
        "h": 2,
        "w": 4,
        "x": 15,
        "y": 8
      },
      "id": 87,
      "interval": null,
      "links": [],
      "mappingType": 1,
      "mappingTypes": [
        {
          "name": "value to text",
          "value": 1
        },
        {
          "name": "range to text",
          "value": 2
        }
      ],
      "maxDataPoints": 100,
      "nullPointMode": "connected",
      "nullText": null,
      "options": {},
      "postfix": "",
      "postfixFontSize": "50%",
      "prefix": "",
      "prefixFontSize": "50%",
      "rangeMaps": [
        {
          "from": "null",
          "text": "N/A",
          "to": "null"
        }
      ],
      "sparkline": {
        "fillColor": "rgba(31, 118, 189, 0.18)",
        "full": false,
        "lineColor": "rgb(31, 120, 193)",
        "show": false,
        "ymax": null,
        "ymin": null
      },
      "tableColumn": "",
      "targets": [
        {
          "groupBy": [],
          "measurement": "ups_benning_lhc",
          "orderByTime": "ASC",
          "policy": "default",
          "refId": "A",
          "resultFormat": "time_series",
          "select": [
            [
              {
                "params": [
                  "Load Current (total)"
                ],
                "type": "field"
              },
              {
                "params": [
                  " / 10"
                ],
                "type": "math"
              }
            ]
          ],
          "tags": [
            {
              "key": "agent_host",
              "operator": "=",
              "value": "YZUPS02-SD2"
            }
          ]
        }
      ],
      "thresholds": "",
      "timeFrom": null,
      "timeShift": null,
      "title": "Load Current Total [A]",
      "type": "singlestat",
      "valueFontSize": "70%",
      "valueMaps": [
        {
          "op": "=",
          "text": "N/A",
          "value": "null"
        }
      ],
      "valueName": "current"
    },
    {
      "cacheTimeout": null,
      "colorBackground": false,
      "colorValue": true,
      "colors": [
        "#56A64B",
        "rgba(237, 129, 40, 0.89)",
        "#d44a3a"
      ],
      "datasource": null,
      "decimals": 1,
      "format": "none",
      "gauge": {
        "maxValue": 100,
        "minValue": 0,
        "show": false,
        "thresholdLabels": false,
        "thresholdMarkers": true
      },
      "gridPos": {
        "h": 2,
        "w": 4,
        "x": 3,
        "y": 10
      },
      "id": 71,
      "interval": null,
      "links": [],
      "mappingType": 1,
      "mappingTypes": [
        {
          "name": "value to text",
          "value": 1
        },
        {
          "name": "range to text",
          "value": 2
        }
      ],
      "maxDataPoints": 100,
      "nullPointMode": "connected",
      "nullText": null,
      "options": {},
      "postfix": "",
      "postfixFontSize": "50%",
      "prefix": "",
      "prefixFontSize": "50%",
      "rangeMaps": [
        {
          "from": "null",
          "text": "N/A",
          "to": "null"
        }
      ],
      "sparkline": {
        "fillColor": "rgba(31, 118, 189, 0.18)",
        "full": false,
        "lineColor": "rgb(31, 120, 193)",
        "show": false,
        "ymax": null,
        "ymin": null
      },
      "tableColumn": "",
      "targets": [
        {
          "groupBy": [],
          "measurement": "ups_benning_lhc",
          "orderByTime": "ASC",
          "policy": "default",
          "refId": "A",
          "resultFormat": "time_series",
          "select": [
            [
              {
                "params": [
                  "Busbar Voltage"
                ],
                "type": "field"
              },
              {
                "params": [
                  " / 100"
                ],
                "type": "math"
              }
            ]
          ],
          "tags": [
            {
              "key": "agent_host",
              "operator": "=",
              "value": "YZUPS01-SD2"
            }
          ]
        }
      ],
      "thresholds": "",
      "timeFrom": null,
      "timeShift": null,
      "title": "Busbar Voltage [V]",
      "type": "singlestat",
      "valueFontSize": "70%",
      "valueMaps": [
        {
          "op": "=",
          "text": "N/A",
          "value": "null"
        }
      ],
      "valueName": "current"
    },
    {
      "cacheTimeout": null,
      "colorBackground": false,
      "colorValue": true,
      "colors": [
        "#56A64B",
        "rgba(237, 129, 40, 0.89)",
        "#d44a3a"
      ],
      "datasource": null,
      "decimals": 1,
      "format": "none",
      "gauge": {
        "maxValue": 100,
        "minValue": 0,
        "show": false,
        "thresholdLabels": false,
        "thresholdMarkers": true
      },
      "gridPos": {
        "h": 2,
        "w": 4,
        "x": 7,
        "y": 10
      },
      "id": 79,
      "interval": null,
      "links": [],
      "mappingType": 2,
      "mappingTypes": [
        {
          "name": "value to text",
          "value": 1
        },
        {
          "name": "range to text",
          "value": 2
        }
      ],
      "maxDataPoints": 100,
      "nullPointMode": "connected",
      "nullText": null,
      "options": {},
      "postfix": "",
      "postfixFontSize": "30%",
      "prefix": "",
      "prefixFontSize": "30%",
      "rangeMaps": [
        {
          "from": "0",
          "text": "N/A",
          "to": "100"
        }
      ],
      "sparkline": {
        "fillColor": "rgba(31, 118, 189, 0.18)",
        "full": false,
        "lineColor": "rgb(31, 120, 193)",
        "show": false,
        "ymax": null,
        "ymin": null
      },
      "tableColumn": "",
      "targets": [
        {
          "groupBy": [],
          "measurement": "ups_benning_lhc",
          "orderByTime": "ASC",
          "policy": "default",
          "refId": "A",
          "resultFormat": "time_series",
          "select": [
            [
              {
                "params": [
                  "Battery or 24V Default"
                ],
                "type": "field"
              },
              {
                "params": [
                  " / 100"
                ],
                "type": "math"
              }
            ]
          ],
          "tags": [
            {
              "key": "agent_host",
              "operator": "=",
              "value": "YZUPS01-SD2"
            }
          ]
        }
      ],
      "thresholds": "",
      "timeFrom": null,
      "timeShift": null,
      "title": "Battery Status",
      "type": "singlestat",
      "valueFontSize": "50%",
      "valueMaps": [
        {
          "op": "=",
          "text": "BOOST MODE / CHARGING",
          "value": "16"
        },
        {
          "op": "=",
          "text": "",
          "value": ""
        },
        {
          "op": "=",
          "text": "",
          "value": ""
        }
      ],
      "valueName": "current"
    },
    {
      "cacheTimeout": null,
      "colorBackground": false,
      "colorValue": true,
      "colors": [
        "#56A64B",
        "rgba(237, 129, 40, 0.89)",
        "#d44a3a"
      ],
      "datasource": null,
      "decimals": 1,
      "description": "",
      "format": "none",
      "gauge": {
        "maxValue": 100,
        "minValue": 0,
        "show": false,
        "thresholdLabels": false,
        "thresholdMarkers": true
      },
      "gridPos": {
        "h": 2,
        "w": 4,
        "x": 11,
        "y": 10
      },
      "id": 85,
      "interval": null,
      "links": [],
      "mappingType": 1,
      "mappingTypes": [
        {
          "name": "value to text",
          "value": 1
        },
        {
          "name": "range to text",
          "value": 2
        }
      ],
      "maxDataPoints": 100,
      "nullPointMode": "connected",
      "nullText": null,
      "options": {},
      "postfix": "",
      "postfixFontSize": "50%",
      "prefix": "",
      "prefixFontSize": "50%",
      "rangeMaps": [
        {
          "from": "null",
          "text": "N/A",
          "to": "null"
        }
      ],
      "sparkline": {
        "fillColor": "rgba(31, 118, 189, 0.18)",
        "full": false,
        "lineColor": "rgb(31, 120, 193)",
        "show": false,
        "ymax": null,
        "ymin": null
      },
      "tableColumn": "",
      "targets": [
        {
          "groupBy": [],
          "measurement": "ups_benning_lhc",
          "orderByTime": "ASC",
          "policy": "default",
          "refId": "A",
          "resultFormat": "time_series",
          "select": [
            [
              {
                "params": [
                  "Busbar Voltage"
                ],
                "type": "field"
              },
              {
                "params": [
                  " / 100"
                ],
                "type": "math"
              }
            ]
          ],
          "tags": [
            {
              "key": "agent_host",
              "operator": "=",
              "value": "YZUPS02-SD2"
            }
          ]
        }
      ],
      "thresholds": "",
      "timeFrom": null,
      "timeShift": null,
      "title": "Busbar Voltage [V]",
      "type": "singlestat",
      "valueFontSize": "70%",
      "valueMaps": [
        {
          "op": "=",
          "text": "N/A",
          "value": "null"
        }
      ],
      "valueName": "current"
    },
    {
      "cacheTimeout": null,
      "colorBackground": false,
      "colorValue": true,
      "colors": [
        "#56A64B",
        "rgba(237, 129, 40, 0.89)",
        "#d44a3a"
      ],
      "datasource": null,
      "decimals": 1,
      "format": "none",
      "gauge": {
        "maxValue": 100,
        "minValue": 0,
        "show": false,
        "thresholdLabels": false,
        "thresholdMarkers": true
      },
      "gridPos": {
        "h": 2,
        "w": 4,
        "x": 15,
        "y": 10
      },
      "id": 84,
      "interval": null,
      "links": [],
      "mappingType": 2,
      "mappingTypes": [
        {
          "name": "value to text",
          "value": 1
        },
        {
          "name": "range to text",
          "value": 2
        }
      ],
      "maxDataPoints": 100,
      "nullPointMode": "connected",
      "nullText": null,
      "options": {},
      "postfix": "",
      "postfixFontSize": "30%",
      "prefix": "",
      "prefixFontSize": "30%",
      "rangeMaps": [
        {
          "from": "0",
          "text": "N/A",
          "to": "100"
        }
      ],
      "sparkline": {
        "fillColor": "rgba(31, 118, 189, 0.18)",
        "full": false,
        "lineColor": "rgb(31, 120, 193)",
        "show": false,
        "ymax": null,
        "ymin": null
      },
      "tableColumn": "",
      "targets": [
        {
          "groupBy": [],
          "measurement": "ups_benning_lhc",
          "orderByTime": "ASC",
          "policy": "default",
          "refId": "A",
          "resultFormat": "time_series",
          "select": [
            [
              {
                "params": [
                  "Battery or 24V Default"
                ],
                "type": "field"
              },
              {
                "params": [
                  " / 100"
                ],
                "type": "math"
              }
            ]
          ],
          "tags": [
            {
              "key": "agent_host",
              "operator": "=",
              "value": "YZUPS02-SD2"
            }
          ]
        }
      ],
      "thresholds": "",
      "timeFrom": null,
      "timeShift": null,
      "title": "Battery Status",
      "type": "singlestat",
      "valueFontSize": "50%",
      "valueMaps": [
        {
          "op": "=",
          "text": "BOOST MODE / CHARGING",
          "value": "16"
        },
        {
          "op": "=",
          "text": "",
          "value": ""
        },
        {
          "op": "=",
          "text": "",
          "value": ""
        }
      ],
      "valueName": "current"
    },
    {
      "alert": {
        "alertRuleTags": {},
        "conditions": [
          {
            "evaluator": {
              "params": [
                30
              ],
              "type": "gt"
            },
            "operator": {
              "type": "and"
            },
            "query": {
              "params": [
                "A",
                "5m",
                "now"
              ]
            },
            "reducer": {
              "params": [],
              "type": "avg"
            },
            "type": "query"
          },
          {
            "evaluator": {
              "params": [
                30
              ],
              "type": "gt"
            },
            "operator": {
              "type": "or"
            },
            "query": {
              "params": [
                "B",
                "5m",
                "now"
              ]
            },
            "reducer": {
              "params": [],
              "type": "avg"
            },
            "type": "query"
          }
        ],
        "executionErrorState": "keep_state",
        "for": "2m",
        "frequency": "2m",
        "handler": 1,
        "name": "[LHC] Temperature has been more than 30 degrees on YZUPS01-SD2",
        "noDataState": "keep_state",
        "notifications": [
          {
            "uid": "4Kk74OBZz"
          }
        ]
      },
      "aliasColors": {},
      "bars": false,
      "dashLength": 10,
      "dashes": false,
      "datasource": null,
      "fill": 3,
      "fillGradient": 0,
      "gridPos": {
        "h": 5,
        "w": 8,
        "x": 3,
        "y": 12
      },
      "hiddenSeries": false,
      "id": 5,
      "legend": {
        "avg": false,
        "current": false,
        "max": true,
        "min": true,
        "show": true,
        "total": false,
        "values": true
      },
      "lines": true,
      "linewidth": 2,
      "nullPointMode": "connected",
      "options": {
        "dataLinks": []
      },
      "percentage": false,
      "pointradius": 2,
      "points": false,
      "renderer": "flot",
      "seriesOverrides": [],
      "spaceLength": 10,
      "stack": false,
      "steppedLine": false,
      "targets": [
        {
          "groupBy": [],
          "measurement": "ups_benning_lhc",
          "orderByTime": "ASC",
          "policy": "default",
          "refId": "A",
          "resultFormat": "time_series",
          "select": [
            [
              {
                "params": [
                  "Temperature Battery 1"
                ],
                "type": "field"
              },
              {
                "params": [
                  " / 10"
                ],
                "type": "math"
              }
            ]
          ],
          "tags": [
            {
              "key": "agent_host",
              "operator": "=",
              "value": "YZUPS01-SD2"
            }
          ]
        },
        {
          "groupBy": [],
          "measurement": "ups_benning_lhc",
          "orderByTime": "ASC",
          "policy": "default",
          "refId": "B",
          "resultFormat": "time_series",
          "select": [
            [
              {
                "params": [
                  "Temperature Battery 2"
                ],
                "type": "field"
              },
              {
                "params": [
                  " / 10"
                ],
                "type": "math"
              }
            ]
          ],
          "tags": [
            {
              "key": "agent_host",
              "operator": "=",
              "value": "YZUPS01-SD2"
            }
          ]
        }
      ],
      "thresholds": [
        {
          "colorMode": "critical",
          "fill": true,
          "line": true,
          "op": "gt",
          "value": 30
        }
      ],
      "timeFrom": null,
      "timeRegions": [],
      "timeShift": null,
      "title": "YZUPS01-SD2: Battery Temperature",
      "tooltip": {
        "shared": true,
        "sort": 0,
        "value_type": "individual"
      },
      "type": "graph",
      "xaxis": {
        "buckets": null,
        "mode": "time",
        "name": null,
        "show": true,
        "values": []
      },
      "yaxes": [
        {
          "decimals": 0,
          "format": "short",
          "label": null,
          "logBase": 1,
          "max": null,
          "min": null,
          "show": true
        },
        {
          "format": "short",
          "label": null,
          "logBase": 1,
          "max": null,
          "min": null,
          "show": true
        }
      ],
      "yaxis": {
        "align": false,
        "alignLevel": null
      }
    },
    {
      "alert": {
        "alertRuleTags": {},
        "conditions": [
          {
            "evaluator": {
              "params": [
                30
              ],
              "type": "gt"
            },
            "operator": {
              "type": "and"
            },
            "query": {
              "params": [
                "A",
                "5m",
                "now"
              ]
            },
            "reducer": {
              "params": [],
              "type": "avg"
            },
            "type": "query"
          },
          {
            "evaluator": {
              "params": [
                30
              ],
              "type": "gt"
            },
            "operator": {
              "type": "or"
            },
            "query": {
              "params": [
                "B",
                "5m",
                "now"
              ]
            },
            "reducer": {
              "params": [],
              "type": "avg"
            },
            "type": "query"
          }
        ],
        "executionErrorState": "keep_state",
        "for": "2m",
        "frequency": "2m",
        "handler": 1,
        "name": "[LHC] Temperature has been more than 30 degrees on YZUPS02-SD2",
        "noDataState": "keep_state",
        "notifications": [
          {
            "uid": "4Kk74OBZz"
          }
        ]
      },
      "aliasColors": {},
      "bars": false,
      "dashLength": 10,
      "dashes": false,
      "datasource": null,
      "fill": 3,
      "fillGradient": 0,
      "gridPos": {
        "h": 5,
        "w": 8,
        "x": 11,
        "y": 12
      },
      "hiddenSeries": false,
      "id": 88,
      "legend": {
        "avg": false,
        "current": false,
        "max": true,
        "min": true,
        "show": true,
        "total": false,
        "values": true
      },
      "lines": true,
      "linewidth": 2,
      "nullPointMode": "connected",
      "options": {
        "dataLinks": []
      },
      "percentage": false,
      "pointradius": 2,
      "points": false,
      "renderer": "flot",
      "seriesOverrides": [],
      "spaceLength": 10,
      "stack": false,
      "steppedLine": false,
      "targets": [
        {
          "groupBy": [],
          "measurement": "ups_benning_lhc",
          "orderByTime": "ASC",
          "policy": "default",
          "refId": "A",
          "resultFormat": "time_series",
          "select": [
            [
              {
                "params": [
                  "Temperature Battery 1"
                ],
                "type": "field"
              },
              {
                "params": [
                  " / 10"
                ],
                "type": "math"
              }
            ]
          ],
          "tags": [
            {
              "key": "agent_host",
              "operator": "=",
              "value": "YZUPS02-SD2"
            }
          ]
        },
        {
          "groupBy": [],
          "measurement": "ups_benning_lhc",
          "orderByTime": "ASC",
          "policy": "default",
          "refId": "B",
          "resultFormat": "time_series",
          "select": [
            [
              {
                "params": [
                  "Temperature Battery 2"
                ],
                "type": "field"
              },
              {
                "params": [
                  " / 10"
                ],
                "type": "math"
              }
            ]
          ],
          "tags": [
            {
              "key": "agent_host",
              "operator": "=",
              "value": "YZUPS02-SD2"
            }
          ]
        }
      ],
      "thresholds": [
        {
          "colorMode": "critical",
          "fill": true,
          "line": true,
          "op": "gt",
          "value": 30
        }
      ],
      "timeFrom": null,
      "timeRegions": [],
      "timeShift": null,
      "title": "YZUPS02-SD2: Battery Temperature",
      "tooltip": {
        "shared": true,
        "sort": 0,
        "value_type": "individual"
      },
      "type": "graph",
      "xaxis": {
        "buckets": null,
        "mode": "time",
        "name": null,
        "show": true,
        "values": []
      },
      "yaxes": [
        {
          "decimals": 0,
          "format": "short",
          "label": null,
          "logBase": 1,
          "max": null,
          "min": null,
          "show": true
        },
        {
          "format": "short",
          "label": null,
          "logBase": 1,
          "max": null,
          "min": null,
          "show": true
        }
      ],
      "yaxis": {
        "align": false,
        "alignLevel": null
      }
    },
    {
      "alert": {
        "alertRuleTags": {},
        "conditions": [
          {
            "evaluator": {
              "params": [
                24
              ],
              "type": "gt"
            },
            "operator": {
              "type": "and"
            },
            "query": {
              "params": [
                "A",
                "5m",
                "now"
              ]
            },
            "reducer": {
              "params": [],
              "type": "avg"
            },
            "type": "query"
          }
        ],
        "executionErrorState": "keep_state",
        "for": "2m",
        "frequency": "2m",
        "handler": 1,
        "name": "High Current on YZUPS01-SD2",
        "noDataState": "keep_state",
        "notifications": [
          {
            "uid": "4Kk74OBZz"
          }
        ]
      },
      "aliasColors": {},
      "bars": false,
      "dashLength": 10,
      "dashes": false,
      "datasource": null,
      "fill": 3,
      "fillGradient": 0,
      "gridPos": {
        "h": 5,
        "w": 8,
        "x": 3,
        "y": 17
      },
      "hiddenSeries": false,
      "id": 70,
      "legend": {
        "alignAsTable": false,
        "avg": false,
        "current": false,
        "max": true,
        "min": true,
        "rightSide": false,
        "show": true,
        "total": false,
        "values": true
      },
      "lines": true,
      "linewidth": 2,
      "nullPointMode": "connected",
      "options": {
        "dataLinks": []
      },
      "percentage": false,
      "pointradius": 2,
      "points": false,
      "renderer": "flot",
      "seriesOverrides": [],
      "spaceLength": 10,
      "stack": false,
      "steppedLine": false,
      "targets": [
        {
          "groupBy": [],
          "measurement": "ups_benning_lhc",
          "orderByTime": "ASC",
          "policy": "default",
          "refId": "A",
          "resultFormat": "time_series",
          "select": [
            [
              {
                "params": [
                  "Rectifier Current (total)"
                ],
                "type": "field"
              },
              {
                "params": [
                  " / 10"
                ],
                "type": "math"
              }
            ]
          ],
          "tags": [
            {
              "key": "agent_host",
              "operator": "=",
              "value": "YZUPS01-SD2"
            }
          ]
        },
        {
          "groupBy": [],
          "measurement": "ups_benning_lhc",
          "orderByTime": "ASC",
          "policy": "default",
          "refId": "B",
          "resultFormat": "time_series",
          "select": [
            [
              {
                "params": [
                  "Load Current (total)"
                ],
                "type": "field"
              },
              {
                "params": [
                  " / 10"
                ],
                "type": "math"
              }
            ]
          ],
          "tags": [
            {
              "key": "agent_host",
              "operator": "=",
              "value": "YZUPS01-SD2"
            }
          ]
        }
      ],
      "thresholds": [
        {
          "colorMode": "critical",
          "fill": true,
          "line": true,
          "op": "gt",
          "value": 24
        }
      ],
      "timeFrom": null,
      "timeRegions": [],
      "timeShift": null,
      "title": "YZUPS01-SD2: High Current",
      "tooltip": {
        "shared": true,
        "sort": 0,
        "value_type": "individual"
      },
      "type": "graph",
      "xaxis": {
        "buckets": null,
        "mode": "time",
        "name": null,
        "show": true,
        "values": []
      },
      "yaxes": [
        {
          "decimals": 0,
          "format": "short",
          "label": null,
          "logBase": 1,
          "max": null,
          "min": null,
          "show": true
        },
        {
          "format": "short",
          "label": null,
          "logBase": 1,
          "max": null,
          "min": null,
          "show": true
        }
      ],
      "yaxis": {
        "align": false,
        "alignLevel": null
      }
    },
    {
      "alert": {
        "alertRuleTags": {},
        "conditions": [
          {
            "evaluator": {
              "params": [
                24
              ],
              "type": "gt"
            },
            "operator": {
              "type": "and"
            },
            "query": {
              "params": [
                "A",
                "5m",
                "now"
              ]
            },
            "reducer": {
              "params": [],
              "type": "avg"
            },
            "type": "query"
          }
        ],
        "executionErrorState": "keep_state",
        "for": "2m",
        "frequency": "2m",
        "handler": 1,
        "name": "High Current on YZUPS02-SD2",
        "noDataState": "keep_state",
        "notifications": [
          {
            "uid": "4Kk74OBZz"
          }
        ]
      },
      "aliasColors": {},
      "bars": false,
      "dashLength": 10,
      "dashes": false,
      "datasource": null,
      "fill": 3,
      "fillGradient": 0,
      "gridPos": {
        "h": 5,
        "w": 8,
        "x": 11,
        "y": 17
      },
      "hiddenSeries": false,
      "id": 89,
      "legend": {
        "alignAsTable": false,
        "avg": false,
        "current": false,
        "max": true,
        "min": true,
        "rightSide": false,
        "show": true,
        "total": false,
        "values": true
      },
      "lines": true,
      "linewidth": 2,
      "nullPointMode": "connected",
      "options": {
        "dataLinks": []
      },
      "percentage": false,
      "pointradius": 2,
      "points": false,
      "renderer": "flot",
      "seriesOverrides": [],
      "spaceLength": 10,
      "stack": false,
      "steppedLine": false,
      "targets": [
        {
          "groupBy": [],
          "measurement": "ups_benning_lhc",
          "orderByTime": "ASC",
          "policy": "default",
          "refId": "A",
          "resultFormat": "time_series",
          "select": [
            [
              {
                "params": [
                  "Rectifier Current (total)"
                ],
                "type": "field"
              },
              {
                "params": [
                  " / 10"
                ],
                "type": "math"
              }
            ]
          ],
          "tags": [
            {
              "key": "agent_host",
              "operator": "=",
              "value": "YZUPS02-SD2"
            }
          ]
        },
        {
          "groupBy": [],
          "measurement": "ups_benning_lhc",
          "orderByTime": "ASC",
          "policy": "default",
          "refId": "B",
          "resultFormat": "time_series",
          "select": [
            [
              {
                "params": [
                  "Load Current (total)"
                ],
                "type": "field"
              },
              {
                "params": [
                  " / 10"
                ],
                "type": "math"
              }
            ]
          ],
          "tags": [
            {
              "key": "agent_host",
              "operator": "=",
              "value": "YZUPS02-SD2"
            }
          ]
        }
      ],
      "thresholds": [
        {
          "colorMode": "critical",
          "fill": true,
          "line": true,
          "op": "gt",
          "value": 24
        }
      ],
      "timeFrom": null,
      "timeRegions": [],
      "timeShift": null,
      "title": "YZUPS02-SD2: High Current",
      "tooltip": {
        "shared": true,
        "sort": 0,
        "value_type": "individual"
      },
      "type": "graph",
      "xaxis": {
        "buckets": null,
        "mode": "time",
        "name": null,
        "show": true,
        "values": []
      },
      "yaxes": [
        {
          "decimals": 0,
          "format": "short",
          "label": null,
          "logBase": 1,
          "max": null,
          "min": null,
          "show": true
        },
        {
          "format": "short",
          "label": null,
          "logBase": 1,
          "max": null,
          "min": null,
          "show": true
        }
      ],
      "yaxis": {
        "align": false,
        "alignLevel": null
      }
    },
    {
      "content": "",
      "datasource": null,
      "gridPos": {
        "h": 1,
        "w": 12,
        "x": 10,
        "y": 22
      },
      "id": 49,
      "mode": "html",
      "options": {},
      "targets": [
        {
          "groupBy": [
            {
              "params": [
                "$__interval"
              ],
              "type": "time"
            },
            {
              "params": [
                "null"
              ],
              "type": "fill"
            }
          ],
          "orderByTime": "ASC",
          "policy": "default",
          "refId": "A",
          "resultFormat": "time_series",
          "select": [
            [
              {
                "params": [
                  "value"
                ],
                "type": "field"
              },
              {
                "params": [],
                "type": "mean"
              }
            ]
          ],
          "tags": []
        }
      ],
      "timeFrom": null,
      "timeShift": null,
      "title": "",
      "transparent": true,
      "type": "text"
    },
    {
      "content": "",
      "datasource": null,
      "gridPos": {
        "h": 2,
        "w": 9,
        "x": 10,
        "y": 23
      },
      "id": 44,
      "mode": "html",
      "options": {},
      "targets": [
        {
          "groupBy": [
            {
              "params": [
                "$__interval"
              ],
              "type": "time"
            },
            {
              "params": [
                "null"
              ],
              "type": "fill"
            }
          ],
          "orderByTime": "ASC",
          "policy": "default",
          "refId": "A",
          "resultFormat": "time_series",
          "select": [
            [
              {
                "params": [
                  "value"
                ],
                "type": "field"
              },
              {
                "params": [],
                "type": "mean"
              }
            ]
          ],
          "tags": []
        }
      ],
      "timeFrom": null,
      "timeShift": null,
      "title": "",
      "transparent": true,
      "type": "text"
    }
  ],
  "refresh": false,
  "schemaVersion": 21,
  "style": "dark",
  "tags": [
    "UPS",
    "ZORA LHC"
  ],
  "templating": {
    "list": []
  },
  "time": {
    "from": "now-6h",
    "to": "now"
  },
  "timepicker": {
    "refresh_intervals": [
      "5s",
      "10s",
      "30s",
      "1m",
      "5m",
      "15m",
      "30m",
      "1h",
      "2h",
      "1d"
    ]
  },
  "timezone": "",
  "title": "LHC UPS BENNING SD2",
  "uid": "hOJtetaWz"
}