{
  "annotations": {
    "list": [
      {
        "builtIn": 1,
        "datasource": "-- Grafana --",
        "enable": true,
        "hide": true,
        "iconColor": "rgba(0, 211, 255, 1)",
        "name": "Annotations & Alerts",
        "type": "dashboard"
      }
    ]
  },
  "editable": true,
  "gnetId": null,
  "graphTooltip": 0,
  "links": [],
  "panels": [
    {
      "ackEventColor": "rgb(56, 219, 156)",
      "ageField": false,
      "customLastChangeFormat": false,
      "datasource": null,
      "datasources": [
        "SSM Zabbix"
      ],
      "descriptionAtNewLine": false,
      "descriptionField": true,
      "fontSize": "100%",
      "gridPos": {
        "h": 21,
        "w": 21,
        "x": 0,
        "y": 0
      },
      "highlightBackground": true,
      "highlightNewEvents": true,
      "highlightNewerThan": "1h",
      "hostField": true,
      "hostGroups": true,
      "hostProxy": false,
      "hostTechNameField": true,
      "hostsInMaintenance": true,
      "id": 2,
      "lastChangeFormat": "",
      "layout": "table",
      "limit": 100,
      "links": [],
      "markAckEvents": true,
      "okEventColor": "rgb(56, 189, 113)",
      "options": {},
      "pageSize": 10,
      "problemTimeline": true,
      "resizedColumns": [],
      "schemaVersion": 6,
      "severityField": true,
      "showEvents": {
        "text": "Problems",
        "value": 1
      },
      "showTags": true,
      "showTriggers": "all triggers",
      "sortTriggersBy": {
        "text": "last change",
        "value": "lastchange"
      },
      "statusField": true,
      "statusIcon": false,
      "targets": {
        "0": {
          "application": {
            "filter": ""
          },
          "group": {
            "filter": ""
          },
          "host": {
            "filter": ""
          },
          "proxy": {
            "filter": ""
          },
          "refId": "A",
          "tags": {
            "filter": ""
          },
          "trigger": {
            "filter": ""
          }
        },
        "SSM Dev": {
          "application": {
            "filter": ""
          },
          "group": {
            "filter": "SPS"
          },
          "host": {
            "filter": ""
          },
          "proxy": {
            "filter": ""
          },
          "tags": {
            "filter": ""
          },
          "trigger": {
            "filter": ""
          }
        },
        "SSM Zabbix": {
          "application": {
            "filter": ""
          },
          "group": {
            "filter": "PS"
          },
          "host": {
            "filter": ""
          },
          "proxy": {
            "filter": ""
          },
          "tags": {
            "filter": ""
          },
          "trigger": {
            "filter": ""
          }
        }
      },
      "title": "Problems PS",
      "triggerSeverity": [
        {
          "color": "rgb(108, 108, 108)",
          "priority": 0,
          "severity": "Not classified",
          "show": true
        },
        {
          "color": "rgb(120, 158, 183)",
          "priority": 1,
          "severity": "Information",
          "show": true
        },
        {
          "color": "#eab839",
          "priority": 2,
          "severity": "Warning",
          "show": true
        },
        {
          "color": "rgb(255, 137, 30)",
          "priority": 3,
          "severity": "Average",
          "show": true
        },
        {
          "color": "rgb(255, 101, 72)",
          "priority": 4,
          "severity": "High",
          "show": true
        },
        {
          "color": "rgb(215, 0, 0)",
          "priority": 5,
          "severity": "Disaster",
          "show": true
        }
      ],
      "type": "alexanderzobnin-zabbix-triggers-panel"
    }
  ],
  "schemaVersion": 20,
  "style": "dark",
  "tags": [
    "ZORA PS"
  ],
  "templating": {
    "list": []
  },
  "time": {
    "from": "now-6h",
    "to": "now"
  },
  "timepicker": {
    "refresh_intervals": [
      "5s",
      "10s",
      "30s",
      "1m",
      "5m",
      "15m",
      "30m",
      "1h",
      "2h",
      "1d"
    ],
    "time_options": [
      "5m",
      "15m",
      "1h",
      "6h",
      "12h",
      "24h",
      "2d",
      "7d",
      "30d"
    ]
  },
  "timezone": "",
  "title": "PS Problems",
  "uid": "HPq5Ufamk"
}