{
  "annotations": {
    "list": [
      {
        "builtIn": 1,
        "datasource": "-- Grafana --",
        "enable": true,
        "hide": true,
        "iconColor": "rgba(0, 211, 255, 1)",
        "name": "Annotations & Alerts",
        "type": "dashboard"
      }
    ]
  },
  "description": "",
  "editable": true,
  "gnetId": null,
  "graphTooltip": 0,
  "links": [],
  "panels": [
    {
      "cacheTimeout": null,
      "colorBackground": true,
      "colorPostfix": false,
      "colorValue": false,
      "colors": [
        "#299c46",
        "rgba(237, 129, 40, 0.89)",
        "#d44a3a"
      ],
      "datasource": "SSM Zabbix",
      "format": "none",
      "gauge": {
        "maxValue": 100,
        "minValue": 0,
        "show": false,
        "thresholdLabels": false,
        "thresholdMarkers": true
      },
      "gridPos": {
        "h": 2,
        "w": 12,
        "x": 0,
        "y": 0
      },
      "id": 4,
      "interval": null,
      "links": [],
      "mappingType": 2,
      "mappingTypes": [
        {
          "name": "value to text",
          "value": 1
        },
        {
          "name": "range to text",
          "value": 2
        }
      ],
      "maxDataPoints": 100,
      "maxPerRow": 8,
      "nullPointMode": "connected",
      "nullText": null,
      "postfix": "",
      "postfixFontSize": "100%",
      "prefix": "",
      "prefixFontSize": "100%",
      "rangeMaps": [
        {
          "from": "null",
          "text": "No Data",
          "to": "null"
        },
        {
          "from": "0",
          "text": "OK",
          "to": "0"
        },
        {
          "from": "1",
          "text": "ERROR",
          "to": "1000"
        }
      ],
      "repeat": "host",
      "repeatDirection": "h",
      "scopedVars": {
        "host": {
          "selected": false,
          "text": "YCCCP01SSA",
          "value": "YCCCP01SSA"
        }
      },
      "sparkline": {
        "fillColor": "rgba(31, 118, 189, 0.18)",
        "full": false,
        "lineColor": "rgb(31, 120, 193)",
        "show": false
      },
      "tableColumn": "",
      "targets": [
        {
          "application": {
            "filter": "/.*/"
          },
          "functions": [],
          "group": {
            "filter": "$group"
          },
          "groupBy": [
            {
              "params": [
                "$__interval"
              ],
              "type": "time"
            },
            {
              "params": [
                "null"
              ],
              "type": "fill"
            }
          ],
          "host": {
            "filter": "$host"
          },
          "item": {
            "filter": ""
          },
          "mode": 4,
          "options": {
            "showDisabledItems": false,
            "skipEmptyValues": false
          },
          "orderByTime": "ASC",
          "policy": "default",
          "refId": "A",
          "resultFormat": "time_series",
          "select": [
            [
              {
                "params": [
                  "value"
                ],
                "type": "field"
              },
              {
                "params": [],
                "type": "mean"
              }
            ]
          ],
          "table": {
            "skipEmptyValues": false
          },
          "tags": [],
          "triggers": {
            "acknowledged": 2,
            "count": true,
            "minSeverity": 1
          }
        }
      ],
      "thresholds": "1,2",
      "title": "$host",
      "type": "singlestat",
      "valueFontSize": "100%",
      "valueMaps": [
        {
          "op": "=",
          "text": "ERROR",
          "value": "null"
        },
        {
          "op": "=",
          "text": "OK",
          "value": "0"
        },
        {
          "op": "=",
          "text": "ERROR",
          "value": "1"
        }
      ],
      "valueName": "current"
    },
    {
      "cacheTimeout": null,
      "colorBackground": true,
      "colorPostfix": false,
      "colorValue": false,
      "colors": [
        "#299c46",
        "rgba(237, 129, 40, 0.89)",
        "#d44a3a"
      ],
      "datasource": "SSM Zabbix",
      "format": "none",
      "gauge": {
        "maxValue": 100,
        "minValue": 0,
        "show": false,
        "thresholdLabels": false,
        "thresholdMarkers": true
      },
      "gridPos": {
        "h": 2,
        "w": 12,
        "x": 12,
        "y": 0
      },
      "id": 38,
      "interval": null,
      "links": [],
      "mappingType": 2,
      "mappingTypes": [
        {
          "name": "value to text",
          "value": 1
        },
        {
          "name": "range to text",
          "value": 2
        }
      ],
      "maxDataPoints": 100,
      "maxPerRow": 8,
      "nullPointMode": "connected",
      "nullText": null,
      "postfix": "",
      "postfixFontSize": "100%",
      "prefix": "",
      "prefixFontSize": "100%",
      "rangeMaps": [
        {
          "from": "null",
          "text": "No Data",
          "to": "null"
        },
        {
          "from": "0",
          "text": "OK",
          "to": "0"
        },
        {
          "from": "1",
          "text": "ERROR",
          "to": "1000"
        }
      ],
      "repeat": null,
      "repeatDirection": "h",
      "repeatIteration": 1545232380157,
      "repeatPanelId": 4,
      "scopedVars": {
        "host": {
          "selected": false,
          "text": "YCCCP01SSA0",
          "value": "YCCCP01SSA0"
        }
      },
      "sparkline": {
        "fillColor": "rgba(31, 118, 189, 0.18)",
        "full": false,
        "lineColor": "rgb(31, 120, 193)",
        "show": false
      },
      "tableColumn": "",
      "targets": [
        {
          "application": {
            "filter": "/.*/"
          },
          "functions": [],
          "group": {
            "filter": "$group"
          },
          "groupBy": [
            {
              "params": [
                "$__interval"
              ],
              "type": "time"
            },
            {
              "params": [
                "null"
              ],
              "type": "fill"
            }
          ],
          "host": {
            "filter": "$host"
          },
          "item": {
            "filter": ""
          },
          "mode": 4,
          "options": {
            "showDisabledItems": false,
            "skipEmptyValues": false
          },
          "orderByTime": "ASC",
          "policy": "default",
          "refId": "A",
          "resultFormat": "time_series",
          "select": [
            [
              {
                "params": [
                  "value"
                ],
                "type": "field"
              },
              {
                "params": [],
                "type": "mean"
              }
            ]
          ],
          "table": {
            "skipEmptyValues": false
          },
          "tags": [],
          "triggers": {
            "acknowledged": 2,
            "count": true,
            "minSeverity": 1
          }
        }
      ],
      "thresholds": "1,2",
      "title": "$host",
      "type": "singlestat",
      "valueFontSize": "100%",
      "valueMaps": [
        {
          "op": "=",
          "text": "ERROR",
          "value": "null"
        },
        {
          "op": "=",
          "text": "OK",
          "value": "0"
        },
        {
          "op": "=",
          "text": "ERROR",
          "value": "1"
        }
      ],
      "valueName": "current"
    },
    {
      "ackEventColor": "rgb(56, 219, 156)",
      "customLastChangeFormat": false,
      "datasource": null,
      "datasources": [
        "SSM Zabbix"
      ],
      "descriptionAtNewLine": false,
      "descriptionField": true,
      "fontSize": "100%",
      "gridPos": {
        "h": 10,
        "w": 24,
        "x": 0,
        "y": 2
      },
      "highlightBackground": false,
      "highlightNewEvents": false,
      "highlightNewerThan": "1h",
      "hostField": true,
      "hostGroups": true,
      "hostTechNameField": false,
      "hostsInMaintenance": true,
      "id": 37,
      "lastChangeFormat": "",
      "limit": 100,
      "links": [],
      "markAckEvents": true,
      "okEventColor": "rgb(56, 189, 113)",
      "pageSize": 10,
      "schemaVersion": 4,
      "severityField": true,
      "showEvents": {
        "text": "Problems",
        "value": "1"
      },
      "showTags": true,
      "showTriggers": "all triggers",
      "sortTriggersBy": {
        "text": "last change",
        "value": "lastchange"
      },
      "statusField": true,
      "targets": {
        "0": {
          "refId": "A"
        },
        "SSM Zabbix": {
          "application": {
            "filter": ""
          },
          "group": {
            "filter": "$group"
          },
          "host": {
            "filter": "$host"
          },
          "tags": {
            "filter": ""
          },
          "trigger": {
            "filter": ""
          }
        },
        "null": {
          "group": {
            "filter": "$group"
          },
          "host": {
            "filter": "$host"
          }
        }
      },
      "title": "Errors for $group - $host",
      "triggerSeverity": [
        {
          "color": "rgb(108, 108, 108)",
          "priority": 0,
          "severity": "Not classified",
          "show": true
        },
        {
          "color": "rgb(120, 158, 183)",
          "priority": 1,
          "severity": "Information",
          "show": true
        },
        {
          "color": "rgb(175, 180, 36)",
          "priority": 2,
          "severity": "Warning",
          "show": true
        },
        {
          "color": "rgb(255, 137, 30)",
          "priority": 3,
          "severity": "Average",
          "show": true
        },
        {
          "color": "rgb(255, 101, 72)",
          "priority": 4,
          "severity": "High",
          "show": true
        },
        {
          "color": "rgb(215, 0, 0)",
          "priority": 5,
          "severity": "Disaster",
          "show": true
        }
      ],
      "type": "alexanderzobnin-zabbix-triggers-panel"
    }
  ],
  "schemaVersion": 20,
  "style": "dark",
  "tags": [
    "Template"
  ],
  "templating": {
    "list": [
      {
        "allValue": null,
        "current": {
          "tags": [],
          "text": "LHC SSA",
          "value": "LHC SSA"
        },
        "datasource": "SSM Zabbix",
        "definition": "*",
        "hide": 0,
        "includeAll": false,
        "label": null,
        "multi": false,
        "name": "group",
        "options": [],
        "query": "*",
        "refresh": 1,
        "regex": "",
        "skipUrlSync": false,
        "sort": 0,
        "tagValuesQuery": "",
        "tags": [],
        "tagsQuery": "",
        "type": "query",
        "useTags": false
      },
      {
        "allValue": null,
        "current": {
          "text": "All",
          "value": "$__all"
        },
        "datasource": "SSM Zabbix",
        "definition": "$group.*",
        "hide": 0,
        "includeAll": true,
        "label": null,
        "multi": true,
        "name": "host",
        "options": [],
        "query": "$group.*",
        "refresh": 1,
        "regex": "",
        "skipUrlSync": false,
        "sort": 0,
        "tagValuesQuery": "",
        "tags": [],
        "tagsQuery": "",
        "type": "query",
        "useTags": false
      }
    ]
  },
  "time": {
    "from": "now/w",
    "to": "now"
  },
  "timepicker": {
    "refresh_intervals": [
      "5s",
      "10s",
      "30s",
      "1m",
      "5m",
      "15m",
      "30m",
      "1h",
      "2h",
      "1d"
    ],
    "time_options": [
      "5m",
      "15m",
      "1h",
      "6h",
      "12h",
      "24h",
      "2d",
      "7d",
      "30d"
    ]
  },
  "timezone": "",
  "title": "Template Boxes Triggers Zabbix",
  "uid": "sJy3EEPik"
}