{
  "__requires": [
    {
      "id": "grafana",
      "name": "Grafana",
      "type": "grafana",
      "version": "6.4.0-pre"
    },
    {
      "id": "graph",
      "name": "Graph",
      "type": "panel",
      "version": ""
    },
    {
      "id": "influxdb",
      "name": "InfluxDB",
      "type": "datasource",
      "version": "1.0.0"
    },
    {
      "id": "singlestat",
      "name": "Singlestat",
      "type": "panel",
      "version": ""
    }
  ],
  "annotations": {
    "list": [
      {
        "builtIn": 1,
        "datasource": "-- Grafana --",
        "enable": true,
        "hide": true,
        "iconColor": "rgba(0, 211, 255, 1)",
        "name": "Annotations & Alerts",
        "type": "dashboard"
      }
    ]
  },
  "description": "https://technicalramblings.com/blog/setting-grafana-influxdb-telegraf-ups-monitoring-unraid/",
  "editable": true,
  "gnetId": 7197,
  "graphTooltip": 0,
  "iteration": 1564072472196,
  "links": [
    {
      "icon": "external link",
      "tags": [],
      "title": "Setting up Grafana and InfluxDB for UPS monitoring on unRAID",
      "type": "link",
      "url": "https://technicalramblings.com/blog/setting-grafana-influxdb-telegraf-ups-monitoring-unraid/"
    },
    {
      "icon": "external link",
      "tags": [],
      "targetBlank": true,
      "title": "Grafana Plex Theme",
      "type": "link",
      "url": "https://github.com/gilbN/theme.park#graforg---grafana-darkplex"
    }
  ],
  "panels": [
    {
      "aliasColors": {
        "APC.mean": "rgb(0, 218, 255)",
        "UPS Load": "#70dbed"
      },
      "bars": false,
      "dashLength": 10,
      "dashes": false,
      "datasource": "$upsdatasource",
      "decimals": null,
      "fill": 4,
      "fillGradient": 0,
      "gridPos": {
        "h": 6,
        "w": 11,
        "x": 0,
        "y": 0
      },
      "id": 2,
      "legend": {
        "alignAsTable": false,
        "avg": true,
        "current": false,
        "hideEmpty": false,
        "hideZero": false,
        "max": true,
        "min": true,
        "rightSide": false,
        "show": true,
        "total": false,
        "values": true
      },
      "lines": true,
      "linewidth": 1,
      "links": [],
      "nullPointMode": "connected",
      "options": {
        "dataLinks": []
      },
      "paceLength": 10,
      "percentage": false,
      "pointradius": 5,
      "points": false,
      "renderer": "flot",
      "repeat": null,
      "seriesOverrides": [
        {
          "alias": "Watts",
          "yaxis": 2
        }
      ],
      "spaceLength": 10,
      "stack": false,
      "steppedLine": false,
      "targets": [
        {
          "alias": "UPS Load",
          "groupBy": [
            {
              "params": [
                "$__interval"
              ],
              "type": "time"
            },
            {
              "params": [
                "none"
              ],
              "type": "fill"
            }
          ],
          "measurement": "APC",
          "orderByTime": "ASC",
          "policy": "default",
          "refId": "A",
          "resultFormat": "time_series",
          "select": [
            [
              {
                "params": [
                  "LOADPCT"
                ],
                "type": "field"
              },
              {
                "params": [],
                "type": "mean"
              }
            ]
          ],
          "tags": []
        },
        {
          "alias": "Watts",
          "groupBy": [
            {
              "params": [
                "$__interval"
              ],
              "type": "time"
            },
            {
              "params": [
                "none"
              ],
              "type": "fill"
            }
          ],
          "measurement": "APC",
          "orderByTime": "ASC",
          "policy": "default",
          "refId": "B",
          "resultFormat": "time_series",
          "select": [
            [
              {
                "params": [
                  "LOADPCT"
                ],
                "type": "field"
              },
              {
                "params": [],
                "type": "mean"
              },
              {
                "params": [
                  " / 100*$maxwatt"
                ],
                "type": "math"
              }
            ]
          ],
          "tags": []
        }
      ],
      "thresholds": [],
      "timeFrom": "1h",
      "timeRegions": [],
      "timeShift": null,
      "title": "UPS Load %",
      "tooltip": {
        "shared": true,
        "sort": 0,
        "value_type": "individual"
      },
      "type": "graph",
      "xaxis": {
        "buckets": null,
        "mode": "time",
        "name": null,
        "show": true,
        "values": []
      },
      "yaxes": [
        {
          "decimals": null,
          "format": "percent",
          "label": "Percent",
          "logBase": 1,
          "max": null,
          "min": "0",
          "show": true
        },
        {
          "format": "watt",
          "label": "Watts",
          "logBase": 1,
          "max": null,
          "min": null,
          "show": true
        }
      ],
      "yaxis": {
        "align": false,
        "alignLevel": null
      }
    },
    {
      "cacheTimeout": null,
      "colorBackground": false,
      "colorValue": false,
      "colors": [
        "#d44a3a",
        "rgba(237, 129, 40, 0.89)",
        "#299c46"
      ],
      "datasource": "$upsdatasource",
      "decimals": null,
      "format": "percent",
      "gauge": {
        "maxValue": 100,
        "minValue": 0,
        "show": true,
        "thresholdLabels": true,
        "thresholdMarkers": true
      },
      "gridPos": {
        "h": 6,
        "w": 3,
        "x": 11,
        "y": 0
      },
      "hideTimeOverride": true,
      "id": 4,
      "interval": null,
      "links": [],
      "mappingType": 1,
      "mappingTypes": [
        {
          "name": "value to text",
          "value": 1
        },
        {
          "name": "range to text",
          "value": 2
        }
      ],
      "maxDataPoints": 100,
      "nullPointMode": "connected",
      "nullText": null,
      "options": {},
      "postfix": "",
      "postfixFontSize": "50%",
      "prefix": "",
      "prefixFontSize": "50%",
      "rangeMaps": [
        {
          "from": "null",
          "text": "N/A",
          "to": "null"
        }
      ],
      "repeat": null,
      "sparkline": {
        "fillColor": "rgba(5, 43, 81, 0.2)",
        "full": true,
        "lineColor": "rgb(31, 120, 193)",
        "show": false
      },
      "tableColumn": "mean",
      "targets": [
        {
          "alias": "Percent",
          "groupBy": [
            {
              "params": [
                "$__interval"
              ],
              "type": "time"
            },
            {
              "params": [
                "none"
              ],
              "type": "fill"
            }
          ],
          "measurement": "APC",
          "orderByTime": "ASC",
          "policy": "default",
          "refId": "A",
          "resultFormat": "time_series",
          "select": [
            [
              {
                "params": [
                  "BCHARGE"
                ],
                "type": "field"
              },
              {
                "params": [],
                "type": "mean"
              }
            ]
          ],
          "slimit": "",
          "tags": []
        }
      ],
      "thresholds": "20,50,",
      "timeFrom": "1h",
      "title": "UPS Battery Charge",
      "type": "singlestat",
      "valueFontSize": "80%",
      "valueMaps": [
        {
          "op": "=",
          "text": "N/A",
          "value": "null"
        }
      ],
      "valueName": "current"
    },
    {
      "cacheTimeout": null,
      "colorBackground": true,
      "colorValue": false,
      "colors": [
        "#d44a3a",
        "rgba(237, 129, 40, 0.89)",
        "#299c46"
      ],
      "datasource": "$upsdatasource",
      "decimals": 1,
      "format": "m",
      "gauge": {
        "maxValue": 100,
        "minValue": 0,
        "show": false,
        "thresholdLabels": false,
        "thresholdMarkers": true
      },
      "gridPos": {
        "h": 2,
        "w": 6,
        "x": 14,
        "y": 0
      },
      "hideTimeOverride": true,
      "id": 6,
      "interval": null,
      "links": [],
      "mappingType": 1,
      "mappingTypes": [
        {
          "name": "value to text",
          "value": 1
        },
        {
          "name": "range to text",
          "value": 2
        }
      ],
      "maxDataPoints": 100,
      "nullPointMode": "connected",
      "nullText": null,
      "options": {},
      "postfix": "utes left!",
      "postfixFontSize": "80%",
      "prefix": "",
      "prefixFontSize": "50%",
      "rangeMaps": [
        {
          "from": "null",
          "text": "N/A",
          "to": "null"
        }
      ],
      "sparkline": {
        "fillColor": "rgba(31, 118, 189, 0.18)",
        "full": false,
        "lineColor": "rgb(31, 120, 193)",
        "show": false
      },
      "tableColumn": "mean",
      "targets": [
        {
          "groupBy": [
            {
              "params": [
                "$__interval"
              ],
              "type": "time"
            },
            {
              "params": [
                "none"
              ],
              "type": "fill"
            }
          ],
          "measurement": "APC",
          "orderByTime": "ASC",
          "policy": "default",
          "refId": "A",
          "resultFormat": "table",
          "select": [
            [
              {
                "params": [
                  "TIMELEFT"
                ],
                "type": "field"
              },
              {
                "params": [],
                "type": "mean"
              }
            ]
          ],
          "tags": []
        }
      ],
      "thresholds": "10,30,60",
      "timeFrom": "1m",
      "title": "UPS Runtime",
      "type": "singlestat",
      "valueFontSize": "80%",
      "valueMaps": [
        {
          "op": "=",
          "text": "N/A",
          "value": "null"
        }
      ],
      "valueName": "avg"
    },
    {
      "cacheTimeout": null,
      "colorBackground": false,
      "colorValue": false,
      "colors": [
        "#299c46",
        "rgba(237, 129, 40, 0.89)",
        "#d44a3a"
      ],
      "datasource": "$upsdatasource",
      "decimals": 2,
      "description": "",
      "format": "kwatth",
      "gauge": {
        "maxValue": 100,
        "minValue": 0,
        "show": false,
        "thresholdLabels": false,
        "thresholdMarkers": true
      },
      "gridPos": {
        "h": 2,
        "w": 4,
        "x": 20,
        "y": 0
      },
      "hideTimeOverride": true,
      "id": 41,
      "interval": null,
      "links": [],
      "mappingType": 1,
      "mappingTypes": [
        {
          "name": "value to text",
          "value": 1
        },
        {
          "name": "range to text",
          "value": 2
        }
      ],
      "maxDataPoints": 100,
      "nullPointMode": "connected",
      "nullText": null,
      "options": {},
      "postfix": "",
      "postfixFontSize": "50%",
      "prefix": "",
      "prefixFontSize": "50%",
      "rangeMaps": [
        {
          "from": "null",
          "text": "N/A",
          "to": "null"
        }
      ],
      "sparkline": {
        "fillColor": "rgba(31, 118, 189, 0.18)",
        "full": false,
        "lineColor": "rgb(31, 120, 193)",
        "show": false
      },
      "tableColumn": "sum",
      "targets": [
        {
          "groupBy": [
            {
              "params": [
                "$__interval"
              ],
              "type": "time"
            },
            {
              "params": [
                "null"
              ],
              "type": "fill"
            }
          ],
          "hide": false,
          "measurement": "APC",
          "orderByTime": "ASC",
          "policy": "default",
          "query": "SELECT sum(\"LOADPCT\") / 100 * 865 FROM \"APC\" WHERE \"LOADPCT\" = 'loadpercent' AND $timeFilter GROUP BY time(30s) fill(null)",
          "rawQuery": false,
          "refId": "A",
          "resultFormat": "time_series",
          "select": [
            [
              {
                "params": [
                  "LOADPCT"
                ],
                "type": "field"
              },
              {
                "params": [],
                "type": "sum"
              },
              {
                "params": [
                  "/100*$maxwatt/1000/60"
                ],
                "type": "math"
              }
            ]
          ],
          "tags": []
        }
      ],
      "thresholds": "",
      "timeFrom": "now/d",
      "timeShift": null,
      "title": "Today's Usage",
      "type": "singlestat",
      "valueFontSize": "80%",
      "valueMaps": [
        {
          "op": "=",
          "text": "N/A",
          "value": "null"
        }
      ],
      "valueName": "total"
    },
    {
      "cacheTimeout": null,
      "colorBackground": false,
      "colorValue": false,
      "colors": [
        "#299c46",
        "rgba(237, 129, 40, 0.89)",
        "#d44a3a"
      ],
      "datasource": "$upsdatasource",
      "description": "",
      "format": "watt",
      "gauge": {
        "maxValue": 100,
        "minValue": 0,
        "show": false,
        "thresholdLabels": false,
        "thresholdMarkers": true
      },
      "gridPos": {
        "h": 2,
        "w": 3,
        "x": 14,
        "y": 2
      },
      "hideTimeOverride": true,
      "id": 10,
      "interval": null,
      "links": [],
      "mappingType": 1,
      "mappingTypes": [
        {
          "name": "value to text",
          "value": 1
        },
        {
          "name": "range to text",
          "value": 2
        }
      ],
      "maxDataPoints": 100,
      "nullPointMode": "connected",
      "nullText": null,
      "options": {},
      "postfix": "",
      "postfixFontSize": "50%",
      "prefix": "",
      "prefixFontSize": "50%",
      "rangeMaps": [
        {
          "from": "null",
          "text": "N/A",
          "to": "null"
        }
      ],
      "sparkline": {
        "fillColor": "rgba(31, 118, 189, 0.18)",
        "full": false,
        "lineColor": "rgb(31, 120, 193)",
        "show": false
      },
      "tableColumn": "sum",
      "targets": [
        {
          "alias": "Watts",
          "groupBy": [
            {
              "params": [
                "$__interval"
              ],
              "type": "time"
            },
            {
              "params": [
                "none"
              ],
              "type": "fill"
            }
          ],
          "hide": false,
          "measurement": "APC",
          "orderByTime": "ASC",
          "policy": "default",
          "query": "SELECT sum(\"LOADPCT\") / 100 * 865 FROM \"APC\" WHERE \"LOADPCT\" = 'loadpercent' AND $timeFilter GROUP BY time(30s) fill(null)",
          "rawQuery": false,
          "refId": "A",
          "resultFormat": "time_series",
          "select": [
            [
              {
                "params": [
                  "LOADPCT"
                ],
                "type": "field"
              },
              {
                "params": [],
                "type": "mean"
              },
              {
                "params": [
                  " / 100*$maxwatt"
                ],
                "type": "math"
              }
            ]
          ],
          "tags": []
        }
      ],
      "thresholds": "",
      "timeFrom": "now-1m",
      "title": "Current UPS Load",
      "type": "singlestat",
      "valueFontSize": "110%",
      "valueMaps": [
        {
          "op": "=",
          "text": "N/A",
          "value": "null"
        }
      ],
      "valueName": "current"
    },
    {
      "cacheTimeout": null,
      "colorBackground": false,
      "colorValue": false,
      "colors": [
        "#299c46",
        "rgba(237, 129, 40, 0.89)",
        "#d44a3a"
      ],
      "datasource": "$upsdatasource",
      "description": "",
      "format": "watt",
      "gauge": {
        "maxValue": 100,
        "minValue": 0,
        "show": false,
        "thresholdLabels": false,
        "thresholdMarkers": true
      },
      "gridPos": {
        "h": 2,
        "w": 3,
        "x": 17,
        "y": 2
      },
      "hideTimeOverride": true,
      "id": 40,
      "interval": null,
      "links": [],
      "mappingType": 1,
      "mappingTypes": [
        {
          "name": "value to text",
          "value": 1
        },
        {
          "name": "range to text",
          "value": 2
        }
      ],
      "maxDataPoints": 100,
      "nullPointMode": "connected",
      "nullText": null,
      "options": {},
      "postfix": "",
      "postfixFontSize": "50%",
      "prefix": "",
      "prefixFontSize": "50%",
      "rangeMaps": [
        {
          "from": "null",
          "text": "N/A",
          "to": "null"
        }
      ],
      "sparkline": {
        "fillColor": "rgba(31, 118, 189, 0.18)",
        "full": false,
        "lineColor": "rgb(31, 120, 193)",
        "show": false
      },
      "tableColumn": "sum",
      "targets": [
        {
          "alias": "Watts",
          "groupBy": [
            {
              "params": [
                "$__interval"
              ],
              "type": "time"
            },
            {
              "params": [
                "none"
              ],
              "type": "fill"
            }
          ],
          "hide": false,
          "measurement": "APC",
          "orderByTime": "ASC",
          "policy": "default",
          "query": "SELECT sum(\"LOADPCT\") / 100 * 865 FROM \"APC\" WHERE \"LOADPCT\" = 'loadpercent' AND $timeFilter GROUP BY time(30s) fill(null)",
          "rawQuery": false,
          "refId": "A",
          "resultFormat": "time_series",
          "select": [
            [
              {
                "params": [
                  "LOADPCT"
                ],
                "type": "field"
              },
              {
                "params": [],
                "type": "mean"
              },
              {
                "params": [
                  " / 100*$maxwatt"
                ],
                "type": "math"
              }
            ]
          ],
          "tags": []
        }
      ],
      "thresholds": "",
      "timeFrom": "now/y",
      "title": "Average UPS Load",
      "type": "singlestat",
      "valueFontSize": "110%",
      "valueMaps": [
        {
          "op": "=",
          "text": "N/A",
          "value": "null"
        }
      ],
      "valueName": "avg"
    },
    {
      "cacheTimeout": null,
      "colorBackground": false,
      "colorPrefix": true,
      "colorValue": true,
      "colors": [
        "#d44a3a",
        "rgba(237, 129, 40, 0.89)",
        "#299c46"
      ],
      "datasource": "$upsdatasource",
      "decimals": 2,
      "description": "",
      "format": "none",
      "gauge": {
        "maxValue": 5,
        "minValue": 0,
        "show": false,
        "thresholdLabels": false,
        "thresholdMarkers": false
      },
      "gridPos": {
        "h": 2,
        "w": 4,
        "x": 20,
        "y": 2
      },
      "hideTimeOverride": true,
      "id": 22,
      "interval": null,
      "links": [],
      "mappingType": 1,
      "mappingTypes": [
        {
          "name": "value to text",
          "value": 1
        },
        {
          "name": "range to text",
          "value": 2
        }
      ],
      "maxDataPoints": 100,
      "nullPointMode": "connected",
      "nullText": null,
      "options": {},
      "postfix": "",
      "postfixFontSize": "100%",
      "prefix": "$currency",
      "prefixFontSize": "100%",
      "rangeMaps": [
        {
          "from": "null",
          "text": "N/A",
          "to": "null"
        }
      ],
      "sparkline": {
        "fillColor": "rgba(31, 118, 189, 0.18)",
        "full": true,
        "lineColor": "rgb(31, 120, 193)",
        "show": false
      },
      "tableColumn": "sum",
      "targets": [
        {
          "alias": "Costs",
          "groupBy": [
            {
              "params": [
                "$__interval"
              ],
              "type": "time"
            },
            {
              "params": [
                "none"
              ],
              "type": "fill"
            }
          ],
          "hide": false,
          "measurement": "APC",
          "orderByTime": "ASC",
          "policy": "default",
          "query": "SELECT sum(\"LOADPCT\") / 100 * 865 FROM \"APC\" WHERE \"LOADPCT\" = 'loadpercent' AND $timeFilter GROUP BY time(30s) fill(null)",
          "rawQuery": false,
          "refId": "A",
          "resultFormat": "time_series",
          "select": [
            [
              {
                "params": [
                  "LOADPCT"
                ],
                "type": "field"
              },
              {
                "params": [],
                "type": "sum"
              },
              {
                "params": [
                  "/100*$maxwatt/1000/60*$kwhprice"
                ],
                "type": "math"
              }
            ]
          ],
          "tags": []
        }
      ],
      "thresholds": "",
      "timeFrom": "now/d",
      "title": "Today's Cost",
      "type": "singlestat",
      "valueFontSize": "100%",
      "valueMaps": [
        {
          "op": "=",
          "text": "N/A",
          "value": "null"
        }
      ],
      "valueName": "total"
    },
    {
      "cacheTimeout": null,
      "colorBackground": false,
      "colorValue": false,
      "colors": [
        "#299c46",
        "rgba(237, 129, 40, 0.89)",
        "#d44a3a"
      ],
      "datasource": "$upsdatasource",
      "decimals": 2,
      "description": "",
      "format": "kwatth",
      "gauge": {
        "maxValue": 100,
        "minValue": 0,
        "show": false,
        "thresholdLabels": false,
        "thresholdMarkers": true
      },
      "gridPos": {
        "h": 2,
        "w": 6,
        "x": 14,
        "y": 4
      },
      "hideTimeOverride": true,
      "id": 12,
      "interval": null,
      "links": [],
      "mappingType": 1,
      "mappingTypes": [
        {
          "name": "value to text",
          "value": 1
        },
        {
          "name": "range to text",
          "value": 2
        }
      ],
      "maxDataPoints": 100,
      "nullPointMode": "connected",
      "nullText": null,
      "options": {},
      "postfix": "",
      "postfixFontSize": "50%",
      "prefix": "",
      "prefixFontSize": "50%",
      "rangeMaps": [
        {
          "from": "null",
          "text": "N/A",
          "to": "null"
        }
      ],
      "sparkline": {
        "fillColor": "rgba(31, 118, 189, 0.18)",
        "full": true,
        "lineColor": "rgb(31, 120, 193)",
        "show": false
      },
      "tableColumn": "sum",
      "targets": [
        {
          "alias": "Wh",
          "groupBy": [
            {
              "params": [
                "1h"
              ],
              "type": "time"
            },
            {
              "params": [
                "none"
              ],
              "type": "fill"
            }
          ],
          "hide": false,
          "measurement": "APC",
          "orderByTime": "ASC",
          "policy": "default",
          "query": "SELECT sum(\"LOADPCT\") / 100 * 865 FROM \"APC\" WHERE \"LOADPCT\" = 'loadpercent' AND $timeFilter GROUP BY time(30s) fill(null)",
          "rawQuery": false,
          "refId": "A",
          "resultFormat": "time_series",
          "select": [
            [
              {
                "params": [
                  "LOADPCT"
                ],
                "type": "field"
              },
              {
                "params": [],
                "type": "mean"
              },
              {
                "params": [
                  "/100*$maxwatt/1000"
                ],
                "type": "math"
              }
            ]
          ],
          "tags": []
        }
      ],
      "thresholds": "",
      "timeFrom": "now-1h",
      "timeShift": null,
      "title": "Load kWh",
      "type": "singlestat",
      "valueFontSize": "110%",
      "valueMaps": [
        {
          "op": "=",
          "text": "N/A",
          "value": "null"
        }
      ],
      "valueName": "current"
    },
    {
      "cacheTimeout": null,
      "colorBackground": false,
      "colorValue": false,
      "colors": [
        "#299c46",
        "rgba(237, 129, 40, 0.89)",
        "#d44a3a"
      ],
      "datasource": "$upsdatasource",
      "decimals": 2,
      "description": "",
      "format": "kwatth",
      "gauge": {
        "maxValue": 100,
        "minValue": 0,
        "show": false,
        "thresholdLabels": false,
        "thresholdMarkers": true
      },
      "gridPos": {
        "h": 2,
        "w": 4,
        "x": 20,
        "y": 4
      },
      "hideTimeOverride": true,
      "id": 16,
      "interval": null,
      "links": [],
      "mappingType": 1,
      "mappingTypes": [
        {
          "name": "value to text",
          "value": 1
        },
        {
          "name": "range to text",
          "value": 2
        }
      ],
      "maxDataPoints": 100,
      "nullPointMode": "connected",
      "nullText": null,
      "options": {},
      "postfix": "",
      "postfixFontSize": "50%",
      "prefix": "",
      "prefixFontSize": "50%",
      "rangeMaps": [
        {
          "from": "null",
          "text": "N/A",
          "to": "null"
        }
      ],
      "sparkline": {
        "fillColor": "rgba(31, 118, 189, 0.18)",
        "full": false,
        "lineColor": "rgb(31, 120, 193)",
        "show": false
      },
      "tableColumn": "sum",
      "targets": [
        {
          "groupBy": [
            {
              "params": [
                "$__interval"
              ],
              "type": "time"
            },
            {
              "params": [
                "null"
              ],
              "type": "fill"
            }
          ],
          "hide": false,
          "measurement": "APC",
          "orderByTime": "ASC",
          "policy": "default",
          "query": "SELECT sum(\"LOADPCT\") / 100 * 865 FROM \"APC\" WHERE \"LOADPCT\" = 'loadpercent' AND $timeFilter GROUP BY time(30s) fill(null)",
          "rawQuery": false,
          "refId": "A",
          "resultFormat": "time_series",
          "select": [
            [
              {
                "params": [
                  "LOADPCT"
                ],
                "type": "field"
              },
              {
                "params": [],
                "type": "sum"
              },
              {
                "params": [
                  "/100*$maxwatt/1000/60"
                ],
                "type": "math"
              }
            ]
          ],
          "tags": []
        }
      ],
      "thresholds": "",
      "timeFrom": "now/w",
      "timeShift": null,
      "title": "This Week's Usage",
      "type": "singlestat",
      "valueFontSize": "80%",
      "valueMaps": [
        {
          "op": "=",
          "text": "N/A",
          "value": "null"
        }
      ],
      "valueName": "total"
    },
    {
      "aliasColors": {
        "Costs": "#7eb26d",
        "kWh": "#eab839"
      },
      "bars": true,
      "dashLength": 10,
      "dashes": false,
      "datasource": "$upsdatasource",
      "decimals": 2,
      "editable": true,
      "error": false,
      "fill": 1,
      "fillGradient": 0,
      "grid": {},
      "gridPos": {
        "h": 6,
        "w": 9,
        "x": 0,
        "y": 6
      },
      "hideTimeOverride": false,
      "id": 32,
      "interval": "1d",
      "legend": {
        "alignAsTable": true,
        "avg": true,
        "current": true,
        "hideEmpty": false,
        "hideZero": false,
        "max": true,
        "min": false,
        "rightSide": false,
        "show": true,
        "total": true,
        "values": true
      },
      "lines": false,
      "linewidth": 2,
      "links": [],
      "nullPointMode": "connected",
      "options": {
        "dataLinks": []
      },
      "paceLength": 10,
      "percentage": false,
      "pointradius": 5,
      "points": false,
      "renderer": "flot",
      "seriesOverrides": [
        {
          "alias": "Costs",
          "yaxis": 2
        }
      ],
      "spaceLength": 10,
      "span": 12,
      "stack": false,
      "steppedLine": false,
      "targets": [
        {
          "alias": "Costs",
          "dsType": "influxdb",
          "groupBy": [
            {
              "params": [
                "$__interval"
              ],
              "type": "time"
            },
            {
              "params": [
                "none"
              ],
              "type": "fill"
            }
          ],
          "hide": false,
          "measurement": "APC",
          "orderByTime": "ASC",
          "policy": "default",
          "query": "SELECT sum(\"value\") *0.22/1000 FROM \"power\" WHERE \"host\" = 'mainpower' AND $timeFilter GROUP BY time(1d) fill(null)",
          "refId": "B",
          "resultFormat": "time_series",
          "select": [
            [
              {
                "params": [
                  "LOADPCT"
                ],
                "type": "field"
              },
              {
                "params": [],
                "type": "sum"
              },
              {
                "params": [
                  "/100*$maxwatt/1000/60*$kwhprice"
                ],
                "type": "math"
              }
            ]
          ],
          "tags": []
        },
        {
          "alias": "kWh",
          "dsType": "influxdb",
          "groupBy": [
            {
              "params": [
                "$__interval"
              ],
              "type": "time"
            },
            {
              "params": [
                "none"
              ],
              "type": "fill"
            }
          ],
          "hide": false,
          "measurement": "APC",
          "orderByTime": "ASC",
          "policy": "default",
          "query": "SELECT sum(\"value\") FROM \"power\" WHERE \"host\" = 'mainpower' AND $timeFilter GROUP BY time(1d) fill(null)",
          "refId": "A",
          "resultFormat": "time_series",
          "select": [
            [
              {
                "params": [
                  "LOADPCT"
                ],
                "type": "field"
              },
              {
                "params": [],
                "type": "sum"
              },
              {
                "params": [
                  "/100*$maxwatt/1000/60"
                ],
                "type": "math"
              }
            ]
          ],
          "tags": []
        }
      ],
      "thresholds": [],
      "timeFrom": "now/w",
      "timeRegions": [],
      "timeShift": null,
      "title": "This Week Consumption/Costs",
      "tooltip": {
        "msResolution": false,
        "shared": true,
        "sort": 0,
        "value_type": "cumulative"
      },
      "type": "graph",
      "xaxis": {
        "buckets": null,
        "mode": "time",
        "name": null,
        "show": true,
        "values": []
      },
      "yaxes": [
        {
          "decimals": 1,
          "format": "kwatth",
          "label": "Load",
          "logBase": 1,
          "max": "10",
          "min": null,
          "show": true
        },
        {
          "decimals": 2,
          "format": "currencyUSD",
          "label": "Cost",
          "logBase": 1,
          "max": null,
          "min": "0",
          "show": true
        }
      ],
      "yaxis": {
        "align": true,
        "alignLevel": null
      }
    },
    {
      "aliasColors": {
        "Costs": "#7eb26d",
        "kWh": "#eab839"
      },
      "bars": true,
      "dashLength": 10,
      "dashes": false,
      "datasource": "$upsdatasource",
      "decimals": 2,
      "editable": true,
      "error": false,
      "fill": 1,
      "fillGradient": 0,
      "grid": {},
      "gridPos": {
        "h": 6,
        "w": 11,
        "x": 9,
        "y": 6
      },
      "hideTimeOverride": false,
      "id": 33,
      "interval": "1d",
      "legend": {
        "alignAsTable": true,
        "avg": true,
        "current": true,
        "hideEmpty": false,
        "hideZero": false,
        "max": true,
        "min": false,
        "rightSide": false,
        "show": true,
        "total": true,
        "values": true
      },
      "lines": false,
      "linewidth": 2,
      "links": [],
      "nullPointMode": "connected",
      "options": {
        "dataLinks": []
      },
      "paceLength": 10,
      "percentage": false,
      "pointradius": 5,
      "points": false,
      "renderer": "flot",
      "seriesOverrides": [
        {
          "alias": "Costs",
          "yaxis": 2
        }
      ],
      "spaceLength": 10,
      "span": 12,
      "stack": false,
      "steppedLine": false,
      "targets": [
        {
          "alias": "Costs",
          "dsType": "influxdb",
          "groupBy": [
            {
              "params": [
                "$__interval"
              ],
              "type": "time"
            },
            {
              "params": [
                "none"
              ],
              "type": "fill"
            }
          ],
          "hide": false,
          "measurement": "APC",
          "orderByTime": "ASC",
          "policy": "default",
          "query": "SELECT sum(\"value\") *0.22/1000 FROM \"power\" WHERE \"host\" = 'mainpower' AND $timeFilter GROUP BY time(1d) fill(null)",
          "refId": "B",
          "resultFormat": "time_series",
          "select": [
            [
              {
                "params": [
                  "LOADPCT"
                ],
                "type": "field"
              },
              {
                "params": [],
                "type": "sum"
              },
              {
                "params": [
                  "/100*$maxwatt/1000/60*$kwhprice"
                ],
                "type": "math"
              }
            ]
          ],
          "tags": []
        },
        {
          "alias": "kWh",
          "dsType": "influxdb",
          "groupBy": [
            {
              "params": [
                "$__interval"
              ],
              "type": "time"
            },
            {
              "params": [
                "none"
              ],
              "type": "fill"
            }
          ],
          "hide": false,
          "measurement": "APC",
          "orderByTime": "ASC",
          "policy": "default",
          "query": "SELECT sum(\"value\") FROM \"power\" WHERE \"host\" = 'mainpower' AND $timeFilter GROUP BY time(1d) fill(null)",
          "refId": "A",
          "resultFormat": "time_series",
          "select": [
            [
              {
                "params": [
                  "LOADPCT"
                ],
                "type": "field"
              },
              {
                "params": [],
                "type": "sum"
              },
              {
                "params": [
                  "/100*$maxwatt/1000/60"
                ],
                "type": "math"
              }
            ]
          ],
          "tags": []
        }
      ],
      "thresholds": [],
      "timeFrom": "now/M",
      "timeRegions": [],
      "timeShift": null,
      "title": "This Month Consumption/Costs",
      "tooltip": {
        "msResolution": false,
        "shared": true,
        "sort": 0,
        "value_type": "cumulative"
      },
      "type": "graph",
      "xaxis": {
        "buckets": null,
        "mode": "time",
        "name": null,
        "show": true,
        "values": []
      },
      "yaxes": [
        {
          "decimals": null,
          "format": "kwatth",
          "label": "Load",
          "logBase": 1,
          "max": "10",
          "min": "0",
          "show": true
        },
        {
          "decimals": 2,
          "format": "currencyUSD",
          "label": "Cost",
          "logBase": 1,
          "max": null,
          "min": "0",
          "show": true
        }
      ],
      "yaxis": {
        "align": false,
        "alignLevel": null
      }
    },
    {
      "cacheTimeout": null,
      "colorBackground": false,
      "colorPrefix": true,
      "colorValue": true,
      "colors": [
        "#299c46",
        "rgba(237, 129, 40, 0.89)",
        "#d44a3a"
      ],
      "datasource": "$upsdatasource",
      "decimals": 2,
      "description": "",
      "format": "none",
      "gauge": {
        "maxValue": 100,
        "minValue": 0,
        "show": false,
        "thresholdLabels": false,
        "thresholdMarkers": true
      },
      "gridPos": {
        "h": 2,
        "w": 4,
        "x": 20,
        "y": 6
      },
      "hideTimeOverride": true,
      "id": 24,
      "interval": null,
      "links": [],
      "mappingType": 1,
      "mappingTypes": [
        {
          "name": "value to text",
          "value": 1
        },
        {
          "name": "range to text",
          "value": 2
        }
      ],
      "maxDataPoints": 100,
      "nullPointMode": "connected",
      "nullText": null,
      "options": {},
      "postfix": "",
      "postfixFontSize": "100%",
      "prefix": "$currency",
      "prefixFontSize": "100%",
      "rangeMaps": [
        {
          "from": "null",
          "text": "N/A",
          "to": "null"
        }
      ],
      "sparkline": {
        "fillColor": "rgba(31, 118, 189, 0.18)",
        "full": false,
        "lineColor": "rgb(31, 120, 193)",
        "show": false
      },
      "tableColumn": "sum",
      "targets": [
        {
          "groupBy": [
            {
              "params": [
                "$__interval"
              ],
              "type": "time"
            },
            {
              "params": [
                "none"
              ],
              "type": "fill"
            }
          ],
          "hide": false,
          "measurement": "APC",
          "orderByTime": "ASC",
          "policy": "default",
          "query": "SELECT sum(\"LOADPCT\") / 100 * 865 FROM \"APC\" WHERE \"LOADPCT\" = 'loadpercent' AND $timeFilter GROUP BY time(30s) fill(null)",
          "rawQuery": false,
          "refId": "A",
          "resultFormat": "time_series",
          "select": [
            [
              {
                "params": [
                  "LOADPCT"
                ],
                "type": "field"
              },
              {
                "params": [],
                "type": "sum"
              },
              {
                "params": [
                  "/100*$maxwatt/1000/60*$kwhprice"
                ],
                "type": "math"
              }
            ]
          ],
          "tags": []
        }
      ],
      "thresholds": "",
      "timeFrom": "now/w",
      "timeShift": null,
      "title": "This Week's Cost",
      "type": "singlestat",
      "valueFontSize": "100%",
      "valueMaps": [
        {
          "op": "=",
          "text": "N/A",
          "value": "null"
        }
      ],
      "valueName": "total"
    },
    {
      "cacheTimeout": null,
      "colorBackground": false,
      "colorValue": false,
      "colors": [
        "#299c46",
        "rgba(237, 129, 40, 0.89)",
        "#d44a3a"
      ],
      "datasource": "$upsdatasource",
      "decimals": 2,
      "description": "",
      "format": "kwatth",
      "gauge": {
        "maxValue": 100,
        "minValue": 0,
        "show": false,
        "thresholdLabels": false,
        "thresholdMarkers": true
      },
      "gridPos": {
        "h": 2,
        "w": 4,
        "x": 20,
        "y": 8
      },
      "hideTimeOverride": true,
      "id": 18,
      "interval": null,
      "links": [],
      "mappingType": 1,
      "mappingTypes": [
        {
          "name": "value to text",
          "value": 1
        },
        {
          "name": "range to text",
          "value": 2
        }
      ],
      "maxDataPoints": 100,
      "nullPointMode": "connected",
      "nullText": null,
      "options": {},
      "postfix": "",
      "postfixFontSize": "50%",
      "prefix": "",
      "prefixFontSize": "50%",
      "rangeMaps": [
        {
          "from": "null",
          "text": "N/A",
          "to": "null"
        }
      ],
      "sparkline": {
        "fillColor": "rgba(31, 118, 189, 0.18)",
        "full": false,
        "lineColor": "rgb(31, 120, 193)",
        "show": false
      },
      "tableColumn": "sum",
      "targets": [
        {
          "alias": "kWh",
          "groupBy": [
            {
              "params": [
                "$__interval"
              ],
              "type": "time"
            },
            {
              "params": [
                "none"
              ],
              "type": "fill"
            }
          ],
          "hide": false,
          "measurement": "APC",
          "orderByTime": "ASC",
          "policy": "default",
          "query": "SELECT sum(\"LOADPCT\") / 100 * 865 FROM \"APC\" WHERE \"LOADPCT\" = 'loadpercent' AND $timeFilter GROUP BY time(30s) fill(null)",
          "rawQuery": false,
          "refId": "A",
          "resultFormat": "time_series",
          "select": [
            [
              {
                "params": [
                  "LOADPCT"
                ],
                "type": "field"
              },
              {
                "params": [],
                "type": "sum"
              },
              {
                "params": [
                  "/100*$maxwatt/1000/60"
                ],
                "type": "math"
              }
            ]
          ],
          "tags": []
        }
      ],
      "thresholds": "",
      "timeFrom": "now/M",
      "title": "This Month's Usage",
      "type": "singlestat",
      "valueFontSize": "80%",
      "valueMaps": [
        {
          "op": "=",
          "text": "N/A",
          "value": "null"
        }
      ],
      "valueName": "total"
    },
    {
      "cacheTimeout": null,
      "colorBackground": false,
      "colorPrefix": true,
      "colorValue": true,
      "colors": [
        "#299c46",
        "rgba(237, 129, 40, 0.89)",
        "#d44a3a"
      ],
      "datasource": "$upsdatasource",
      "decimals": 2,
      "description": "",
      "format": "none",
      "gauge": {
        "maxValue": 100,
        "minValue": 0,
        "show": false,
        "thresholdLabels": false,
        "thresholdMarkers": true
      },
      "gridPos": {
        "h": 2,
        "w": 4,
        "x": 20,
        "y": 10
      },
      "hideTimeOverride": true,
      "id": 26,
      "interval": null,
      "links": [],
      "mappingType": 1,
      "mappingTypes": [
        {
          "name": "value to text",
          "value": 1
        },
        {
          "name": "range to text",
          "value": 2
        }
      ],
      "maxDataPoints": 100,
      "nullPointMode": "connected",
      "nullText": null,
      "options": {},
      "postfix": "",
      "postfixFontSize": "100%",
      "prefix": "$currency",
      "prefixFontSize": "100%",
      "rangeMaps": [
        {
          "from": "null",
          "text": "N/A",
          "to": "null"
        }
      ],
      "sparkline": {
        "fillColor": "rgba(31, 118, 189, 0.18)",
        "full": false,
        "lineColor": "rgb(31, 120, 193)",
        "show": false
      },
      "tableColumn": "sum",
      "targets": [
        {
          "groupBy": [
            {
              "params": [
                "$__interval"
              ],
              "type": "time"
            },
            {
              "params": [
                "none"
              ],
              "type": "fill"
            }
          ],
          "hide": false,
          "measurement": "APC",
          "orderByTime": "ASC",
          "policy": "default",
          "query": "SELECT sum(\"LOADPCT\") / 100 * 865 FROM \"APC\" WHERE \"LOADPCT\" = 'loadpercent' AND $timeFilter GROUP BY time(30s) fill(null)",
          "rawQuery": false,
          "refId": "A",
          "resultFormat": "time_series",
          "select": [
            [
              {
                "params": [
                  "LOADPCT"
                ],
                "type": "field"
              },
              {
                "params": [],
                "type": "sum"
              },
              {
                "params": [
                  "/100*$maxwatt/1000/60*$kwhprice"
                ],
                "type": "math"
              }
            ]
          ],
          "tags": []
        }
      ],
      "thresholds": "",
      "timeFrom": "now/M",
      "title": "This Month's Cost",
      "type": "singlestat",
      "valueFontSize": "100%",
      "valueMaps": [
        {
          "op": "=",
          "text": "N/A",
          "value": "null"
        }
      ],
      "valueName": "total"
    },
    {
      "aliasColors": {
        "Costs": "#7eb26d",
        "kWh": "#eab839"
      },
      "bars": true,
      "dashLength": 10,
      "dashes": false,
      "datasource": "$upsdatasource",
      "decimals": 2,
      "editable": true,
      "error": false,
      "fill": 1,
      "fillGradient": 0,
      "grid": {},
      "gridPos": {
        "h": 6,
        "w": 9,
        "x": 0,
        "y": 12
      },
      "hideTimeOverride": false,
      "id": 31,
      "interval": "1d",
      "legend": {
        "alignAsTable": true,
        "avg": true,
        "current": true,
        "hideEmpty": false,
        "hideZero": false,
        "max": true,
        "min": false,
        "rightSide": false,
        "show": true,
        "total": true,
        "values": true
      },
      "lines": false,
      "linewidth": 2,
      "links": [],
      "nullPointMode": "connected",
      "options": {
        "dataLinks": []
      },
      "paceLength": 10,
      "percentage": false,
      "pointradius": 5,
      "points": false,
      "renderer": "flot",
      "seriesOverrides": [
        {
          "alias": "Costs",
          "yaxis": 2
        }
      ],
      "spaceLength": 10,
      "span": 12,
      "stack": false,
      "steppedLine": false,
      "targets": [
        {
          "alias": "Costs",
          "dsType": "influxdb",
          "groupBy": [
            {
              "params": [
                "$__interval"
              ],
              "type": "time"
            },
            {
              "params": [
                "none"
              ],
              "type": "fill"
            }
          ],
          "hide": false,
          "measurement": "APC",
          "orderByTime": "ASC",
          "policy": "default",
          "query": "SELECT sum(\"value\") *0.22/1000 FROM \"power\" WHERE \"host\" = 'mainpower' AND $timeFilter GROUP BY time(1d) fill(null)",
          "refId": "B",
          "resultFormat": "time_series",
          "select": [
            [
              {
                "params": [
                  "LOADPCT"
                ],
                "type": "field"
              },
              {
                "params": [],
                "type": "sum"
              },
              {
                "params": [
                  "/100*$maxwatt/1000/60*$kwhprice"
                ],
                "type": "math"
              }
            ]
          ],
          "tags": []
        },
        {
          "alias": "kWh",
          "dsType": "influxdb",
          "groupBy": [
            {
              "params": [
                "$__interval"
              ],
              "type": "time"
            },
            {
              "params": [
                "none"
              ],
              "type": "fill"
            }
          ],
          "hide": false,
          "measurement": "APC",
          "orderByTime": "ASC",
          "policy": "default",
          "query": "SELECT sum(\"value\") FROM \"power\" WHERE \"host\" = 'mainpower' AND $timeFilter GROUP BY time(1d) fill(null)",
          "refId": "A",
          "resultFormat": "time_series",
          "select": [
            [
              {
                "params": [
                  "LOADPCT"
                ],
                "type": "field"
              },
              {
                "params": [],
                "type": "sum"
              },
              {
                "params": [
                  "/100*$maxwatt/1000/60"
                ],
                "type": "math"
              }
            ]
          ],
          "tags": []
        }
      ],
      "thresholds": [],
      "timeFrom": "7d",
      "timeRegions": [],
      "timeShift": null,
      "title": "Last 7 Day Power Consumption/Costs",
      "tooltip": {
        "msResolution": false,
        "shared": true,
        "sort": 0,
        "value_type": "cumulative"
      },
      "type": "graph",
      "xaxis": {
        "buckets": null,
        "mode": "time",
        "name": null,
        "show": true,
        "values": []
      },
      "yaxes": [
        {
          "decimals": 1,
          "format": "kwatth",
          "label": "Load",
          "logBase": 1,
          "max": "10",
          "min": null,
          "show": true
        },
        {
          "decimals": 2,
          "format": "currencyUSD",
          "label": "Cost",
          "logBase": 1,
          "max": null,
          "min": "0",
          "show": true
        }
      ],
      "yaxis": {
        "align": true,
        "alignLevel": null
      }
    },
    {
      "aliasColors": {
        "Costs": "#7eb26d",
        "kWh": "#eab839"
      },
      "bars": true,
      "dashLength": 10,
      "dashes": false,
      "datasource": "$upsdatasource",
      "decimals": 2,
      "editable": true,
      "error": false,
      "fill": 1,
      "fillGradient": 0,
      "grid": {},
      "gridPos": {
        "h": 6,
        "w": 11,
        "x": 9,
        "y": 12
      },
      "hideTimeOverride": false,
      "id": 30,
      "interval": "1d",
      "legend": {
        "alignAsTable": true,
        "avg": true,
        "current": true,
        "hideEmpty": false,
        "hideZero": false,
        "max": true,
        "min": false,
        "rightSide": false,
        "show": true,
        "total": true,
        "values": true
      },
      "lines": false,
      "linewidth": 2,
      "links": [],
      "nullPointMode": "connected",
      "options": {
        "dataLinks": []
      },
      "paceLength": 10,
      "percentage": false,
      "pointradius": 5,
      "points": false,
      "renderer": "flot",
      "seriesOverrides": [
        {
          "alias": "Costs",
          "yaxis": 2
        }
      ],
      "spaceLength": 10,
      "span": 12,
      "stack": false,
      "steppedLine": false,
      "targets": [
        {
          "alias": "Costs",
          "dsType": "influxdb",
          "groupBy": [
            {
              "params": [
                "$__interval"
              ],
              "type": "time"
            },
            {
              "params": [
                "none"
              ],
              "type": "fill"
            }
          ],
          "hide": false,
          "measurement": "APC",
          "orderByTime": "ASC",
          "policy": "default",
          "query": "SELECT sum(\"value\") *0.22/1000 FROM \"power\" WHERE \"host\" = 'mainpower' AND $timeFilter GROUP BY time(1d) fill(null)",
          "refId": "B",
          "resultFormat": "time_series",
          "select": [
            [
              {
                "params": [
                  "LOADPCT"
                ],
                "type": "field"
              },
              {
                "params": [],
                "type": "sum"
              },
              {
                "params": [
                  "/100*$maxwatt/1000/60*$kwhprice"
                ],
                "type": "math"
              }
            ]
          ],
          "tags": []
        },
        {
          "alias": "kWh",
          "dsType": "influxdb",
          "groupBy": [
            {
              "params": [
                "$__interval"
              ],
              "type": "time"
            },
            {
              "params": [
                "none"
              ],
              "type": "fill"
            }
          ],
          "hide": false,
          "measurement": "APC",
          "orderByTime": "ASC",
          "policy": "default",
          "query": "SELECT sum(\"value\") FROM \"power\" WHERE \"host\" = 'mainpower' AND $timeFilter GROUP BY time(1d) fill(null)",
          "refId": "A",
          "resultFormat": "time_series",
          "select": [
            [
              {
                "params": [
                  "LOADPCT"
                ],
                "type": "field"
              },
              {
                "params": [],
                "type": "sum"
              },
              {
                "params": [
                  "/100*$maxwatt/1000/60"
                ],
                "type": "math"
              }
            ]
          ],
          "tags": []
        }
      ],
      "thresholds": [],
      "timeFrom": null,
      "timeRegions": [],
      "timeShift": null,
      "title": "Last Month Power Consumption/Costs",
      "tooltip": {
        "msResolution": false,
        "shared": true,
        "sort": 0,
        "value_type": "cumulative"
      },
      "type": "graph",
      "xaxis": {
        "buckets": null,
        "mode": "time",
        "name": null,
        "show": true,
        "values": []
      },
      "yaxes": [
        {
          "decimals": 1,
          "format": "kwatth",
          "label": "Load",
          "logBase": 1,
          "max": "10",
          "min": "0",
          "show": true
        },
        {
          "decimals": 2,
          "format": "currencyUSD",
          "label": "Cost",
          "logBase": 1,
          "max": null,
          "min": "0",
          "show": true
        }
      ],
      "yaxis": {
        "align": false,
        "alignLevel": null
      }
    },
    {
      "cacheTimeout": null,
      "colorBackground": false,
      "colorValue": false,
      "colors": [
        "#299c46",
        "rgba(237, 129, 40, 0.89)",
        "#d44a3a"
      ],
      "datasource": "$upsdatasource",
      "decimals": 2,
      "description": "",
      "format": "kwatth",
      "gauge": {
        "maxValue": 100,
        "minValue": 0,
        "show": false,
        "thresholdLabels": false,
        "thresholdMarkers": true
      },
      "gridPos": {
        "h": 2,
        "w": 4,
        "x": 20,
        "y": 12
      },
      "hideTimeOverride": true,
      "id": 20,
      "interval": null,
      "links": [],
      "mappingType": 1,
      "mappingTypes": [
        {
          "name": "value to text",
          "value": 1
        },
        {
          "name": "range to text",
          "value": 2
        }
      ],
      "maxDataPoints": 100,
      "nullPointMode": "connected",
      "nullText": null,
      "options": {},
      "postfix": "",
      "postfixFontSize": "50%",
      "prefix": "",
      "prefixFontSize": "50%",
      "rangeMaps": [
        {
          "from": "null",
          "text": "N/A",
          "to": "null"
        }
      ],
      "sparkline": {
        "fillColor": "rgba(31, 118, 189, 0.18)",
        "full": false,
        "lineColor": "rgb(31, 120, 193)",
        "show": false
      },
      "tableColumn": "sum",
      "targets": [
        {
          "alias": "kWh",
          "groupBy": [
            {
              "params": [
                "$__interval"
              ],
              "type": "time"
            },
            {
              "params": [
                "null"
              ],
              "type": "fill"
            }
          ],
          "hide": false,
          "measurement": "APC",
          "orderByTime": "ASC",
          "policy": "default",
          "query": "SELECT sum(\"LOADPCT\") / 100 * 865 FROM \"APC\" WHERE \"LOADPCT\" = 'loadpercent' AND $timeFilter GROUP BY time(30s) fill(null)",
          "rawQuery": false,
          "refId": "A",
          "resultFormat": "time_series",
          "select": [
            [
              {
                "params": [
                  "LOADPCT"
                ],
                "type": "field"
              },
              {
                "params": [],
                "type": "sum"
              },
              {
                "params": [
                  "/100*$maxwatt/1000/60"
                ],
                "type": "math"
              }
            ]
          ],
          "tags": []
        }
      ],
      "thresholds": "",
      "timeFrom": "now/y",
      "title": "This Year's Usage",
      "type": "singlestat",
      "valueFontSize": "80%",
      "valueMaps": [
        {
          "op": "=",
          "text": "N/A",
          "value": "null"
        }
      ],
      "valueName": "total"
    },
    {
      "cacheTimeout": null,
      "colorBackground": false,
      "colorPrefix": true,
      "colorValue": true,
      "colors": [
        "#d44a3a",
        "rgba(237, 129, 40, 0.89)",
        "#299c46"
      ],
      "datasource": "$upsdatasource",
      "decimals": 2,
      "description": "",
      "format": "none",
      "gauge": {
        "maxValue": 150,
        "minValue": null,
        "show": false,
        "thresholdLabels": false,
        "thresholdMarkers": true
      },
      "gridPos": {
        "h": 2,
        "w": 4,
        "x": 20,
        "y": 14
      },
      "hideTimeOverride": true,
      "id": 28,
      "interval": null,
      "links": [],
      "mappingType": 1,
      "mappingTypes": [
        {
          "name": "value to text",
          "value": 1
        },
        {
          "name": "range to text",
          "value": 2
        }
      ],
      "maxDataPoints": 100,
      "nullPointMode": "connected",
      "nullText": null,
      "options": {},
      "postfix": "",
      "postfixFontSize": "100%",
      "prefix": "$currency",
      "prefixFontSize": "100%",
      "rangeMaps": [
        {
          "from": "null",
          "text": "N/A",
          "to": "null"
        }
      ],
      "sparkline": {
        "fillColor": "rgba(31, 118, 189, 0.18)",
        "full": false,
        "lineColor": "rgb(31, 120, 193)",
        "show": false
      },
      "tableColumn": "sum",
      "targets": [
        {
          "groupBy": [
            {
              "params": [
                "$__interval"
              ],
              "type": "time"
            },
            {
              "params": [
                "none"
              ],
              "type": "fill"
            }
          ],
          "hide": false,
          "measurement": "APC",
          "orderByTime": "ASC",
          "policy": "default",
          "query": "SELECT sum(\"LOADPCT\") / 100 * 865 FROM \"APC\" WHERE \"LOADPCT\" = 'loadpercent' AND $timeFilter GROUP BY time(30s) fill(null)",
          "rawQuery": false,
          "refId": "A",
          "resultFormat": "time_series",
          "select": [
            [
              {
                "params": [
                  "LOADPCT"
                ],
                "type": "field"
              },
              {
                "params": [],
                "type": "sum"
              },
              {
                "params": [
                  "/100*$maxwatt/1000/60*$kwhprice"
                ],
                "type": "math"
              }
            ]
          ],
          "tags": []
        }
      ],
      "thresholds": "",
      "timeFrom": "now/y",
      "title": "This Year's Cost",
      "type": "singlestat",
      "valueFontSize": "100%",
      "valueMaps": [
        {
          "op": "=",
          "text": "N/A",
          "value": "null"
        }
      ],
      "valueName": "total"
    },
    {
      "cacheTimeout": null,
      "colorBackground": false,
      "colorValue": false,
      "colors": [
        "#299c46",
        "rgba(237, 129, 40, 0.89)",
        "#d44a3a"
      ],
      "datasource": "$upsdatasource",
      "decimals": 2,
      "description": "",
      "format": "kwatth",
      "gauge": {
        "maxValue": 100,
        "minValue": 0,
        "show": false,
        "thresholdLabels": false,
        "thresholdMarkers": true
      },
      "gridPos": {
        "h": 2,
        "w": 4,
        "x": 20,
        "y": 16
      },
      "hideTimeOverride": true,
      "id": 37,
      "interval": null,
      "links": [],
      "mappingType": 1,
      "mappingTypes": [
        {
          "name": "value to text",
          "value": 1
        },
        {
          "name": "range to text",
          "value": 2
        }
      ],
      "maxDataPoints": 100,
      "nullPointMode": "connected",
      "nullText": null,
      "options": {},
      "postfix": "",
      "postfixFontSize": "100%",
      "prefix": "",
      "prefixFontSize": "100%",
      "rangeMaps": [
        {
          "from": "null",
          "text": "N/A",
          "to": "null"
        }
      ],
      "sparkline": {
        "fillColor": "#3f6833",
        "full": false,
        "lineColor": "#3f6833",
        "show": false
      },
      "tableColumn": "sum",
      "targets": [
        {
          "alias": "Costs",
          "groupBy": [
            {
              "params": [
                "1d"
              ],
              "type": "time"
            },
            {
              "params": [
                "none"
              ],
              "type": "fill"
            }
          ],
          "hide": false,
          "measurement": "APC",
          "orderByTime": "ASC",
          "policy": "default",
          "query": "SELECT sum(\"LOADPCT\") / 100 * 865 FROM \"APC\" WHERE \"LOADPCT\" = 'loadpercent' AND $timeFilter GROUP BY time(30s) fill(null)",
          "rawQuery": false,
          "refId": "A",
          "resultFormat": "time_series",
          "select": [
            [
              {
                "params": [
                  "LOADPCT"
                ],
                "type": "field"
              },
              {
                "params": [],
                "type": "mean"
              },
              {
                "params": [
                  "/100*$maxwatt/1000*24*365"
                ],
                "type": "math"
              }
            ]
          ],
          "tags": []
        }
      ],
      "thresholds": "",
      "timeFrom": "now/y",
      "title": "Estimated Yearly Usage",
      "type": "singlestat",
      "valueFontSize": "100%",
      "valueMaps": [
        {
          "op": "=",
          "text": "N/A",
          "value": "null"
        }
      ],
      "valueName": "avg"
    },
    {
      "aliasColors": {
        "Costs": "#7eb26d",
        "kWh": "#eab839"
      },
      "bars": true,
      "dashLength": 10,
      "dashes": false,
      "datasource": "$upsdatasource",
      "decimals": 2,
      "editable": true,
      "error": false,
      "fill": 1,
      "fillGradient": 0,
      "grid": {},
      "gridPos": {
        "h": 7,
        "w": 20,
        "x": 0,
        "y": 18
      },
      "hideTimeOverride": false,
      "id": 34,
      "interval": "1d",
      "legend": {
        "alignAsTable": true,
        "avg": true,
        "current": true,
        "hideEmpty": false,
        "hideZero": false,
        "max": true,
        "min": false,
        "rightSide": false,
        "show": true,
        "total": true,
        "values": true
      },
      "lines": false,
      "linewidth": 2,
      "links": [],
      "nullPointMode": "connected",
      "options": {
        "dataLinks": []
      },
      "paceLength": 10,
      "percentage": false,
      "pointradius": 5,
      "points": false,
      "renderer": "flot",
      "seriesOverrides": [
        {
          "alias": "Costs",
          "yaxis": 2
        }
      ],
      "spaceLength": 10,
      "span": 12,
      "stack": false,
      "steppedLine": false,
      "targets": [
        {
          "alias": "Costs",
          "dsType": "influxdb",
          "groupBy": [
            {
              "params": [
                "$__interval"
              ],
              "type": "time"
            },
            {
              "params": [
                "none"
              ],
              "type": "fill"
            }
          ],
          "hide": false,
          "measurement": "APC",
          "orderByTime": "ASC",
          "policy": "default",
          "query": "SELECT sum(\"value\") *0.22/1000 FROM \"power\" WHERE \"host\" = 'mainpower' AND $timeFilter GROUP BY time(1d) fill(null)",
          "refId": "B",
          "resultFormat": "time_series",
          "select": [
            [
              {
                "params": [
                  "LOADPCT"
                ],
                "type": "field"
              },
              {
                "params": [],
                "type": "sum"
              },
              {
                "params": [
                  "/100*$maxwatt/1000/60*$kwhprice"
                ],
                "type": "math"
              }
            ]
          ],
          "tags": []
        },
        {
          "alias": "kWh",
          "dsType": "influxdb",
          "groupBy": [
            {
              "params": [
                "$__interval"
              ],
              "type": "time"
            },
            {
              "params": [
                "none"
              ],
              "type": "fill"
            }
          ],
          "hide": false,
          "measurement": "APC",
          "orderByTime": "ASC",
          "policy": "default",
          "query": "SELECT sum(\"value\") FROM \"power\" WHERE \"host\" = 'mainpower' AND $timeFilter GROUP BY time(1d) fill(null)",
          "refId": "A",
          "resultFormat": "time_series",
          "select": [
            [
              {
                "params": [
                  "LOADPCT"
                ],
                "type": "field"
              },
              {
                "params": [],
                "type": "sum"
              },
              {
                "params": [
                  "/100*$maxwatt/1000/60"
                ],
                "type": "math"
              }
            ]
          ],
          "tags": []
        }
      ],
      "thresholds": [],
      "timeFrom": "now/y",
      "timeRegions": [],
      "timeShift": null,
      "title": "This Years Consumption/Costs",
      "tooltip": {
        "msResolution": false,
        "shared": true,
        "sort": 0,
        "value_type": "cumulative"
      },
      "type": "graph",
      "xaxis": {
        "buckets": null,
        "mode": "time",
        "name": null,
        "show": true,
        "values": []
      },
      "yaxes": [
        {
          "decimals": 1,
          "format": "kwatth",
          "label": "Load",
          "logBase": 1,
          "max": "8",
          "min": null,
          "show": true
        },
        {
          "decimals": 2,
          "format": "currencyUSD",
          "label": "Cost",
          "logBase": 1,
          "max": null,
          "min": null,
          "show": true
        }
      ],
      "yaxis": {
        "align": false,
        "alignLevel": null
      }
    },
    {
      "cacheTimeout": null,
      "colorBackground": false,
      "colorPrefix": true,
      "colorValue": true,
      "colors": [
        "#299c46",
        "rgba(237, 129, 40, 0.89)",
        "#d44a3a"
      ],
      "datasource": "$upsdatasource",
      "decimals": 2,
      "description": "",
      "format": "none",
      "gauge": {
        "maxValue": 100,
        "minValue": 0,
        "show": false,
        "thresholdLabels": false,
        "thresholdMarkers": true
      },
      "gridPos": {
        "h": 2,
        "w": 4,
        "x": 20,
        "y": 18
      },
      "hideTimeOverride": true,
      "id": 36,
      "interval": null,
      "links": [],
      "mappingType": 1,
      "mappingTypes": [
        {
          "name": "value to text",
          "value": 1
        },
        {
          "name": "range to text",
          "value": 2
        }
      ],
      "maxDataPoints": 100,
      "nullPointMode": "connected",
      "nullText": null,
      "options": {},
      "postfix": "",
      "postfixFontSize": "100%",
      "prefix": "$currency",
      "prefixFontSize": "100%",
      "rangeMaps": [
        {
          "from": "null",
          "text": "N/A",
          "to": "null"
        }
      ],
      "sparkline": {
        "fillColor": "#3f6833",
        "full": false,
        "lineColor": "#3f6833",
        "show": false
      },
      "tableColumn": "sum",
      "targets": [
        {
          "alias": "Costs",
          "groupBy": [
            {
              "params": [
                "$__interval"
              ],
              "type": "time"
            },
            {
              "params": [
                "none"
              ],
              "type": "fill"
            }
          ],
          "hide": false,
          "measurement": "APC",
          "orderByTime": "ASC",
          "policy": "default",
          "query": "SELECT sum(\"LOADPCT\") / 100 * 865 FROM \"APC\" WHERE \"LOADPCT\" = 'loadpercent' AND $timeFilter GROUP BY time(30s) fill(null)",
          "rawQuery": false,
          "refId": "A",
          "resultFormat": "time_series",
          "select": [
            [
              {
                "params": [
                  "LOADPCT"
                ],
                "type": "field"
              },
              {
                "params": [],
                "type": "mean"
              },
              {
                "params": [
                  "/100*$maxwatt/1000*24*$kwhprice*365"
                ],
                "type": "math"
              }
            ]
          ],
          "tags": []
        }
      ],
      "thresholds": "",
      "timeFrom": "now/y",
      "title": "Estimated Yearly Cost",
      "type": "singlestat",
      "valueFontSize": "100%",
      "valueMaps": [
        {
          "op": "=",
          "text": "N/A",
          "value": "null"
        }
      ],
      "valueName": "avg"
    },
    {
      "aliasColors": {},
      "bars": true,
      "dashLength": 10,
      "dashes": false,
      "datasource": "$upsdatasource",
      "decimals": 0,
      "fill": 1,
      "fillGradient": 0,
      "gridPos": {
        "h": 5,
        "w": 4,
        "x": 20,
        "y": 20
      },
      "hideTimeOverride": true,
      "id": 39,
      "legend": {
        "alignAsTable": false,
        "avg": false,
        "current": false,
        "hideEmpty": false,
        "hideZero": false,
        "max": false,
        "min": false,
        "show": false,
        "total": false,
        "values": false
      },
      "lines": false,
      "linewidth": 1,
      "links": [],
      "nullPointMode": "null",
      "options": {
        "dataLinks": []
      },
      "paceLength": 10,
      "percentage": false,
      "pointradius": 5,
      "points": false,
      "renderer": "flot",
      "seriesOverrides": [
        {
          "alias": "W",
          "color": "#c15c17"
        },
        {
          "alias": "T",
          "color": "#299c46"
        },
        {
          "alias": "T",
          "yaxis": 2
        }
      ],
      "spaceLength": 10,
      "stack": false,
      "steppedLine": false,
      "targets": [
        {
          "alias": "W",
          "dsType": "influxdb",
          "groupBy": [
            {
              "params": [
                "$__interval"
              ],
              "type": "time"
            },
            {
              "params": [
                "none"
              ],
              "type": "fill"
            }
          ],
          "measurement": "APC",
          "orderByTime": "ASC",
          "policy": "default",
          "refId": "A",
          "resultFormat": "time_series",
          "select": [
            [
              {
                "params": [
                  "LOADPCT"
                ],
                "type": "field"
              },
              {
                "params": [],
                "type": "mean"
              },
              {
                "params": [
                  "* 0.01 * $maxwatt"
                ],
                "type": "math"
              }
            ]
          ],
          "tags": []
        },
        {
          "alias": "T",
          "dsType": "influxdb",
          "groupBy": [
            {
              "params": [
                "$__interval"
              ],
              "type": "time"
            },
            {
              "params": [
                "none"
              ],
              "type": "fill"
            }
          ],
          "measurement": "APC",
          "orderByTime": "ASC",
          "policy": "default",
          "refId": "B",
          "resultFormat": "time_series",
          "select": [
            [
              {
                "params": [
                  "TIMELEFT"
                ],
                "type": "field"
              },
              {
                "params": [],
                "type": "mean"
              }
            ]
          ],
          "tags": []
        }
      ],
      "thresholds": [],
      "timeFrom": "now-1m",
      "timeRegions": [],
      "timeShift": null,
      "title": "UPS Load vs Time left",
      "tooltip": {
        "shared": true,
        "sort": 0,
        "value_type": "individual"
      },
      "type": "graph",
      "xaxis": {
        "buckets": null,
        "mode": "series",
        "name": null,
        "show": true,
        "values": [
          "avg"
        ]
      },
      "yaxes": [
        {
          "format": "watt",
          "label": "",
          "logBase": 1,
          "max": null,
          "min": null,
          "show": true
        },
        {
          "format": "m",
          "label": null,
          "logBase": 1,
          "max": null,
          "min": null,
          "show": true
        }
      ],
      "yaxis": {
        "align": true,
        "alignLevel": null
      }
    }
  ],
  "refresh": "1m",
  "schemaVersion": 19,
  "style": "dark",
  "tags": [],
  "templating": {
    "list": [
      {
        "allValue": null,
        "current": {
          "selected": true,
          "tags": [],
          "text": "0.12",
          "value": "0.12"
        },
        "hide": 0,
        "includeAll": false,
        "label": "kWh Price",
        "multi": false,
        "name": "kwhprice",
        "options": [
          {
            "selected": false,
            "text": "0.01",
            "value": "0.01"
          },
          {
            "selected": false,
            "text": "0.02",
            "value": "0.02"
          },
          {
            "selected": false,
            "text": "0.03",
            "value": "0.03"
          },
          {
            "selected": false,
            "text": "0.04",
            "value": "0.04"
          },
          {
            "selected": false,
            "text": "0.05",
            "value": "0.05"
          },
          {
            "selected": false,
            "text": "0.06",
            "value": "0.06"
          },
          {
            "selected": false,
            "text": "0.07",
            "value": "0.07"
          },
          {
            "selected": false,
            "text": "0.08",
            "value": "0.08"
          },
          {
            "selected": false,
            "text": "0.09",
            "value": "0.09"
          },
          {
            "selected": false,
            "text": "0.1",
            "value": "0.1"
          },
          {
            "selected": false,
            "text": "0.11",
            "value": "0.11"
          },
          {
            "selected": true,
            "text": "0.12",
            "value": "0.12"
          },
          {
            "selected": false,
            "text": "0.13",
            "value": "0.13"
          },
          {
            "selected": false,
            "text": "0.14",
            "value": "0.14"
          },
          {
            "selected": false,
            "text": "0.15",
            "value": "0.15"
          },
          {
            "selected": false,
            "text": "0.16",
            "value": "0.16"
          },
          {
            "selected": false,
            "text": "0.17",
            "value": "0.17"
          },
          {
            "selected": false,
            "text": "0.18",
            "value": "0.18"
          },
          {
            "selected": false,
            "text": "0.19",
            "value": "0.19"
          },
          {
            "selected": false,
            "text": "0.2",
            "value": "0.2"
          },
          {
            "selected": false,
            "text": "0.3",
            "value": "0.3"
          },
          {
            "selected": false,
            "text": "0.4",
            "value": "0.4"
          },
          {
            "selected": false,
            "text": "0.5",
            "value": "0.5"
          },
          {
            "selected": false,
            "text": "0.6",
            "value": "0.6"
          },
          {
            "selected": false,
            "text": "0.65",
            "value": "0.65"
          },
          {
            "selected": false,
            "text": "0.7",
            "value": "0.7"
          },
          {
            "selected": false,
            "text": "0.8",
            "value": "0.8"
          },
          {
            "selected": false,
            "text": "0.9",
            "value": "0.9"
          },
          {
            "selected": false,
            "text": "1",
            "value": "1"
          }
        ],
        "query": "0.01,0.02,0.03,0.04,0.05,0.06,0.07,0.08,0.09,0.1,0.11,0.12,0.13,0.14,0.15,0.16,0.17,0.18,0.19,0.2,0.3,0.4,0.5,0.6,0.65,0.7,0.8,0.9,1",
        "skipUrlSync": false,
        "type": "custom"
      },
      {
        "allValue": null,
        "current": {
          "selected": true,
          "text": "865",
          "value": "865"
        },
        "hide": 0,
        "includeAll": false,
        "label": "UPS Max Output Power Capacity (Watt)",
        "multi": false,
        "name": "maxwatt",
        "options": [
          {
            "selected": false,
            "text": "500",
            "value": "500"
          },
          {
            "selected": false,
            "text": "600",
            "value": "600"
          },
          {
            "selected": false,
            "text": "700",
            "value": "700"
          },
          {
            "selected": false,
            "text": "800",
            "value": "800"
          },
          {
            "selected": true,
            "text": "865",
            "value": "865"
          },
          {
            "selected": false,
            "text": "900",
            "value": "900"
          },
          {
            "selected": false,
            "text": "1000",
            "value": "1000"
          },
          {
            "selected": false,
            "text": "1100",
            "value": "1100"
          },
          {
            "selected": false,
            "text": "1200",
            "value": "1200"
          },
          {
            "selected": false,
            "text": "1300",
            "value": "1300"
          },
          {
            "selected": false,
            "text": "1400",
            "value": "1400"
          },
          {
            "selected": false,
            "text": "1500",
            "value": "1500"
          },
          {
            "selected": false,
            "text": "1600",
            "value": "1600"
          },
          {
            "selected": false,
            "text": "1700",
            "value": "1700"
          },
          {
            "selected": false,
            "text": "1800",
            "value": "1800"
          },
          {
            "selected": false,
            "text": "1900",
            "value": "1900"
          },
          {
            "selected": false,
            "text": "2000",
            "value": "2000"
          }
        ],
        "query": "500,600,700,800,865,900,1000,1100,1200,1300,1400,1500,1600,1700,1800,1900,2000",
        "skipUrlSync": false,
        "type": "custom"
      },
      {
        "allValue": null,
        "current": {
          "selected": true,
          "text": "$",
          "value": "$"
        },
        "hide": 0,
        "includeAll": false,
        "label": "Currency",
        "multi": false,
        "name": "currency",
        "options": [
          {
            "selected": true,
            "text": "$",
            "value": "$"
          },
          {
            "selected": false,
            "text": "€",
            "value": "€"
          },
          {
            "selected": false,
            "text": "£",
            "value": "£"
          },
          {
            "selected": false,
            "text": "C$",
            "value": "C$"
          },
          {
            "selected": false,
            "text": "kr",
            "value": "kr"
          },
          {
            "selected": false,
            "text": "₽",
            "value": "₽"
          },
          {
            "selected": false,
            "text": "¥",
            "value": "¥"
          }
        ],
        "query": "$,€,£,C$,kr,₽,¥",
        "skipUrlSync": false,
        "type": "custom"
      },
      {
        "current": {
          "text": "Influx UPS",
          "value": "Influx UPS"
        },
        "hide": 0,
        "includeAll": false,
        "label": "UPS Datasource",
        "multi": false,
        "name": "upsdatasource",
        "options": [],
        "query": "influxdb",
        "refresh": 1,
        "regex": "",
        "skipUrlSync": false,
        "type": "datasource"
      }
    ]
  },
  "time": {
    "from": "now-1M/M",
    "to": "now-1M/M"
  },
  "timepicker": {
    "hidden": true,
    "refresh_intervals": [
      "1m"
    ],
    "time_options": [
      "5m",
      "15m",
      "1h",
      "6h",
      "12h",
      "24h",
      "2d",
      "7d",
      "30d"
    ]
  },
  "timezone": "browser",
  "title": "Unraid UPS Dashboard TR",
  "uid": "FBsdas"
}