{
  "annotations": {
    "list": [
      {
        "builtIn": 1,
        "datasource": "-- Grafana --",
        "enable": true,
        "hide": true,
        "iconColor": "rgba(0, 211, 255, 1)",
        "name": "Annotations & Alerts",
        "type": "dashboard"
      }
    ]
  },
  "editable": true,
  "gnetId": null,
  "graphTooltip": 0,
  "links": [],
  "panels": [
    {
      "collapsed": false,
      "datasource": null,
      "gridPos": {
        "h": 1,
        "w": 24,
        "x": 0,
        "y": 0
      },
      "id": 4,
      "panels": [],
      "repeat": null,
      "title": "CPU",
      "type": "row"
    },
    {
      "aliasColors": {
        "CPU iowait time": "#B7DBAB",
        "CPU system time": "#BF1B00",
        "CPU user time": "#EAB839"
      },
      "bars": false,
      "dashLength": 10,
      "dashes": false,
      "datasource": "SSM Zabbix",
      "editable": true,
      "error": false,
      "fill": 3,
      "grid": {},
      "gridPos": {
        "h": 7,
        "w": 12,
        "x": 0,
        "y": 1
      },
      "id": 1,
      "legend": {
        "avg": false,
        "current": false,
        "max": false,
        "min": false,
        "show": true,
        "total": false,
        "values": false
      },
      "lines": true,
      "linewidth": 1,
      "links": [],
      "nullPointMode": "connected",
      "percentage": false,
      "pointradius": 2,
      "points": false,
      "renderer": "flot",
      "seriesOverrides": [],
      "spaceLength": 10,
      "stack": true,
      "steppedLine": false,
      "targets": [
        {
          "application": {
            "filter": "CPU"
          },
          "countTriggers": true,
          "functions": [],
          "group": {
            "filter": "$group"
          },
          "host": {
            "filter": "$host"
          },
          "item": {
            "filter": "/CPU/"
          },
          "minSeverity": 3,
          "mode": 0,
          "options": {
            "showDisabledItems": false
          },
          "refId": "A"
        }
      ],
      "thresholds": [],
      "timeFrom": null,
      "timeRegions": [],
      "timeShift": null,
      "title": "CPU",
      "tooltip": {
        "msResolution": false,
        "shared": true,
        "sort": 0,
        "value_type": "individual"
      },
      "type": "graph",
      "xaxis": {
        "buckets": null,
        "mode": "time",
        "name": null,
        "show": true,
        "values": []
      },
      "yaxes": [
        {
          "format": "percent",
          "logBase": 1,
          "max": 100,
          "min": 0,
          "show": true
        },
        {
          "format": "short",
          "logBase": 1,
          "max": null,
          "min": null,
          "show": true
        }
      ],
      "yaxis": {
        "align": false,
        "alignLevel": null
      }
    },
    {
      "aliasColors": {
        "Processor load (1 min average per core)": "#1F78C1"
      },
      "bars": false,
      "dashLength": 10,
      "dashes": false,
      "datasource": "SSM Zabbix",
      "editable": true,
      "error": false,
      "fill": 1,
      "grid": {},
      "gridPos": {
        "h": 7,
        "w": 12,
        "x": 12,
        "y": 1
      },
      "id": 2,
      "legend": {
        "avg": false,
        "current": false,
        "max": false,
        "min": false,
        "show": true,
        "total": false,
        "values": false
      },
      "lines": true,
      "linewidth": 2,
      "links": [],
      "nullPointMode": "connected",
      "percentage": false,
      "pointradius": 5,
      "points": false,
      "renderer": "flot",
      "seriesOverrides": [],
      "spaceLength": 10,
      "stack": false,
      "steppedLine": false,
      "targets": [
        {
          "application": {
            "filter": "CPU"
          },
          "countTriggers": true,
          "functions": [],
          "group": {
            "filter": "$group"
          },
          "host": {
            "filter": "$host"
          },
          "item": {
            "filter": "CPU Use in %"
          },
          "minSeverity": 3,
          "mode": 0,
          "options": {
            "showDisabledItems": false
          },
          "refId": "A",
          "resultFormat": "time_series",
          "table": {
            "skipEmptyValues": false
          },
          "triggers": {
            "acknowledged": 2,
            "count": true,
            "minSeverity": 3
          }
        }
      ],
      "thresholds": [],
      "timeFrom": null,
      "timeRegions": [],
      "timeShift": null,
      "title": "System load",
      "tooltip": {
        "msResolution": false,
        "shared": true,
        "sort": 0,
        "value_type": "cumulative"
      },
      "type": "graph",
      "xaxis": {
        "buckets": null,
        "mode": "time",
        "name": null,
        "show": true,
        "values": []
      },
      "yaxes": [
        {
          "format": "short",
          "logBase": 1,
          "max": null,
          "min": 0,
          "show": true
        },
        {
          "format": "short",
          "logBase": 1,
          "max": null,
          "min": null,
          "show": true
        }
      ],
      "yaxis": {
        "align": false,
        "alignLevel": null
      }
    },
    {
      "collapsed": false,
      "datasource": null,
      "gridPos": {
        "h": 1,
        "w": 24,
        "x": 0,
        "y": 8
      },
      "id": 5,
      "panels": [],
      "repeat": null,
      "title": "Network",
      "type": "row"
    },
    {
      "aliasColors": {},
      "bars": false,
      "dashLength": 10,
      "dashes": false,
      "datasource": "SSM Zabbix",
      "editable": true,
      "error": false,
      "fill": 3,
      "grid": {},
      "gridPos": {
        "h": 7,
        "w": 8,
        "x": 0,
        "y": 9
      },
      "id": 3,
      "legend": {
        "alignAsTable": false,
        "avg": false,
        "current": false,
        "max": false,
        "min": false,
        "rightSide": false,
        "show": true,
        "total": false,
        "values": false
      },
      "lines": true,
      "linewidth": 2,
      "links": [],
      "maxPerRow": 3,
      "nullPointMode": "connected",
      "percentage": false,
      "pointradius": 5,
      "points": false,
      "renderer": "flot",
      "repeat": "netif",
      "scopedVars": {
        "netif": {
          "selected": false,
          "text": "Intel(R) Ethernet Connection (3) I218-LM",
          "value": "Intel(R) Ethernet Connection (3) I218-LM"
        }
      },
      "seriesOverrides": [
        {
          "alias": "/Incoming/",
          "transform": "negative-Y"
        }
      ],
      "spaceLength": 10,
      "stack": false,
      "steppedLine": false,
      "targets": [
        {
          "application": {
            "filter": ""
          },
          "countTriggers": true,
          "functions": [],
          "group": {
            "filter": "$group"
          },
          "host": {
            "filter": "$host"
          },
          "item": {
            "filter": "/$netif/"
          },
          "minSeverity": 3,
          "mode": 0,
          "options": {
            "showDisabledItems": false
          },
          "refId": "A"
        }
      ],
      "thresholds": [],
      "timeFrom": null,
      "timeRegions": [],
      "timeShift": null,
      "title": "Network traffic on $netif",
      "tooltip": {
        "msResolution": false,
        "shared": true,
        "sort": 0,
        "value_type": "cumulative"
      },
      "type": "graph",
      "xaxis": {
        "buckets": null,
        "mode": "time",
        "name": null,
        "show": true,
        "values": []
      },
      "yaxes": [
        {
          "format": "bps",
          "logBase": 1,
          "max": null,
          "min": null,
          "show": true
        },
        {
          "format": "short",
          "logBase": 1,
          "max": null,
          "min": null,
          "show": true
        }
      ],
      "yaxis": {
        "align": false,
        "alignLevel": null
      }
    },
    {
      "aliasColors": {},
      "bars": false,
      "dashLength": 10,
      "dashes": false,
      "datasource": "SSM Zabbix",
      "editable": true,
      "error": false,
      "fill": 3,
      "grid": {},
      "gridPos": {
        "h": 7,
        "w": 8,
        "x": 8,
        "y": 9
      },
      "id": 6,
      "legend": {
        "alignAsTable": false,
        "avg": false,
        "current": false,
        "max": false,
        "min": false,
        "rightSide": false,
        "show": true,
        "total": false,
        "values": false
      },
      "lines": true,
      "linewidth": 2,
      "links": [],
      "maxPerRow": 3,
      "nullPointMode": "connected",
      "percentage": false,
      "pointradius": 5,
      "points": false,
      "renderer": "flot",
      "repeat": null,
      "repeatIteration": 1556806332135,
      "repeatPanelId": 3,
      "scopedVars": {
        "netif": {
          "selected": false,
          "text": "Microsoft IP-HTTPS Platform Adapter",
          "value": "Microsoft IP-HTTPS Platform Adapter"
        }
      },
      "seriesOverrides": [
        {
          "alias": "/Incoming/",
          "transform": "negative-Y"
        }
      ],
      "spaceLength": 10,
      "stack": false,
      "steppedLine": false,
      "targets": [
        {
          "application": {
            "filter": ""
          },
          "countTriggers": true,
          "functions": [],
          "group": {
            "filter": "$group"
          },
          "host": {
            "filter": "$host"
          },
          "item": {
            "filter": "/$netif/"
          },
          "minSeverity": 3,
          "mode": 0,
          "options": {
            "showDisabledItems": false
          },
          "refId": "A"
        }
      ],
      "thresholds": [],
      "timeFrom": null,
      "timeRegions": [],
      "timeShift": null,
      "title": "Network traffic on $netif",
      "tooltip": {
        "msResolution": false,
        "shared": true,
        "sort": 0,
        "value_type": "cumulative"
      },
      "type": "graph",
      "xaxis": {
        "buckets": null,
        "mode": "time",
        "name": null,
        "show": true,
        "values": []
      },
      "yaxes": [
        {
          "format": "bps",
          "logBase": 1,
          "max": null,
          "min": null,
          "show": true
        },
        {
          "format": "short",
          "logBase": 1,
          "max": null,
          "min": null,
          "show": true
        }
      ],
      "yaxis": {
        "align": false,
        "alignLevel": null
      }
    },
    {
      "aliasColors": {},
      "bars": false,
      "dashLength": 10,
      "dashes": false,
      "datasource": "SSM Zabbix",
      "editable": true,
      "error": false,
      "fill": 3,
      "grid": {},
      "gridPos": {
        "h": 7,
        "w": 8,
        "x": 16,
        "y": 9
      },
      "id": 7,
      "legend": {
        "alignAsTable": false,
        "avg": false,
        "current": false,
        "max": false,
        "min": false,
        "rightSide": false,
        "show": true,
        "total": false,
        "values": false
      },
      "lines": true,
      "linewidth": 2,
      "links": [],
      "maxPerRow": 3,
      "nullPointMode": "connected",
      "percentage": false,
      "pointradius": 5,
      "points": false,
      "renderer": "flot",
      "repeat": null,
      "repeatIteration": 1556806332135,
      "repeatPanelId": 3,
      "scopedVars": {
        "netif": {
          "selected": false,
          "text": "Intel(R) Dual Band Wireless-AC 7265-Virtual WiFi Filter Driver-0000",
          "value": "Intel(R) Dual Band Wireless-AC 7265-Virtual WiFi Filter Driver-0000"
        }
      },
      "seriesOverrides": [
        {
          "alias": "/Incoming/",
          "transform": "negative-Y"
        }
      ],
      "spaceLength": 10,
      "stack": false,
      "steppedLine": false,
      "targets": [
        {
          "application": {
            "filter": ""
          },
          "countTriggers": true,
          "functions": [],
          "group": {
            "filter": "$group"
          },
          "host": {
            "filter": "$host"
          },
          "item": {
            "filter": "/$netif/"
          },
          "minSeverity": 3,
          "mode": 0,
          "options": {
            "showDisabledItems": false
          },
          "refId": "A"
        }
      ],
      "thresholds": [],
      "timeFrom": null,
      "timeRegions": [],
      "timeShift": null,
      "title": "Network traffic on $netif",
      "tooltip": {
        "msResolution": false,
        "shared": true,
        "sort": 0,
        "value_type": "cumulative"
      },
      "type": "graph",
      "xaxis": {
        "buckets": null,
        "mode": "time",
        "name": null,
        "show": true,
        "values": []
      },
      "yaxes": [
        {
          "format": "bps",
          "logBase": 1,
          "max": null,
          "min": null,
          "show": true
        },
        {
          "format": "short",
          "logBase": 1,
          "max": null,
          "min": null,
          "show": true
        }
      ],
      "yaxis": {
        "align": false,
        "alignLevel": null
      }
    },
    {
      "aliasColors": {},
      "bars": false,
      "dashLength": 10,
      "dashes": false,
      "datasource": "SSM Zabbix",
      "editable": true,
      "error": false,
      "fill": 3,
      "grid": {},
      "gridPos": {
        "h": 7,
        "w": 8,
        "x": 0,
        "y": 16
      },
      "id": 8,
      "legend": {
        "alignAsTable": false,
        "avg": false,
        "current": false,
        "max": false,
        "min": false,
        "rightSide": false,
        "show": true,
        "total": false,
        "values": false
      },
      "lines": true,
      "linewidth": 2,
      "links": [],
      "maxPerRow": 3,
      "nullPointMode": "connected",
      "percentage": false,
      "pointradius": 5,
      "points": false,
      "renderer": "flot",
      "repeat": null,
      "repeatIteration": 1556806332135,
      "repeatPanelId": 3,
      "scopedVars": {
        "netif": {
          "selected": false,
          "text": "Intel(R) Dual Band Wireless-AC 7265-Native WiFi Filter Driver-0000",
          "value": "Intel(R) Dual Band Wireless-AC 7265-Native WiFi Filter Driver-0000"
        }
      },
      "seriesOverrides": [
        {
          "alias": "/Incoming/",
          "transform": "negative-Y"
        }
      ],
      "spaceLength": 10,
      "stack": false,
      "steppedLine": false,
      "targets": [
        {
          "application": {
            "filter": ""
          },
          "countTriggers": true,
          "functions": [],
          "group": {
            "filter": "$group"
          },
          "host": {
            "filter": "$host"
          },
          "item": {
            "filter": "/$netif/"
          },
          "minSeverity": 3,
          "mode": 0,
          "options": {
            "showDisabledItems": false
          },
          "refId": "A"
        }
      ],
      "thresholds": [],
      "timeFrom": null,
      "timeRegions": [],
      "timeShift": null,
      "title": "Network traffic on $netif",
      "tooltip": {
        "msResolution": false,
        "shared": true,
        "sort": 0,
        "value_type": "cumulative"
      },
      "type": "graph",
      "xaxis": {
        "buckets": null,
        "mode": "time",
        "name": null,
        "show": true,
        "values": []
      },
      "yaxes": [
        {
          "format": "bps",
          "logBase": 1,
          "max": null,
          "min": null,
          "show": true
        },
        {
          "format": "short",
          "logBase": 1,
          "max": null,
          "min": null,
          "show": true
        }
      ],
      "yaxis": {
        "align": false,
        "alignLevel": null
      }
    },
    {
      "aliasColors": {},
      "bars": false,
      "dashLength": 10,
      "dashes": false,
      "datasource": "SSM Zabbix",
      "editable": true,
      "error": false,
      "fill": 3,
      "grid": {},
      "gridPos": {
        "h": 7,
        "w": 8,
        "x": 8,
        "y": 16
      },
      "id": 9,
      "legend": {
        "alignAsTable": false,
        "avg": false,
        "current": false,
        "max": false,
        "min": false,
        "rightSide": false,
        "show": true,
        "total": false,
        "values": false
      },
      "lines": true,
      "linewidth": 2,
      "links": [],
      "maxPerRow": 3,
      "nullPointMode": "connected",
      "percentage": false,
      "pointradius": 5,
      "points": false,
      "renderer": "flot",
      "repeat": null,
      "repeatIteration": 1556806332135,
      "repeatPanelId": 3,
      "scopedVars": {
        "netif": {
          "selected": false,
          "text": "Microsoft Wi-Fi Direct Virtual Adapter-Native WiFi Filter Driver-0000",
          "value": "Microsoft Wi-Fi Direct Virtual Adapter-Native WiFi Filter Driver-0000"
        }
      },
      "seriesOverrides": [
        {
          "alias": "/Incoming/",
          "transform": "negative-Y"
        }
      ],
      "spaceLength": 10,
      "stack": false,
      "steppedLine": false,
      "targets": [
        {
          "application": {
            "filter": ""
          },
          "countTriggers": true,
          "functions": [],
          "group": {
            "filter": "$group"
          },
          "host": {
            "filter": "$host"
          },
          "item": {
            "filter": "/$netif/"
          },
          "minSeverity": 3,
          "mode": 0,
          "options": {
            "showDisabledItems": false
          },
          "refId": "A"
        }
      ],
      "thresholds": [],
      "timeFrom": null,
      "timeRegions": [],
      "timeShift": null,
      "title": "Network traffic on $netif",
      "tooltip": {
        "msResolution": false,
        "shared": true,
        "sort": 0,
        "value_type": "cumulative"
      },
      "type": "graph",
      "xaxis": {
        "buckets": null,
        "mode": "time",
        "name": null,
        "show": true,
        "values": []
      },
      "yaxes": [
        {
          "format": "bps",
          "logBase": 1,
          "max": null,
          "min": null,
          "show": true
        },
        {
          "format": "short",
          "logBase": 1,
          "max": null,
          "min": null,
          "show": true
        }
      ],
      "yaxis": {
        "align": false,
        "alignLevel": null
      }
    },
    {
      "aliasColors": {},
      "bars": false,
      "dashLength": 10,
      "dashes": false,
      "datasource": "SSM Zabbix",
      "editable": true,
      "error": false,
      "fill": 3,
      "grid": {},
      "gridPos": {
        "h": 7,
        "w": 8,
        "x": 16,
        "y": 16
      },
      "id": 10,
      "legend": {
        "alignAsTable": false,
        "avg": false,
        "current": false,
        "max": false,
        "min": false,
        "rightSide": false,
        "show": true,
        "total": false,
        "values": false
      },
      "lines": true,
      "linewidth": 2,
      "links": [],
      "maxPerRow": 3,
      "nullPointMode": "connected",
      "percentage": false,
      "pointradius": 5,
      "points": false,
      "renderer": "flot",
      "repeat": null,
      "repeatIteration": 1556806332135,
      "repeatPanelId": 3,
      "scopedVars": {
        "netif": {
          "selected": false,
          "text": "Microsoft Wi-Fi Direct Virtual Adapter #2-Native WiFi Filter Driver-0000",
          "value": "Microsoft Wi-Fi Direct Virtual Adapter #2-Native WiFi Filter Driver-0000"
        }
      },
      "seriesOverrides": [
        {
          "alias": "/Incoming/",
          "transform": "negative-Y"
        }
      ],
      "spaceLength": 10,
      "stack": false,
      "steppedLine": false,
      "targets": [
        {
          "application": {
            "filter": ""
          },
          "countTriggers": true,
          "functions": [],
          "group": {
            "filter": "$group"
          },
          "host": {
            "filter": "$host"
          },
          "item": {
            "filter": "/$netif/"
          },
          "minSeverity": 3,
          "mode": 0,
          "options": {
            "showDisabledItems": false
          },
          "refId": "A"
        }
      ],
      "thresholds": [],
      "timeFrom": null,
      "timeRegions": [],
      "timeShift": null,
      "title": "Network traffic on $netif",
      "tooltip": {
        "msResolution": false,
        "shared": true,
        "sort": 0,
        "value_type": "cumulative"
      },
      "type": "graph",
      "xaxis": {
        "buckets": null,
        "mode": "time",
        "name": null,
        "show": true,
        "values": []
      },
      "yaxes": [
        {
          "format": "bps",
          "logBase": 1,
          "max": null,
          "min": null,
          "show": true
        },
        {
          "format": "short",
          "logBase": 1,
          "max": null,
          "min": null,
          "show": true
        }
      ],
      "yaxis": {
        "align": false,
        "alignLevel": null
      }
    },
    {
      "aliasColors": {},
      "bars": false,
      "dashLength": 10,
      "dashes": false,
      "datasource": "SSM Zabbix",
      "editable": true,
      "error": false,
      "fill": 3,
      "grid": {},
      "gridPos": {
        "h": 7,
        "w": 8,
        "x": 0,
        "y": 23
      },
      "id": 11,
      "legend": {
        "alignAsTable": false,
        "avg": false,
        "current": false,
        "max": false,
        "min": false,
        "rightSide": false,
        "show": true,
        "total": false,
        "values": false
      },
      "lines": true,
      "linewidth": 2,
      "links": [],
      "maxPerRow": 3,
      "nullPointMode": "connected",
      "percentage": false,
      "pointradius": 5,
      "points": false,
      "renderer": "flot",
      "repeat": null,
      "repeatIteration": 1556806332135,
      "repeatPanelId": 3,
      "scopedVars": {
        "netif": {
          "selected": false,
          "text": "Intel(R) Dual Band Wireless-AC 7265",
          "value": "Intel(R) Dual Band Wireless-AC 7265"
        }
      },
      "seriesOverrides": [
        {
          "alias": "/Incoming/",
          "transform": "negative-Y"
        }
      ],
      "spaceLength": 10,
      "stack": false,
      "steppedLine": false,
      "targets": [
        {
          "application": {
            "filter": ""
          },
          "countTriggers": true,
          "functions": [],
          "group": {
            "filter": "$group"
          },
          "host": {
            "filter": "$host"
          },
          "item": {
            "filter": "/$netif/"
          },
          "minSeverity": 3,
          "mode": 0,
          "options": {
            "showDisabledItems": false
          },
          "refId": "A"
        }
      ],
      "thresholds": [],
      "timeFrom": null,
      "timeRegions": [],
      "timeShift": null,
      "title": "Network traffic on $netif",
      "tooltip": {
        "msResolution": false,
        "shared": true,
        "sort": 0,
        "value_type": "cumulative"
      },
      "type": "graph",
      "xaxis": {
        "buckets": null,
        "mode": "time",
        "name": null,
        "show": true,
        "values": []
      },
      "yaxes": [
        {
          "format": "bps",
          "logBase": 1,
          "max": null,
          "min": null,
          "show": true
        },
        {
          "format": "short",
          "logBase": 1,
          "max": null,
          "min": null,
          "show": true
        }
      ],
      "yaxis": {
        "align": false,
        "alignLevel": null
      }
    },
    {
      "aliasColors": {},
      "bars": false,
      "dashLength": 10,
      "dashes": false,
      "datasource": "SSM Zabbix",
      "editable": true,
      "error": false,
      "fill": 3,
      "grid": {},
      "gridPos": {
        "h": 7,
        "w": 8,
        "x": 8,
        "y": 23
      },
      "id": 12,
      "legend": {
        "alignAsTable": false,
        "avg": false,
        "current": false,
        "max": false,
        "min": false,
        "rightSide": false,
        "show": true,
        "total": false,
        "values": false
      },
      "lines": true,
      "linewidth": 2,
      "links": [],
      "maxPerRow": 3,
      "nullPointMode": "connected",
      "percentage": false,
      "pointradius": 5,
      "points": false,
      "renderer": "flot",
      "repeat": null,
      "repeatIteration": 1556806332135,
      "repeatPanelId": 3,
      "scopedVars": {
        "netif": {
          "selected": false,
          "text": "Microsoft Wi-Fi Direct Virtual Adapter",
          "value": "Microsoft Wi-Fi Direct Virtual Adapter"
        }
      },
      "seriesOverrides": [
        {
          "alias": "/Incoming/",
          "transform": "negative-Y"
        }
      ],
      "spaceLength": 10,
      "stack": false,
      "steppedLine": false,
      "targets": [
        {
          "application": {
            "filter": ""
          },
          "countTriggers": true,
          "functions": [],
          "group": {
            "filter": "$group"
          },
          "host": {
            "filter": "$host"
          },
          "item": {
            "filter": "/$netif/"
          },
          "minSeverity": 3,
          "mode": 0,
          "options": {
            "showDisabledItems": false
          },
          "refId": "A"
        }
      ],
      "thresholds": [],
      "timeFrom": null,
      "timeRegions": [],
      "timeShift": null,
      "title": "Network traffic on $netif",
      "tooltip": {
        "msResolution": false,
        "shared": true,
        "sort": 0,
        "value_type": "cumulative"
      },
      "type": "graph",
      "xaxis": {
        "buckets": null,
        "mode": "time",
        "name": null,
        "show": true,
        "values": []
      },
      "yaxes": [
        {
          "format": "bps",
          "logBase": 1,
          "max": null,
          "min": null,
          "show": true
        },
        {
          "format": "short",
          "logBase": 1,
          "max": null,
          "min": null,
          "show": true
        }
      ],
      "yaxis": {
        "align": false,
        "alignLevel": null
      }
    },
    {
      "aliasColors": {},
      "bars": false,
      "dashLength": 10,
      "dashes": false,
      "datasource": "SSM Zabbix",
      "editable": true,
      "error": false,
      "fill": 3,
      "grid": {},
      "gridPos": {
        "h": 7,
        "w": 8,
        "x": 16,
        "y": 23
      },
      "id": 13,
      "legend": {
        "alignAsTable": false,
        "avg": false,
        "current": false,
        "max": false,
        "min": false,
        "rightSide": false,
        "show": true,
        "total": false,
        "values": false
      },
      "lines": true,
      "linewidth": 2,
      "links": [],
      "maxPerRow": 3,
      "nullPointMode": "connected",
      "percentage": false,
      "pointradius": 5,
      "points": false,
      "renderer": "flot",
      "repeat": null,
      "repeatIteration": 1556806332135,
      "repeatPanelId": 3,
      "scopedVars": {
        "netif": {
          "selected": false,
          "text": "Microsoft Wi-Fi Direct Virtual Adapter #2",
          "value": "Microsoft Wi-Fi Direct Virtual Adapter #2"
        }
      },
      "seriesOverrides": [
        {
          "alias": "/Incoming/",
          "transform": "negative-Y"
        }
      ],
      "spaceLength": 10,
      "stack": false,
      "steppedLine": false,
      "targets": [
        {
          "application": {
            "filter": ""
          },
          "countTriggers": true,
          "functions": [],
          "group": {
            "filter": "$group"
          },
          "host": {
            "filter": "$host"
          },
          "item": {
            "filter": "/$netif/"
          },
          "minSeverity": 3,
          "mode": 0,
          "options": {
            "showDisabledItems": false
          },
          "refId": "A"
        }
      ],
      "thresholds": [],
      "timeFrom": null,
      "timeRegions": [],
      "timeShift": null,
      "title": "Network traffic on $netif",
      "tooltip": {
        "msResolution": false,
        "shared": true,
        "sort": 0,
        "value_type": "cumulative"
      },
      "type": "graph",
      "xaxis": {
        "buckets": null,
        "mode": "time",
        "name": null,
        "show": true,
        "values": []
      },
      "yaxes": [
        {
          "format": "bps",
          "logBase": 1,
          "max": null,
          "min": null,
          "show": true
        },
        {
          "format": "short",
          "logBase": 1,
          "max": null,
          "min": null,
          "show": true
        }
      ],
      "yaxis": {
        "align": false,
        "alignLevel": null
      }
    }
  ],
  "revision": 1,
  "schemaVersion": 20,
  "style": "dark",
  "tags": [
    "zabbix",
    "example"
  ],
  "templating": {
    "list": [
      {
        "allFormat": "regex values",
        "allValue": null,
        "current": {},
        "datasource": "SSM Zabbix",
        "definition": "",
        "hide": 0,
        "includeAll": false,
        "label": "Group",
        "multi": false,
        "multiFormat": "glob",
        "name": "group",
        "options": [],
        "query": "*",
        "refresh": 1,
        "refresh_on_load": false,
        "regex": "",
        "skipUrlSync": false,
        "sort": 0,
        "tagValuesQuery": "",
        "tags": [],
        "tagsQuery": "",
        "type": "query",
        "useTags": false
      },
      {
        "allFormat": "glob",
        "allValue": null,
        "current": {},
        "datasource": "SSM Zabbix",
        "definition": "",
        "hide": 0,
        "includeAll": false,
        "label": "Host",
        "multi": false,
        "multiFormat": "glob",
        "name": "host",
        "options": [],
        "query": "$group.*",
        "refresh": 1,
        "refresh_on_load": false,
        "regex": "",
        "skipUrlSync": false,
        "sort": 0,
        "tagValuesQuery": "",
        "tags": [],
        "tagsQuery": "",
        "type": "query",
        "useTags": false
      },
      {
        "allFormat": "regex values",
        "allValue": null,
        "current": {},
        "datasource": "SSM Zabbix",
        "definition": "",
        "hide": 0,
        "hideLabel": false,
        "includeAll": true,
        "label": "Network interface",
        "multi": true,
        "multiFormat": "regex values",
        "name": "netif",
        "options": [],
        "query": "*.$host.Network interfaces.*",
        "refresh": 1,
        "refresh_on_load": false,
        "regex": "/(?:Incoming|Outgoing) network traffic on (.*)/",
        "skipUrlSync": false,
        "sort": 0,
        "tagValuesQuery": "",
        "tags": [],
        "tagsQuery": "",
        "type": "query",
        "useTags": false
      }
    ]
  },
  "time": {
    "from": "now-3h",
    "to": "now"
  },
  "timepicker": {
    "now": true,
    "refresh_intervals": [
      "30s",
      "1m",
      "5m",
      "15m",
      "30m",
      "1h",
      "3h",
      "2h",
      "1d"
    ],
    "time_options": [
      "5m",
      "15m",
      "1h",
      "6h",
      "12h",
      "24h",
      "2d",
      "7d",
      "30d"
    ]
  },
  "timezone": "browser",
  "title": "Zabbix Template Linux Server",
  "uid": "BeXMDufik"
}