{
  "orgId": 1,
  "name": "PS LN4",
  "type": "mssql",
  "typeLogoUrl": "public/app/plugins/datasource/mssql/img/sql_server_logo.svg",
  "access": "proxy",
  "url": "yeasl11-ln4.cern.ch:49159",
  "password": "",
  "user": "ssm",
  "database": "msdb",
  "basicAuth": false,
  "isDefault": false,
  "jsonData": {
    "encrypt": "disable",
    "keepCookies": []
  },
  "readOnly": false
}