{
  "orgId": 1,
  "name": "SSM MySQL History",
  "type": "mysql",
  "typeLogoUrl": "public/app/plugins/datasource/mysql/img/mysql_logo.svg",
  "access": "proxy",
  "url": "localhost:3306",
  "password": "consult",
  "user": "consult",
  "database": "history",
  "basicAuth": false,
  "isDefault": false,
  "jsonData": {
    "keepCookies": []
  },
  "readOnly": false
}