{
  "orgId": 1,
  "name": "SSM InfluxDB",
  "type": "influxdb",
  "typeLogoUrl": "public/app/plugins/datasource/influxdb/img/influxdb_logo.svg",
  "access": "proxy",
  "url": "http://localhost:8086",
  "password": "11kkdela",
  "user": "grafana",
  "database": "telegraf",
  "basicAuth": false,
  "isDefault": true,
  "jsonData": {
    "keepCookies": [],
    "tlsSkipVerify": true
  },
  "readOnly": false
}