{
  "orgId": 1,
  "name": "SSM InfluxDB Historical",
  "type": "influxdb",
  "typeLogoUrl": "public/app/plugins/datasource/influxdb/img/influxdb_logo.svg",
  "access": "proxy",
  "url": "http://localhost:8086",
  "password": "history10",
  "user": "history",
  "database": "history",
  "basicAuth": false,
  "isDefault": false,
  "jsonData": {
    "keepCookies": []
  },
  "readOnly": false
}