{
  "orgId": 1,
  "name": "SSM Zabbix",
  "type": "alexanderzobnin-zabbix-datasource",
  "typeLogoUrl": "public/plugins/alexanderzobnin-zabbix-datasource/img/zabbix_app_logo.svg",
  "access": "proxy",
  "url": "http://ssm.cern.ch/zabbix/api_jsonrpc.php",
  "password": "",
  "user": "",
  "database": "",
  "basicAuth": false,
  "isDefault": false,
  "jsonData": {
    "addThresholds": true,
    "alerting": true,
    "alertingMinSeverity": 0,
    "dbConnectionDatasourceId": 4,
    "dbConnectionEnable": true,
    "disableReadOnlyUsersAck": false,
    "keepCookies": [],
    "password": "11kkdela",
    "schema": 2,
    "tlsSkipVerify": true,
    "trends": true,
    "username": "grafana",
    "zabbixVersion": 4
  },
  "readOnly": false
}